<?xml version="1.0" encoding="UTF-8" standalone="no"?>
<!-- Created with Inkscape (http://www.inkscape.org/) -->

<svg
   xmlns:dc="http://purl.org/dc/elements/1.1/"
   xmlns:cc="http://creativecommons.org/ns#"
   xmlns:rdf="http://www.w3.org/1999/02/22-rdf-syntax-ns#"
   xmlns:svg="http://www.w3.org/2000/svg"
   xmlns="http://www.w3.org/2000/svg"
   xmlns:sodipodi="http://sodipodi.sourceforge.net/DTD/sodipodi-0.dtd"
   xmlns:inkscape="http://www.inkscape.org/namespaces/inkscape"
   version="1.1"
   id="svg2"
   xml:space="preserve"
   width="795.03729"
   height="1123.8546"
   viewBox="0 0 795.03733 1123.8546"
   sodipodi:docname="TEMPLATE_8-page_stapled-book.svg"
   inkscape:version="0.92.3 (2405546, 2018-03-11)"
   inkscape:export-filename="/home/sam/gitlab/Cut, Copy and Paste/Print/Zines/TEMPLATE_8-page_stapled-book-01.png"
   inkscape:export-xdpi="600.05103"
   inkscape:export-ydpi="600.05103"><metadata
     id="metadata8"><rdf:RDF><cc:Work
         rdf:about=""><dc:format>image/svg+xml</dc:format><dc:type
           rdf:resource="http://purl.org/dc/dcmitype/StillImage" /><dc:title></dc:title></cc:Work></rdf:RDF></metadata><defs
     id="defs6" /><sodipodi:namedview
     pagecolor="#ffffff"
     bordercolor="#666666"
     borderopacity="1"
     objecttolerance="10"
     gridtolerance="10"
     guidetolerance="10"
     inkscape:pageopacity="0"
     inkscape:pageshadow="2"
     inkscape:window-width="3840"
     inkscape:window-height="2020"
     id="namedview4"
     showgrid="false"
     fit-margin-top="0"
     fit-margin-left="0"
     fit-margin-right="0"
     fit-margin-bottom="0"
     inkscape:zoom="1.6820163"
     inkscape:cx="239.35799"
     inkscape:cy="636.47001"
     inkscape:window-x="0"
     inkscape:window-y="68"
     inkscape:window-maximized="1"
     inkscape:current-layer="layer2" /><g
     id="g10"
     inkscape:groupmode="layer"
     inkscape:label="template8_01"
     transform="matrix(1.3333333,0,0,-1.3333333,-163.74172,958.77635)"><path
       inkscape:connector-curvature="0"
       id="path14"
       style="fill:#ffffff;fill-opacity:1;fill-rule:nonzero;stroke:none"
       d="m 718.58472,297.63728 v -210.473 h -297.637 l 0,210.473 z" /><path
       inkscape:connector-curvature="0"
       id="path16"
       style="fill:#ffffff;fill-opacity:1;fill-rule:nonzero;stroke:none"
       d="m 718.58472,297.63728 v -210.473 h -297.637 l 0,210.473 z" /><g
       transform="rotate(-90,718.58329,-0.001005)"
       id="g18"><path
         inkscape:connector-curvature="0"
         id="path20"
         style="fill:#ffffff;fill-opacity:1;fill-rule:nonzero;stroke:#000000;stroke-width:1;stroke-linecap:butt;stroke-linejoin:miter;stroke-miterlimit:4;stroke-dasharray:none;stroke-opacity:1"
         d="M 210.473,0 H 420.946 V -297.637 H 210.473 Z" /></g><g
       transform="rotate(-90,718.58329,-0.001005)"
       id="g22"><path
         inkscape:connector-curvature="0"
         id="path24"
         style="fill:#ffffff;fill-opacity:1;fill-rule:nonzero;stroke:#000000;stroke-width:1;stroke-linecap:butt;stroke-linejoin:miter;stroke-miterlimit:4;stroke-dasharray:none;stroke-opacity:1"
         d="M 631.418,0 H 841.891 V -297.637 H 631.418 Z" /></g><g
       transform="rotate(-90,718.58329,-0.001005)"
       id="g26"><path
         inkscape:connector-curvature="0"
         id="path28"
         style="fill:#ffffff;fill-opacity:1;fill-rule:nonzero;stroke:#000000;stroke-width:1;stroke-linecap:butt;stroke-linejoin:miter;stroke-miterlimit:4;stroke-dasharray:none;stroke-opacity:1"
         d="M 210.473,-297.637 H 420.946 V -595.278 H 210.473 Z" /></g><g
       transform="rotate(-90,718.58329,-0.001005)"
       id="g30"><path
         inkscape:connector-curvature="0"
         id="path32"
         style="fill:#ffffff;fill-opacity:1;fill-rule:nonzero;stroke:#000000;stroke-width:1;stroke-linecap:butt;stroke-linejoin:miter;stroke-miterlimit:4;stroke-dasharray:none;stroke-opacity:1"
         d="M 631.418,-297.637 H 841.891 V -595.278 H 631.418 Z" /></g><g
       transform="rotate(-90,718.58329,-0.001005)"
       id="g34"><path
         inkscape:connector-curvature="0"
         id="path36"
         style="fill:#ffffff;fill-opacity:1;fill-rule:nonzero;stroke:#000000;stroke-width:1;stroke-linecap:butt;stroke-linejoin:miter;stroke-miterlimit:4;stroke-dasharray:none;stroke-opacity:1"
         d="M 420.945,-297.637 V -595.278 H 0 v 297.641"
         sodipodi:nodetypes="cccc" /></g><g
       transform="rotate(-90,718.58329,-0.001005)"
       id="g38"><path
         inkscape:connector-curvature="0"
         id="path40"
         style="fill:#ffffff;fill-opacity:1;fill-rule:nonzero;stroke:#000000;stroke-width:1;stroke-linecap:butt;stroke-linejoin:miter;stroke-miterlimit:4;stroke-dasharray:none;stroke-opacity:1"
         d="m 841.89,-297.637 0,-297.641 H 420.945 v 297.641"
         sodipodi:nodetypes="cccc" /></g><g
       transform="rotate(-90,718.58329,-0.001005)"
       id="g42"><path
         inkscape:connector-curvature="0"
         id="path44"
         style="fill:#ffffff;fill-opacity:1;fill-rule:nonzero;stroke:#000000;stroke-width:1;stroke-linecap:butt;stroke-linejoin:miter;stroke-miterlimit:4;stroke-dasharray:none;stroke-opacity:1"
         d="M 420.945,-297.637 420.945,0 H 841.89 v -297.637"
         sodipodi:nodetypes="cccc" /></g><g
       transform="rotate(-90,718.58329,-0.001005)"
       id="g46"><path
         inkscape:connector-curvature="0"
         id="path48"
         style="fill:#ffffff;fill-opacity:1;fill-rule:nonzero;stroke:#000000;stroke-width:1;stroke-linecap:butt;stroke-linejoin:miter;stroke-miterlimit:4;stroke-dasharray:none;stroke-opacity:1"
         d="M 0,-297.637 V 0 h 420.945 l 0,-297.637"
         sodipodi:nodetypes="cccc" /></g><path
       style="fill:none;stroke:#000000;stroke-width:1.50000004;stroke-linecap:butt;stroke-linejoin:miter;stroke-opacity:1;stroke-miterlimit:4;stroke-dasharray:6.00000015,6.00000015;stroke-dashoffset:0"
       d="M 420.9473,718.58228 V -123.30874"
       id="path4019"
       inkscape:connector-curvature="0" /><flowRoot
       xml:space="preserve"
       id="flowRoot4048"
       style="font-style:normal;font-variant:normal;font-weight:normal;font-stretch:normal;font-size:1.33333337px;line-height:1.25;font-family:'CMU Concrete';-inkscape-font-specification:'CMU Concrete';letter-spacing:0px;word-spacing:0px;display:inline;fill:#000000;fill-opacity:1;stroke:none"
       transform="matrix(0,0.75000002,0.75000002,0,370.05723,342.16529)"><flowRegion
         id="flowRegion4050"><rect
           id="rect4052"
           width="238.99304"
           height="72.09729"
           x="297.84796"
           y="52.338844" /></flowRegion><flowPara
         id="flowPara4054"
         style="font-style:normal;font-variant:normal;font-weight:normal;font-stretch:normal;font-size:13.33333302px;font-family:'Courier Prime Sans';-inkscape-font-specification:'Courier Prime Sans'">fold along dotted lines</flowPara></flowRoot><flowRoot
       style="font-style:normal;font-variant:normal;font-weight:normal;font-stretch:normal;font-size:1.33333337px;line-height:1.25;font-family:'CMU Concrete';-inkscape-font-specification:'CMU Concrete';letter-spacing:0px;word-spacing:0px;display:inline;fill:#000000;fill-opacity:1;stroke:none"
       id="flowRoot4062"
       xml:space="preserve"
       transform="matrix(0.75000002,0,0,-0.75000002,-84.79723,348.02735)"><flowRegion
         id="flowRegion4058"><rect
           y="52.338844"
           x="297.84796"
           height="72.09729"
           width="238.99304"
           id="rect4056" /></flowRegion><flowPara
         style="font-style:normal;font-variant:normal;font-weight:normal;font-stretch:normal;font-size:13.33333302px;font-family:'Courier Prime Sans';-inkscape-font-specification:'Courier Prime Sans'"
         id="flowPara4060">cut along solid lines</flowPara></flowRoot></g><g
     inkscape:groupmode="layer"
     id="layer1"
     inkscape:label="page-1-numbers"
     style="display:inline"><path
       inkscape:connector-curvature="0"
       id="path50"
       style="fill:#000000;fill-opacity:1;fill-rule:nonzero;stroke:none;stroke-width:1.33333325"
       d="m 610.11522,279.08266 c 0,-8 -0.14533,-15.832 0,-23.18666 0.16667,-1.91734 0.33334,-3.85467 0.33334,-5.77067 0,-1.75067 0.14666,-3.83333 -0.95867,-5.27067 -1.604,-0.95866 -3.52,-0.33333 -4.812,-0.33333 -0.62533,0.16667 -1.27067,-0.14667 -1.74933,-0.14667 -2.396,0 -4.64667,0.48 -7.04267,0.48 h -7.208 c -2.396,0 -4.792,-0.33333 -7.04133,0.47867 -0.95867,1.43733 -0.792,3.52133 -0.95867,5.604 -0.14533,2.084 -0.47867,4.31333 0,6.22933 0.64533,0.47867 1.12533,0.95867 1.43733,1.604 4.33334,1.27067 7.85467,-1.12533 12.95867,-0.47866 1.77067,1.27066 1.12533,5.124 2.24933,7.208 -0.47866,2.708 0.16667,5.104 -0.47866,7.83333 l 0.47866,3.83333 c -0.79066,3.52134 -0.312,7.35467 0.31334,11.04134 -0.792,5.43733 0.33333,12.48 -0.792,17.43733 1.12533,3.52133 -0.312,7.376 0,10.56267 0.47866,0.16666 0.792,0.81333 0.95866,1.292 1.916,1.27066 4.792,0.62533 7.35334,0.47866 1.772,0 3.52133,0.48 4.81333,-0.16666 0.792,-1.29067 1.74933,-2.24934 1.43733,-4.64534 0,-0.312 -0.33333,-0.312 -0.16666,-0.64533 -0.16667,-1.584 -0.64534,-3.188 -0.792,-4.792 0,-0.47867 0.31333,-0.792 0.31333,-1.27067 0,-0.48 -0.31333,-1.12533 -0.31333,-1.604 -0.16667,-3.688 0.31333,-7.688 -0.47867,-10.876 0.95867,-2.416 0.312,-5.604 0.14533,-8.47866 z" /><path
       inkscape:connector-curvature="0"
       id="path52"
       style="fill:#000000;fill-opacity:1;fill-rule:nonzero;stroke:none;stroke-width:1.33333325"
       d="m 613.15656,890.06798 c 1.584,-0.81334 2.54266,-2.41734 4.792,-2.72934 0.48,-1.43733 1.604,-2.396 2.396,-3.52133 0.95866,-1.27067 1.604,-2.56267 2.87466,-3.35333 0.48,-1.604 1.292,-3.04267 2.25067,-4.33334 -0.31333,-2.06266 1.12533,-2.70933 1.27067,-4.48 0.33333,-1.74933 0.33333,-3.66666 0.47866,-5.58266 -0.312,-1.292 -1.104,-2.72934 -1.27066,-4.48 -0.312,-2.416 0.31333,-4.95734 -0.312,-7.37467 -1.292,-2.708 -2.41734,-5.916 -4.48,-8 -0.47867,-0.47867 -0.33334,-1.27067 -1.29067,-1.27067 -1.12533,-0.64533 -0.95867,-2.396 -2.22933,-2.72933 -0.95867,-1.104 -2.72934,-1.27067 -4,-2.08267 -1.12534,-0.95866 -3.52134,-0.62533 -3.85467,-2.22933 0.95867,-1.27067 2.72933,-1.604 4.33333,-2.084 0.14667,-0.47867 0.62534,-0.64533 1.27067,-0.79067 2.084,-1.772 4,-3.85466 5.77067,-5.91733 0.31333,-2.24933 1.43866,-3.85467 2.22933,-5.604 0.48,-2.72933 0.16667,-4.64533 0.48,-7.37466 -0.48,-2.22934 -1.12533,-4.31334 -1.43733,-6.70934 -1.43867,-2.728 -2.72934,-5.604 -4,-8.312 -1.272,-0.97866 -2.084,-2.416 -3.04267,-3.52133 -0.95733,-0.95733 -2.396,-1.45733 -3.04133,-2.56133 -1.27067,-0.81334 -2.56267,-1.43867 -3.52134,-2.25067 -2.08266,-0.64533 -4.312,-1.12533 -5.74933,-2.396 -2.396,0 -4.33333,-0.47867 -6.396,-0.64533 -2.24933,0.33333 -4.64533,0.812 -7.52133,0.64533 -2.416,0.64667 -4.33334,1.43733 -6.416,2.396 -1.43734,1.292 -2.87467,2.72933 -5.27067,3.208 -0.95867,1.27067 -2.084,2.396 -3.52133,3.35467 -0.792,1.43733 -1.604,2.87466 -2.72934,4.16666 -0.47866,2.22934 -0.95733,4.312 -2.06266,5.916 -0.16667,2.70934 -0.812,4.95867 -1.29067,7.52134 0,2.396 0,4.64533 0.812,6.084 0.792,0.624 2.06267,0.79066 2.87467,1.43733 3.66666,-0.81333 8.792,1.27066 10.22933,-1.77067 0,-2.56266 -0.95867,-4 -0.95867,-6.56266 1.43867,-4.31334 3.52134,-7.83334 6.56267,-10.54267 1.77067,-1.124 3.83333,-1.93733 6.25067,-2.56133 3.18666,-0.16667 5.916,0.14533 8.14533,0.79066 l 4.95867,3.20934 c 1.604,2.87466 4,4.95733 4.64533,8.95733 l -0.64533,4.95867 c -0.95867,2.87466 -2.87467,4.79199 -4.14534,7.35466 -1.43866,0.33333 -1.91733,1.604 -3.04266,2.08267 -1.29067,0.48 -2.72934,0.64666 -4.16667,1.12533 -2.08267,-0.16667 -3.52,0.312 -4.64533,1.12533 -0.62534,3.83334 -0.312,8.95734 0,12.312 0.812,0.792 2.08266,1.12534 4,0.95867 1.292,0.47867 2.896,0.64533 4.47866,0.792 0,0.33333 0.48,0.33333 0.81334,0.33333 2.87466,1.74934 5.74933,3.66667 7.52,6.56134 0.95866,2.876 3.04266,4.792 3.04266,8.792 0.14534,1.43733 -0.33333,2.87466 -0.48,4.16666 l -0.812,4.14667 c -0.792,2.416 -2.708,3.37467 -3.66666,5.29067 -1.93734,0.31333 -2.41734,1.91733 -3.85467,2.56266 -3.52,1.43734 -7.52,2.396 -12.312,2.708 -2.87467,-0.95733 -5.292,-2.228 -8.16667,-3.04133 -1.12533,-1.104 -2.396,-2.22933 -3.66666,-3.18667 -0.81334,-2.084 -2.25067,-3.20933 -3.04134,-5.12533 -0.16666,-1.77067 -0.81333,-3.04133 -1.12533,-4.792 0,-1.93733 0.792,-4.16667 0,-5.77067 -1.12533,-1.604 -4.31333,-0.95866 -7.04133,-1.12533 -1.60534,0 -3.35467,-0.312 -4.31334,0.33333 -1.43733,2.396 -0.95866,5.584 -1.43733,8.62534 0,0.812 0.312,1.45866 0.312,2.416 0.792,1.75066 1.272,3.83333 1.75067,6.06266 1.77066,1.77067 2.416,4.64667 4,6.56267 1.43733,2.084 3.52133,3.52133 4.812,5.77067 2.084,0.64666 3.188,1.91733 4.48,3.35466 1.43733,0.312 3.18666,1.12534 4,1.77067 0.64533,0.47867 1.124,0.47867 1.74933,0.792 1.604,0.64533 3.85467,1.43733 6.396,0.64533 0.64533,0.48 1.12533,0.95867 2.25067,0.792 1.124,0 1.27066,-0.95866 2.56133,-0.792 2.56267,0.62534 4.16667,-0.64533 6.70933,0 1.604,-0.47866 3.04134,-1.12533 4.812,-1.43733 z" /><path
       inkscape:connector-curvature="0"
       id="path54"
       style="fill:#000000;fill-opacity:1;fill-rule:nonzero;stroke:none;stroke-width:1.33333325"
       d="m 171.93257,283.83333 c -0.95734,2.41733 -2.228,4.47867 -3.52,6.56267 -1.104,2.24933 -1.75067,4.95866 -2.54134,7.52133 0.47867,2.08267 -0.16666,4.16533 -0.5,6.08267 -0.14666,1.43733 0.16667,3.35466 -0.31333,4.47866 0.48,0.81334 0.81333,1.91734 0.31333,2.876 0.33334,0.64534 0.812,1.29067 0.812,2.416 0.792,1.43734 1.604,2.87467 1.916,4.62534 0.95867,1.12533 1.772,2.416 2.25067,3.52133 0.312,0.47867 0.62533,0.812 0.792,1.29067 0.312,0.31333 0.312,0.792 0.47867,1.27066 l 1.12533,0.95866 c 0.14533,0.16667 0,0.48 0.14533,0.81334 0.48,0.624 1.12534,0.95733 1.292,1.74933 0.95867,0.812 2.08267,1.604 2.708,2.72933 2.72934,0.792 4.64667,2.08267 6.41734,3.83334 0.95733,0 1.916,0.312 2.56266,0.95866 4.312,0.16667 6.708,2.24934 11.5,2.08267 0.812,0 0.97867,0.64667 2.08267,0.47867 2.25067,0.168 4.33333,-0.312 5.77067,-0.47867 0.31333,-0.16667 0.95866,-0.16667 1.75066,-0.312 1.29067,-0.33333 2.08267,-0.64667 3.04134,-0.98 1.91599,-0.79067 3.688,-1.43733 5.77066,-2.06133 1.27067,-1.292 3.188,-1.93867 4.62534,-3.20934 1.292,-1.27066 2.72933,-2.56266 4.16666,-3.52 1.604,-2.22933 2.87467,-4.47999 4.792,-6.08399 -0.14666,-1.74933 1.124,-1.916 0.812,-3.52 0.47867,-0.95867 1.604,-1.272 1.74933,-2.56267 -0.312,-2.396 0.64667,-3.66666 0.95867,-5.584 0.81333,-4.95866 -0.792,-9.604 -0.47866,-14.08266 -0.62534,-1.43734 -1.104,-3.04267 -1.43734,-4.81334 -1.604,-2.56266 -2.876,-5.43733 -4.792,-7.52 -1.292,-0.792 -1.91733,-2.06266 -2.87466,-3.35466 -0.95867,0 -0.95867,-0.95867 -1.77067,-1.27067 -0.48,-0.47867 -1.272,-0.812 -1.75067,-1.43733 -1.12533,-0.33334 -1.77066,-0.98 -2.72933,-1.292 -0.64533,-0.64534 -2.56267,-0.312 -2.56267,-1.74934 0.81334,-1.12533 2.876,-0.95866 4,-1.43866 2.56267,-2.08267 4.48,-4.812 6.876,-6.89467 0.812,-1.75067 1.93734,-3.188 2.728,-4.792 -0.312,-2.084 0.64667,-3.688 0.64667,-5.604 0,-1.75067 -0.81334,-3.52133 -1.12534,-5.27067 -0.31199,-1.772 -0.64533,-3.52133 -0.79199,-5.43866 -0.64534,-0.97867 -0.95734,-2.24934 -1.12401,-3.68667 -1.292,-1.77067 -2.56266,-3.52133 -3.35466,-5.77067 l -2.72934,-2.54266 c -0.64533,-1.124 -1.74933,-1.77067 -2.87466,-2.416 -0.48,-1.27067 -2.084,-1.43734 -2.87467,-2.396 -0.98,-0.792 -2.41733,-1.12534 -3.376,-1.91734 -1.74933,0.31334 -2.56266,-0.47866 -3.83333,-0.79066 -2.24933,0 -4.47867,-0.64667 -6.72933,-0.81334 -3.18667,0 -6.228,1.12534 -9.58267,1.12534 -1.292,1.12533 -3.688,1.27066 -5.12533,2.396 -1.77067,0.95866 -2.87467,2.25066 -4.812,3.04133 -2.06267,2.084 -3.52134,4.792 -5.75067,6.56267 l -3.04133,8.95866 v 2.87467 c -0.95867,3.04133 -0.95867,5.43733 -0.95867,9.43733 0.48,1.292 1.12533,2.56267 1.27067,4.33334 0.95866,0.95866 1.60533,2.56266 2.25066,4 1.916,1.104 3.35467,3.188 5.604,4 1.27067,0.48 4.95867,3.52133 4.312,4.31333 -2.728,0.95733 -4.47866,2.396 -6.87466,3.208 z M 214.97523,256 c -0.48,2.08266 -1.43733,4 -2.22933,5.91733 -1.43733,1.29067 -2.87467,2.728 -4.33333,4.33333 -1.75067,0.624 -3.35467,1.43734 -5.27067,2.228 -1.91733,-0.312 -3.83333,0.33334 -5.43733,0.16667 -2.72934,0 -4.81334,-1.124 -6.876,-1.916 -4,-3.208 -7.37467,-7.208 -6.72934,-14.896 0.792,-2.396 2.56267,-5.75067 2.876,-6.54133 0.47867,-0.98 3.85334,-5.604 6.396,-7.20934 2.56134,-1.604 8.97867,0.168 10.56134,-0.47866 1.43866,0.64666 2.25066,1.75066 3.376,2.56266 1.27066,0.312 2.22933,1.12534 3.18666,1.75067 0.48,0.812 0.64667,1.916 0.81334,3.04133 0.62399,1.292 1.91599,1.916 2.56266,3.35334 0.312,1.292 0.79067,2.56266 1.104,4 z m 4.812,48.312 c 0.312,0 0.14533,0.16666 0,0.16666 0.14533,1.292 -0.33333,1.91734 -0.16667,3.35467 -1.43733,2.24933 -2.56266,4.64533 -3.83333,7.04133 -1.916,1.93734 -4,3.85467 -6.56267,5.292 -2.24933,0.792 -5.12533,1.12534 -7.35333,1.916 -1.60533,0 -3.376,0 -4.81333,0.31334 -3.04133,-0.95867 -5.916,-1.91734 -8.95867,-2.708 -3.208,-2.72934 -5.74933,-6.084 -7.83333,-9.91734 -0.812,-2.72933 -1.43733,-5.292 -1.29067,-8 0,-0.64533 0.33334,-1.45866 0.47867,-2.08266 l 0.33333,-1.91734 c 0.14534,-0.812 0.792,-1.604 1.27067,-2.416 0.31333,-0.792 0.64667,-1.91733 0.95867,-2.396 0.64533,-0.95866 1.43733,-1.43733 2.24933,-2.396 l 0.48,-0.16666 c 0.62533,-1.27067 1.916,-2.22934 2.87467,-3.35467 0.95866,-0.312 1.91733,-0.64533 2.396,-1.43733 1.604,-0.16667 3.208,-0.312 3.85466,-1.292 1.58267,0 2.39467,-0.79067 3.83334,-0.95734 2.87466,0 5.74933,0.33334 8,0.95734 1.43733,0.16666 2.39466,1.292 3.51999,2.084 0.48,0.16666 0.95867,0.16666 1.27067,0.47866 1.604,0.81334 2.876,1.93734 4.33334,3.04267 1.91733,2.728 3.52133,5.77067 4.95866,8.95733 z" /><path
       inkscape:connector-curvature="0"
       id="path56"
       style="fill:#000000;fill-opacity:1;fill-rule:nonzero;stroke:none;stroke-width:1.33333325"
       d="m 196.7819,804.32265 c -0.33333,0.31333 -0.16667,0.792 -0.33333,1.12533 -1.12534,1.58267 -2.87467,2.87467 -3.18667,4.95867 -3.376,3.04133 -6.084,7.04133 -8.16667,11.35333 -1.43866,0.95867 -2.084,2.56267 -3.52133,3.52133 -1.12533,3.188 -3.83333,4.792 -5.292,7.83333 -1.58267,1.77067 -2.87467,4 -4.312,5.604 -0.48,0.47867 -1.27067,0.95867 -1.75067,1.75067 -0.47866,0.64533 -0.47866,1.77067 -0.95733,2.416 -0.48,0.792 -1.45867,1.104 -1.60533,2.06267 -0.812,2.24933 -2.24934,4 -3.04134,6.56266 -0.33333,1.292 -0.47866,2.72934 -0.64533,4 -0.31333,1.43734 -0.792,2.896 -0.48,4.33334 -0.47867,1.104 -0.95733,1.916 -1.124,3.35333 0.33333,1.60533 0.812,3.20933 0.47867,5.43867 0.64533,2.39466 1.43733,4.812 1.604,7.52 0.81333,1.604 2.084,2.56266 2.25066,4.792 1.27067,1.292 2.22934,2.72933 3.35334,4.16666 0.95866,1.43734 2.22933,2.396 2.876,4.16667 1.43733,0.64533 2.08266,1.74933 3.35333,2.396 0.81333,1.12533 1.77067,2.08267 3.04133,2.72933 1.292,0.79067 2.72934,1.104 4,1.74934 0.48,0.16666 0.81334,0.64666 1.292,0.792 0.792,0.16666 1.75067,0.16666 2.56267,0.5 2.22933,0.62533 4.62533,1.74933 7.52133,1.43733 1.104,0.95867 3.35334,0.792 5.104,1.104 1.12534,-0.14533 2.08267,-0.792 3.208,-1.104 2.396,0.312 3.35467,-0.47867 5.604,-0.47867 1.27067,-0.81333 3.04133,-1.12533 4.95867,-1.292 2.396,-1.604 4.792,-3.35466 8.16666,-4.16666 0.31201,-1.584 1.916,-1.91734 2.39601,-3.35467 0.95866,-1.124 1.916,-2.08267 3.04133,-3.04133 0.47866,-1.74934 2.396,-3.04134 3.04133,-4.312 0.48,-0.64667 0.62534,-1.43734 1.104,-1.91734 l 0.64667,-0.812 c 0.16667,-1.75066 1.12533,-2.56266 1.292,-4.31333 0.79067,-1.124 1.104,-2.728 1.74933,-4 0.312,-1.124 0.312,-2.728 0.792,-3.52 -0.62533,-1.43733 0,-3.04133 -0.31333,-5.27067 -0.47867,-1.604 -0.64533,-3.376 -1.27067,-4.81333 0,-3.04133 -0.47867,-5.74933 -1.43733,-7.83333 -0.64533,-2.56267 -2.24934,-4.16667 -3.04134,-6.56267 -0.95866,-1.124 -1.93733,-2.08267 -2.72933,-3.35333 -0.16666,-0.81334 -1.12533,-0.81334 -1.604,-1.43734 0,-0.95866 -0.95866,-0.95866 -1.43733,-1.45866 -1.75067,-2.396 -4.48,-3.66667 -6.56267,-5.584 -2.22933,-0.64534 -4.14533,-1.43734 -6.396,-2.08267 -3.688,-0.33333 -6.56266,0 -10.72933,0 -1.43733,0.16667 -3.35333,1.27067 -4.792,0.47867 0.16667,-1.604 1.772,-1.604 1.91733,-3.208 1.12534,-0.62534 1.77067,-1.916 2.87467,-2.56267 0.98,-2.54133 3.208,-3.83333 4.5,-6.06266 1.91733,-1.604 3.02133,-4 4.792,-5.77067 0.16667,-1.604 1.916,-1.604 2.08267,-3.208 0.792,-0.95867 1.60533,-2.06267 2.70933,-2.87467 0.33333,-0.95866 1.124,-1.604 1.29067,-2.70933 1.91733,-1.604 3.188,-3.85333 5.272,-5.29067 0.47866,-1.91733 1.77066,-2.876 2.08266,-5.12533 -0.312,-0.95867 -1.12533,-1.43733 -1.604,-2.22933 -0.95866,-0.312 -0.792,-1.604 -1.43733,-2.24934 -3.688,-0.48 -4.792,-3.188 -8.95867,-3.35466 -2.22933,1.292 -2.72933,4.33333 -4.47866,6.08266 -0.792,0.95867 -1.43734,2.25067 -2.084,3.35467 -1.12534,0.64533 -1.43734,2.25067 -2.396,3.04133 -1.43734,2.084 -3.04134,4.16667 -4.64534,6.25067 z m 23.83333,52.31333 c 0.64667,0.95733 1.27067,1.43733 1.12533,3.208 0.47867,1.104 0,3.18666 0.14534,4.792 -0.47867,2.39466 -1.27067,4.812 -1.916,7.04133 -1.43734,1.916 -2.87467,3.83333 -4.16667,5.77067 -1.91733,2.06266 -4.31333,3.66666 -6.708,5.104 -2.084,0.33333 -3.83333,0.95866 -5.60533,1.77066 -3.52,0.14667 -6.708,0.31334 -10.08267,-0.33333 -1.91733,-0.62533 -3.83333,-1.43733 -5.75066,-2.22933 -0.95734,-0.812 -1.916,-1.77067 -3.37467,-2.24934 -0.95867,-1.27066 -2.22933,-2.396 -3.5,-3.83333 -0.5,-0.48 -0.97867,-1.27067 -1.45867,-1.91733 -0.624,-0.95734 -1.43733,-1.604 -1.74933,-2.87467 -0.312,-1.12533 -0.312,-2.56267 -0.47867,-4.16667 -0.16666,-0.792 -0.48,-1.43733 -0.64666,-2.08266 -0.312,-2.56267 0.16666,-4.95867 0.81333,-7.52134 1.58267,-3.188 3.02,-6.22933 5.104,-8.792 0.95733,-0.95866 2.24933,-1.77066 3.04133,-2.87466 1.43734,-0.5 2.396,-1.45867 3.52134,-2.25067 1.43733,-0.47867 2.87466,-0.95733 4,-1.74933 1.916,0.312 3.35333,0.14533 4.812,-0.5 1.74933,0.5 3.188,-0.14534 5.27066,0 0,0.33333 0.64534,0.16666 0.95867,0.16666 2.56267,0.812 3.83333,2.72934 6.87466,2.87467 2.41734,1.77067 4.47867,4 6.25067,6.56267 0.95734,0.95866 1.74933,2.25066 2.56133,3.688 z" /></g><g
     inkscape:groupmode="layer"
     id="layer2"
     inkscape:label="page-2-numbers"
     style="display:none"><path
       inkscape:connector-curvature="0"
       id="path50-4"
       style="fill:#000000;fill-opacity:1;fill-rule:nonzero;stroke:none;stroke-width:1.33333325"
       d="m 591.57931,269.87374 c -0.31333,0.47867 -0.792,0.62534 -1.104,0.95867 l -1.43867,2.228 c -0.47866,0.64667 -1.29066,1.12533 -1.604,1.60533 -0.16666,0.16667 0,0.47867 -0.16666,0.79067 -0.64534,0.64667 -1.43734,0.98 -2.08267,1.77067 l -0.95867,1.91733 c -0.47866,0.792 -1.12533,0.95867 -1.604,1.604 -0.95866,1.12533 -1.43733,2.56267 -2.708,3.188 -0.81333,2.72933 -2.876,4.16667 -4.33333,6.416 -1.584,1.75067 -2.876,4.14667 -4.792,5.75067 -1.27067,2.08266 -2.708,4.33333 -4.792,5.77066 -0.812,3.35334 -3.68667,4.62534 -4.95867,7.52 -1.29066,0.792 -1.93733,2.396 -2.728,3.52134 -1.272,0.95866 -1.91733,2.396 -2.56266,3.83333 -1.12534,0.95867 -2.084,1.91733 -3.04267,3.04133 -0.624,1.604 -2.39467,1.91734 -2.228,4 0.312,2.70934 2.56133,3.35467 3.52,5.27067 1.27067,0.16666 1.91733,1.12533 3.188,1.292 0.64533,0.95866 1.604,1.75066 3.37467,1.584 2.396,-0.14667 3.188,-2.22934 4.95866,-3.02134 1.916,-3.68799 3.83334,-7.52133 7.04134,-9.93733 0.312,-1.27066 1.43733,-1.584 1.584,-3.04133 0.812,-0.48 1.29066,-1.27067 2.24933,-1.75067 0.312,-1.12533 0.47867,-2.24933 1.75067,-2.396 1.124,-1.77066 2.08266,-3.52 3.85333,-4.64533 0.14667,-1.43733 1.27067,-2.084 1.75067,-3.208 0.47866,-1.27067 1.77066,-1.75067 1.916,-3.35467 2.25066,-1.27066 2.896,-4.312 5.12533,-5.43733 1.12533,-2.396 2.72933,-4.312 4.312,-6.084 1.12533,-2.39467 3.20933,-3.83333 4,-6.56133 2.25067,-1.584 3.688,-3.83334 4.98,-6.396 0.79067,-0.31334 0.79067,-1.27067 1.27067,-1.75067 0.64533,-0.47867 1.43733,-0.812 1.604,-1.77067 0.62533,-0.47866 0.62533,-1.604 0.95866,-2.396 3.83334,-2.56266 5.604,-7.04133 8.79067,-10.24933 1.43867,-2.70933 3.04267,-5.27067 5.292,-7.188 1.43733,-3.04133 3.66666,-4.95866 5.584,-7.35466 l 4,-7.04134 c 2.56266,-2.416 5.45733,-4.64533 6.08266,-8.812 0,-0.48 -0.62533,-0.48 -0.792,-1.104 -6.39466,0 -12.95733,-0.16666 -19.68666,-0.16666 -5.27067,0 -10.708,0.16666 -16,0.47866 -0.95867,0 -1.27067,-0.64533 -2.396,-0.47866 -5.12533,0.312 -9.75067,0.312 -15.35467,0 -1.604,0.47866 -3.35333,0.47866 -4.95733,0.47866 -5.292,-0.16666 -12.95867,0 -18.25067,0 -2.87466,0 -5.604,-0.812 -8.312,-0.312 -1.12533,1.104 -1.604,2.87467 -1.91733,4.624 0.62533,2.396 -0.47867,6.25067 0.62533,8.81334 3.04134,1.43733 6.56267,1.104 9.93734,0.95866 4.792,-0.16666 9.75066,-0.16666 14.06266,-0.48 0.95867,0.48 2.08267,0.14667 2.56267,0.31334 3.52,0.16666 7.208,0.16666 10.24933,-0.48 1.604,0.16666 3.52134,0.16666 5.43734,0.16666 2.56266,-0.64533 6.396,-0.812 9.272,-0.47866 2.08266,-0.64667 5.29066,-0.33334 7.52,-0.81334 0.81333,0.16667 2.25066,-0.312 2.25066,0.48 -0.16666,1.604 -0.95866,2.56267 -1.77066,3.52 -0.48,0.33334 -0.95867,0.95867 -0.95867,1.772 -0.48,0.47867 -1.104,0.79067 -1.27067,1.604 -2.25066,1.43734 -3.04266,4.312 -5.292,5.74933 -0.14533,1.43734 -1.27066,2.084 -1.75066,3.35467 -0.79067,0.95867 -1.43734,2.08267 -2.56134,2.72933 -0.31333,1.43734 -1.60533,1.916 -2.22933,3.04134 -0.5,1.27066 -1.45867,2.08266 -2.25067,3.04133 z" /><path
       inkscape:connector-curvature="0"
       id="path52-8"
       style="fill:#000000;fill-opacity:1;fill-rule:nonzero;stroke:none;stroke-width:1.33333325"
       d="m 607.63664,891.31106 c 0.79067,-0.9587 2.06267,-1.604 3.18667,-2.396 1.43733,-0.4787 2.084,-1.604 3.52133,-1.916 0.812,-1.1253 1.77067,-1.9387 2.87467,-2.896 0.64667,-0.1467 0.95867,-0.792 1.292,-1.4373 0.47867,-0.48 1.43733,-0.48 1.43733,-1.4387 0.792,-0.6453 0.792,-2.0827 1.43734,-2.5613 0.64666,-0.792 1.12533,-1.6054 1.27066,-2.876 0.81334,-0.6454 1.77067,-1.124 2.41733,-1.916 -0.16666,-1.1254 0.62534,-1.292 1.104,-1.7707 -0.312,-1.9173 0.64534,-2.396 0.812,-3.8333 0,-2.396 -0.16666,-4.9587 0.31334,-7.0427 -0.48,-1.7493 -0.48,-3.8333 -0.48,-6.0827 -0.79067,-1.7506 -1.27067,-3.6666 -1.27067,-6.084 -1.292,-3.0413 -2.896,-5.7493 -4.16666,-8.7906 -1.27067,-1.4374 -2.396,-3.0427 -3.52,-4.792 -3.20934,-3.3747 -7.20934,-5.7707 -11.35467,-8.33337 -1.77067,-0.14533 -3.52133,-0.62533 -4.64533,-1.43733 -3.20934,-0.31333 -5.272,-0.64667 -8.64667,-0.31333 -1.27067,0.48 -2.708,0.792 -4.312,0.95866 -0.792,0.64667 -3.35467,1.27067 -4.31333,0.31334 0.31333,-2.396 1.272,-3.83334 1.584,-6.084 0.97866,-4.14534 2.24933,-7.83334 3.208,-12 0.792,-1.916 0.95866,-4.47867 2.084,-5.916 4.64533,-0.48 9.916,0.47866 14.56266,-0.14667 0.79067,0 1.604,0.14667 2.08267,0.48 5.584,-0.64667 10.54133,-0.16667 15.83333,-0.48 1.27067,-1.12533 0.95867,-2.896 1.12533,-4.64533 0.14534,-3.35467 0.312,-6.56267 -0.81333,-8.48 -3.04133,-1.43734 -6.87466,-0.33334 -10.56133,-0.33334 -1.10533,0 -2.06267,-0.14533 -3.04267,-0.14533 -2.54133,0 -5.27066,0.14533 -7.83333,0.14533 -6.396,0 -13.604,-0.47866 -19.52,0 -1.12533,0.16667 -2.22933,0 -3.188,0.48 -0.16667,1.93734 -0.95867,3.52 -1.45867,5.292 -0.624,1.916 -0.95733,4 -1.27066,5.916 -0.792,3.83334 -1.604,7.52134 -3.04134,10.72934 -0.312,3.66666 -0.95866,6.87466 -2.22933,9.43733 0,3.35467 -1.93733,4.47867 -1.604,8 -1.292,2.084 -1.12533,5.4373 -2.25067,7.6667 -0.14533,0.4786 -0.312,1.292 -0.312,2.2506 -0.64533,1.2707 -1.12533,2.8747 -1.43733,4.4787 -0.47867,1.604 -1.292,3.3547 -0.812,5.1253 1.45733,0.624 2.728,-0.48 4,-0.8133 1.124,-0.624 1.604,-2.0827 3.04133,-2.2293 0.64534,-1.124 1.916,-1.7707 3.04134,-2.2494 0.812,-1.1253 2.396,-1.4373 3.37466,-2.396 2.22934,0.4787 2.22934,-1.2706 4.14667,-1.2706 1.124,-0.6454 3.04133,-0.812 4.33333,-1.1254 3.02,-0.1666 4.79067,-0.3333 7.66667,0 1.916,0.48 3.85333,1.1254 5.916,1.7507 2.41733,1.2907 4.48,2.896 6.56267,4.4787 1.12533,1.4373 2.396,2.7293 3.37466,4.3333 0.62534,2.084 2.06267,3.6667 2.70934,5.7507 0.312,1.916 0.64533,4 0.312,5.7706 -0.312,1.104 -0.792,1.5827 -1.104,2.2294 -0.16667,1.124 -0.16667,2.2493 -0.48,3.0413 0,0.1667 -0.33334,0.6453 -0.47867,0.812 -0.47867,1.104 -0.64533,1.4373 -1.292,2.2293 -1.124,1.4374 -2.22933,2.8747 -3.04133,4.312 -1.43734,0.3334 -2.396,1.6054 -3.52134,2.2507 -1.104,0.9587 -2.56133,1.4373 -4,2.0827 -2.228,0.792 -5.104,0.9586 -7.35333,1.7506 -0.95867,-0.1453 -2.396,-1.1253 -3.52133,-0.4786 -1.27067,-0.3134 -2.22934,-0.792 -4,-0.48 -1.604,-1.2707 -3.52,-2.2294 -5.604,-3.0414 -2.56267,-2.396 -4.14534,-5.4373 -5.916,-8.6253 -0.792,-1.604 -0.48,-4.3333 -2.396,-4.812 -1.12534,-0.3133 -3.20934,0.4787 -4.48,0.9587 -1.29067,0.812 -3.208,0.9573 -4.47867,1.604 -0.95867,1.124 -1.604,2.2493 -2.084,3.8333 -0.312,1.916 0.48,2.7293 0.48,4.4787 1.12533,1.1253 1.916,2.5626 2.08267,4.4786 1.43733,1.772 3.04266,3.2094 4.48,4.8134 1.27066,1.916 3.35333,3.0413 4.64533,5.1253 3.66667,1.5827 6.708,4 10.06267,6.0613 5.12533,0.9587 11.208,1.4587 16.33333,0.48 1.12533,0.1667 2.08267,0.4787 3.35467,0.4787 1.124,-0.6253 1.916,-1.7493 3.208,-2.2293 z" /><path
       inkscape:connector-curvature="0"
       id="path54-1"
       style="fill:#000000;fill-opacity:1;fill-rule:nonzero;stroke:none;stroke-width:1.33333325"
       d="m 226.62598,283.61774 c -0.64666,-1.45733 -1.292,-2.72933 -1.43733,-4.812 -1.43733,-2.56266 -3.20933,-4.792 -4.81333,-7.188 -1.43734,-1.604 -3.18667,-2.89466 -4.47867,-4.64533 -1.43733,-0.47867 -2.56267,-1.604 -3.83333,-2.24933 l -4,-2.22934 c -3.208,-0.16666 -4.95867,-1.60533 -7.83333,-2.084 h -4.47867 c -1.12533,0.31334 -1.93867,0.64667 -3.376,0.47867 -1.124,0.48 -1.916,1.272 -3.83333,1.12533 -0.79067,0.62534 -1.916,1.104 -3.04134,1.75067 -3.208,0.64533 -4.95866,2.56267 -7.52133,4 l -4,4.33333 c -1.124,2.06267 -2.08267,4.312 -3.83333,5.916 -0.16667,1.604 -0.64534,2.56267 -1.29067,3.66667 -0.14667,1.93733 -0.31333,4 -0.95867,5.43733 0.33334,1.77067 -0.312,3.20934 -0.47866,4.81334 -0.16667,3.18666 0.95733,5.916 0.95733,9.12533 0.95867,0.95733 1.12533,2.87467 1.77067,4 0.14666,0.14533 1.272,1.104 1.272,1.27067 0.16666,0.312 7.52,-1.43867 8.64533,-2.084 1.27067,-0.312 2.396,-1.604 2.396,-2.08267 0,-0.48 -1.91733,-7.66667 -2.22933,-9.75067 0,-1.12533 0.62533,-2.56266 0,-4 0.62533,-1.292 1.43733,-2.396 1.58266,-4.312 0.95867,-0.98 1.93867,-2.084 2.56267,-3.52133 1.77067,-1.12533 2.876,-2.896 4.81333,-4 1.43734,-0.64533 3.04134,-1.604 4.624,-1.77067 0.48,0 0.81334,0.312 1.292,0.312 2.56267,-0.14533 4.792,-0.47866 6.87467,0.16667 1.772,0.48 3.35466,1.91733 4.95867,2.084 1.43733,1.12533 3.04133,2.24933 4.31333,3.52 0.5,1.75067 1.77066,2.72933 2.24933,4.31333 0.95867,2.08267 1.12533,4.95867 1.27067,7.68667 -0.62534,2.084 -0.62534,3.20933 -1.916,5.91733 -1.27067,2.72934 -7.66667,9.77067 -7.66667,9.77067 0,0 -2.72933,2.54133 -4.48,3.35467 -0.95733,1.604 -3.52,1.74933 -4.33333,3.52 -3.18667,1.91733 -5.604,4.792 -9.27067,6.22933 -0.64533,1.77067 -2.56266,2.25067 -3.52,3.52133 -1.60533,0.812 -3.20933,1.916 -4.33333,2.56267 -0.48,0.33333 -1.10533,0.47866 -1.43867,0.812 -1.916,1.104 -3.35333,2.708 -5.27066,3.66666 -0.79067,1.43734 -2.87467,1.292 -2.87467,3.37467 1.27067,1.43867 3.35467,0.62533 5.27067,0.48 4.64666,-0.16667 10.084,0.47867 13.91733,0 0.95733,-0.16667 0.95733,0.62533 2.08267,0.47867 0.81333,-0.16667 1.43733,-0.64534 2.396,-0.812 1.77066,0.33333 4.33333,0.64533 6.084,0.64533 1.124,-0.16667 2.87466,0 4.64533,0 2.08266,0 4.16666,-0.312 5.916,0.16667 1.43866,-0.47867 4,0.14666 5.12533,-0.812 1.12533,0.812 2.708,0.33333 4,0.33333 0.95867,0 1.604,0.312 2.56267,0.312 2.22933,-0.16667 4.62533,-0.64533 7.04133,-0.792 2.22934,-0.16667 6.06267,-0.812 6.06267,-0.812 0,0 0.16667,-9.91733 -1.74934,-12.64533 -2.396,-0.31333 -4.95866,0.95733 -8.16666,0.812 -1.91733,0.312 -5.43734,0.312 -8.48,0.312 -0.79067,-0.16667 -1.27067,0.33333 -1.74934,0.48 -2.56266,-0.792 -5.43733,-0.48 -8.33333,-0.31333 -1.27067,0.16666 -2.708,0.48 -3.35466,-0.47867 0.64666,-0.95867 1.12533,-1.916 2.56266,-2.084 1.43734,-1.43733 3.208,-2.56133 5.604,-3.208 0.95867,-1.27067 2.22933,-2.396 3.52133,-3.52 1.604,-0.792 2.708,-2.22933 4.47867,-2.70933 0.64667,-0.812 1.27067,-1.604 1.75067,-2.39467 0.64533,-0.64667 1.916,-0.81333 2.08267,-1.93867 1.12533,-1.74933 1.60399,-4.14533 3.04133,-5.58266 -0.16667,-1.604 0.64666,-2.25067 0.95867,-3.52134 -0.16667,-1.77066 0.16666,-5.916 0,-7.04133 z" /><path
       inkscape:connector-curvature="0"
       id="path56-2"
       style="fill:#000000;fill-opacity:1;fill-rule:nonzero;stroke:none;stroke-width:1.33333325"
       d="m 218.33398,798.96706 c 0.64534,-1.77067 0.47867,-4.47867 1.12534,-6.24933 0,-2.396 0.16666,-4.95867 -1.77067,-5.584 -3.35467,0.312 -3.188,3.83333 -5.27067,5.104 -0.16666,1.604 -1.43866,1.91733 -2.084,3.04133 -0.47866,1.292 -1.604,1.91733 -1.74933,3.52133 -0.48,0.47867 -1.12533,0.64534 -1.60533,0.95867 -0.33334,0.47867 -0.47867,1.12533 -0.95734,1.604 -0.81333,0.95867 -1.77066,1.604 -2.56266,2.72933 l -0.95867,1.43734 c -1.292,1.604 -2.72933,2.708 -3.85466,4.312 -0.79067,1.77066 -2.39467,2.876 -3.18667,4.64666 -1.43733,1.124 -2.396,2.87467 -3.83333,4.14534 -0.81334,0.16666 -0.33334,1.45866 -0.98,1.604 -0.312,0.64666 -0.95734,0.81333 -0.95734,1.77066 -1.91733,1.27067 -3.188,2.876 -4.31333,4.792 -1.604,1.43734 -2.56267,3.52134 -4.312,4.812 -0.47867,0.95867 -1.43733,1.584 -2.084,2.54267 -0.812,0.6453 -0.95733,2.0827 -1.916,2.416 -0.95867,2.0627 -2.25067,3.8333 -3.85467,5.2707 -2.22933,3.8333 -5.43733,6.7293 -8,10.2506 -1.58266,1.4374 -2.87466,3.1867 -4,4.9587 -1.104,2.0827 -3.66666,2.708 -3.83333,5.5827 1.43733,2.2506 4,1.604 6.72933,1.7706 0.95867,0 1.91734,0.1667 2.87467,0.1667 0.95867,0 2.084,-0.4787 3.188,-0.4787 1.604,0 3.52133,0.4787 5.12533,0.4787 2.87467,0 5.77067,-0.3333 8.47867,-0.1667 1.77067,0 3.208,0.1667 4.64667,0 1.43733,-0.1666 3.35333,-0.1666 4.95733,0 2.396,-0.9586 5.43733,-0.792 8.31333,-0.4786 1.29067,0.1666 3.04133,0 3.85333,0.6453 0.62534,1.9173 0,4.3133 -0.47866,5.9173 0.95866,2.708 0.47866,5.604 0.47866,8.312 0,2.7294 0.792,5.4374 0.31334,8.3334 -0.64667,1.2706 -0.792,2.8746 -1.12534,4.4786 0.47867,0.9587 0.95867,1.9174 1.604,2.7094 0.95867,0.812 2.56267,0.9573 3.688,1.2906 1.124,-0.1666 2.22934,-0.6453 3.52,-0.6453 2.396,-0.3333 4.792,0.312 6.396,-0.6453 0.48,-2.5627 -0.312,-5.1254 -0.47866,-7.8334 -0.16667,-2.2506 0,-5.4373 0,-7.2093 0,-0.4787 -0.31334,-1.124 -0.31334,-1.604 v -2.708 c -0.16666,-4.1667 -1.124,-8.4787 0.792,-11.688 2.87467,0 5.91734,0 8.31334,0.6467 1.29066,-0.48 2.56133,-0.1667 4,0 1.77066,0.1666 2.24933,-0.792 3.52,-1.1254 0.48,-0.792 0.81333,-1.916 0.81333,-3.0413 0,-0.1467 -0.16667,-0.3133 -0.33333,-0.6253 -0.48,-2.896 0.33333,-6.5627 -0.95867,-8.6454 -4.95867,-0.9586 -10.56267,0.6454 -15.83333,-0.48 -0.95867,-4.6453 -0.48,-9.2906 -1.12534,-13.916 0.312,-0.6466 0.47867,-1.4586 0.64534,-2.2506 -0.64534,-11.04137 -0.47867,-20.95737 0,-32.31203 z m -26.70799,39.188 c 0.47866,-0.9587 1.58266,-2.396 2.54133,-3.3547 1.77067,-1.7493 2.72933,-4.31197 5.12533,-5.4373 0.16667,-1.43733 1.292,-2.22933 2.24934,-3.04133 0.14666,-2.084 1.75066,-3.688 3.52133,-3.35467 0.312,6.396 1.104,12.792 0,18.708 0.47866,2.2507 0.95866,5.9373 -0.33334,7.8547 -1.75066,0.9586 -5.10399,0.9586 -7.52133,0.4786 -2.708,0.6254 -5.58266,0.792 -8.312,0 -2.396,-0.3333 -4.47866,0.6254 -6.56266,0 0.312,-2.7293 2.72933,-3.3746 3.52133,-5.7706 0.79067,0 0.79067,-0.6254 1.43733,-0.792 0.64534,-1.604 1.604,-2.5614 2.56267,-3.8334 0.47867,-0.4786 0.79067,-0.6453 1.29067,-1.2906 z" /></g></svg>