<svg xmlns:x="http://ns.adobe.com/Extensibility/1.0/" xmlns:i="http://ns.adobe.com/AdobeIllustrator/10.0/" xmlns:graph="http://ns.adobe.com/Graphs/1.0/" xmlns="http://www.w3.org/2000/svg" xmlns:xlink="http://www.w3.org/1999/xlink" version="1.1" x="0px" y="0px" viewBox="0 0 100 125" enable-background="new 0 0 100 100" xml:space="preserve"><switch><foreignObject requiredExtensions="http://ns.adobe.com/AdobeIllustrator/10.0/" x="0" y="0" width="1" height="1"/><g i:extraneous="self"><g><g><path d="M36.062,47.083c-1.28,0-2.624-0.353-3.998-1.058c-0.097-0.05-0.178-0.124-0.237-0.215      c-0.585-0.908-0.649-1.874-0.706-2.726c-0.043-0.657-0.085-1.277-0.357-1.789c-1.272,0.436-2.543,0.673-3.778,0.904      c-1.549,0.289-3.013,0.562-4.381,1.198c-0.312,0.143-0.676,0.008-0.819-0.299c-0.144-0.309-0.01-0.676,0.299-0.819      c1.509-0.701,3.118-1.002,4.674-1.292c1.289-0.24,2.618-0.488,3.905-0.965c0.071-0.998-0.109-2.088-0.299-3.236      c-0.13-0.787-0.264-1.601-0.324-2.427c-0.293-4.091-0.468-9.028,0.453-14.626c0.379-2.298,1.283-4.577,2.009-6.408      c0.169-0.426,0.331-0.834,0.478-1.221c1.495-2.835,5.448-5.632,9.644-6.871c1.759-0.713,3.463-0.668,5.266-0.619      c0.638,0.018,1.289,0.035,1.968,0.017c6.698-0.592,11.095,6.921,12.478,10.989c0.75,2.206,1.104,4.494,1.48,6.917      c0.122,0.785,0.246,1.582,0.386,2.39c0.043,0.25-0.072,0.502-0.291,0.634l-0.453,0.275c-2.002,1.223-2.89,1.577-6.696,0.238      c-0.214-0.075-0.369-0.261-0.404-0.484c-0.105-0.652-0.182-1.295-0.257-1.931c-0.146-1.231-0.283-2.394-0.618-3.533      c-1.239-6.086-3.639-6.223-6.958-6.413c-0.283-0.016-0.57-0.033-0.858-0.053c-1.634-0.118-4.114,0.574-6.224,2.853      c-2.297,2.481-4.735,7.459-3.302,17.084c0.214,1.435,0.489,2.832,0.781,4.31c0.471,2.385,0.958,4.851,1.158,7.471      c0.017,0.224-0.088,0.438-0.274,0.562C38.654,46.701,37.393,47.083,36.062,47.083z M32.782,45.005      c1.585,0.779,3.846,1.364,6.039,0.094c-0.211-2.412-0.667-4.72-1.107-6.955c-0.281-1.428-0.573-2.903-0.791-4.367      c-1.504-10.109,1.137-15.424,3.617-18.104c2.405-2.598,5.3-3.383,7.214-3.245c0.283,0.02,0.564,0.036,0.842,0.052      c3.279,0.187,6.667,0.38,8.083,7.346c0.352,1.188,0.502,2.458,0.647,3.685c0.06,0.501,0.119,1.006,0.193,1.518      c3.144,1.073,3.672,0.747,5.297-0.248l0.101-0.062c-0.112-0.673-0.216-1.339-0.317-1.997c-0.368-2.367-0.715-4.604-1.431-6.708      c-1.274-3.75-5.253-10.698-11.237-10.156c-0.741,0.021-1.415,0.003-2.074-0.014c-1.743-0.045-3.25-0.087-4.828,0.55      c-4.408,1.304-7.813,4.108-8.928,6.215c-0.118,0.323-0.282,0.736-0.453,1.167c-0.741,1.868-1.582,3.987-1.938,6.153      c-0.901,5.472-0.728,10.318-0.439,14.338c0.055,0.77,0.185,1.555,0.31,2.314c0.228,1.38,0.443,2.683,0.267,3.96      c-0.005,0.039-0.015,0.078-0.027,0.114c0.001,0.003,0.002,0.005,0.004,0.008c0.421,0.759,0.475,1.56,0.525,2.334      C32.399,43.718,32.445,44.398,32.782,45.005z"/>\<\/g\>
\<g\><path d="M33.576,53.851c-0.226,0-0.443-0.124-0.551-0.339c-0.153-0.305-0.031-0.674,0.273-0.828      c1.117-0.562,2.291-0.684,3.426-0.802c0.601-0.062,1.167-0.121,1.723-0.241c2.453-0.53,4.937-1.128,7.338-1.707      c2.825-0.68,5.746-1.384,8.646-1.985c1.185-0.246,2.392-0.416,3.56-0.581c1.709-0.241,3.478-0.49,5.144-0.979l1.65-0.481      c4.316-1.255,8.779-2.554,12.931-4.461c0.305-0.143,0.676-0.008,0.818,0.303c0.142,0.309,0.005,0.675-0.304,0.817      c-4.234,1.945-8.741,3.256-13.101,4.524l-1.648,0.481c-1.752,0.514-3.565,0.77-5.319,1.017      c-1.147,0.162-2.334,0.329-3.479,0.566c-2.882,0.598-5.793,1.299-8.608,1.977c-2.409,0.581-4.899,1.181-7.366,1.715      c-0.621,0.134-1.249,0.199-1.856,0.262c-1.071,0.11-2.083,0.216-2.998,0.677C33.763,53.83,33.669,53.851,33.576,53.851z"/>\<\/g\>
\<g\><path d="M60.721,42.291L60.721,42.291c-1.544,0-2.756-1.179-2.759-2.685c-0.024-0.21,0.024-0.611,0.407-1.037      c0.867-0.961,2.963-1.535,4.488-1.535c1.21,0,2.08,0.326,2.52,0.943c0.557,0.827,0.463,1.496,0.287,1.913      c-0.635,1.509-3.254,2.144-4.351,2.346C61.11,42.273,60.912,42.291,60.721,42.291z M62.857,38.021      c-1.444,0-3.165,0.554-3.755,1.209c-0.078,0.086-0.169,0.212-0.157,0.324c0.006,1.155,0.972,1.94,2.189,1.712      c1.555-0.287,3.277-0.942,3.62-1.758c0.044-0.105,0.179-0.424-0.188-0.969C64.335,38.213,63.709,38.021,62.857,38.021z"/>\<\/g\>
\<g\><path d="M45.636,89.289c-0.06,0-0.121-0.011-0.181-0.035l-0.322-0.124c-1.069-0.407-2.4-0.915-2.676-2.542      c-0.256-1.509,0.357-2.665,1.6-3.015c1.439-0.409,2.601,0.306,3.447,2.118c0.407,0.87,0.459,1.651,0.153,2.257      c-0.276,0.546-0.812,0.915-1.594,1.096C45.974,89.197,45.809,89.289,45.636,89.289z M44.812,84.45      c-0.155,0-0.316,0.024-0.487,0.073c-1.011,0.284-0.995,1.312-0.895,1.899c0.182,1.071,1.05,1.402,2.055,1.785l0.029,0.012      c0.063-0.057,0.143-0.099,0.233-0.116c0.537-0.108,0.883-0.31,1.03-0.601c0.163-0.321,0.104-0.816-0.166-1.395      C46.081,84.973,45.525,84.45,44.812,84.45z"/>\<\/g\>
\<g\><path d="M40.128,73.495c-0.214,0-0.417-0.03-0.611-0.09c-0.664-0.203-1.186-0.752-1.596-1.678      c-0.338-0.762-0.374-1.431-0.107-1.987c0.305-0.639,0.985-1.092,2.079-1.386c0.079-0.019,0.159-0.02,0.232-0.006      c0.086-0.016,0.176-0.013,0.264,0.017c2.076,0.711,2.371,2.498,2.412,3.778c0.006,0.177-0.082,0.341-0.231,0.435      C41.579,73.198,40.799,73.495,40.128,73.495z M40.12,69.316c-0.771,0.21-1.247,0.496-1.416,0.849      c-0.136,0.285-0.096,0.677,0.119,1.164c0.288,0.648,0.609,1.019,0.983,1.134c0.454,0.141,1.106-0.049,1.995-0.571      C41.7,70.48,41.186,69.699,40.12,69.316z"/>\<\/g\>
\<g\><path d="M59.501,89.927c-0.586,0-1.213-0.164-1.827-0.501c-0.245-0.134-0.419-0.334-0.572-0.512      c-0.055-0.063-0.11-0.128-0.168-0.186c-0.106-0.105-0.158-0.253-0.143-0.401c0.173-1.664,0.38-3.657,2.964-3.769      c0.052,0.002,0.085,0.003,0.126,0.011c0.16-0.032,0.329,0.012,0.451,0.133l0.206,0.211c0.128,0.133,0.257,0.266,0.396,0.388      c0.522,0.456,1.906,1.666,0.912,3.322C61.333,89.477,60.473,89.926,59.501,89.927z M57.794,88.208      c0.019,0.021,0.036,0.041,0.054,0.061c0.107,0.125,0.21,0.243,0.3,0.292c1.162,0.636,2.309,0.458,2.854-0.446      c0.416-0.691,0.222-1.252-0.714-2.069c-0.16-0.14-0.31-0.293-0.459-0.447l-0.051-0.053      C58.193,85.621,57.973,86.559,57.794,88.208z"/>\<\/g\>
\<g\><path d="M40.623,60.216c-0.062,0-0.124-0.011-0.182-0.034l-0.147-0.059c-1.064-0.421-2.271-0.897-2.624-2.408      c-0.018-0.074-0.017-0.147-0.002-0.217c-0.014-0.061-0.015-0.125-0.003-0.19c0.224-1.258,1.009-2.044,2.271-2.272      c0.104-0.018,0.217-0.003,0.314,0.048l0.218,0.111c1.067,0.546,2.278,1.164,2.536,2.746c0.027,0.167-0.033,0.336-0.16,0.447      c-0.165,0.146-0.309,0.353-0.462,0.571c-0.349,0.5-0.784,1.121-1.688,1.252C40.67,60.214,40.647,60.216,40.623,60.216z       M38.632,57.498c0.239,1.002,1.066,1.329,2.025,1.708l0.014,0.006c0.382-0.098,0.599-0.383,0.902-0.818      c0.125-0.178,0.253-0.36,0.405-0.531c-0.255-0.919-1.05-1.324-1.959-1.789l-0.065-0.034c-0.756,0.183-1.176,0.645-1.318,1.441      C38.634,57.486,38.633,57.492,38.632,57.498z"/>\<\/g\>
\<g\><path d="M70.414,81.905c-0.997,0-1.626-0.65-2.109-1.15l-0.156-0.16c-0.09-0.091-0.141-0.213-0.143-0.34      c-0.025-1.834,0.806-2.97,2.468-3.375c0.074-0.02,0.149-0.02,0.221-0.004c0.094-0.019,0.192-0.014,0.285,0.023      c1.478,0.582,1.722,1.873,1.768,2.932c0.059,1.335-0.885,1.762-1.601,1.967C70.883,81.873,70.639,81.905,70.414,81.905z       M68.993,80.049l0.021,0.021c0.615,0.637,1.035,1.018,1.862,0.779c0.775-0.222,0.907-0.502,0.886-0.975      c-0.05-1.144-0.354-1.72-1.079-2.03C69.537,78.131,69.023,78.796,68.993,80.049z"/>\<\/g\>
\<g\><path d="M74.252,67.479c-1.153,0-2.093-0.716-2.601-2.029c-0.436-1.12,0.189-2.365,1.452-2.896      c0.098-0.039,0.199-0.046,0.295-0.028c0.08-0.015,0.165-0.015,0.249,0.012c1.332,0.411,2.222,0.826,2.536,1.613      c0.317,0.793-0.051,1.721-0.745,2.961c-0.063,0.112-0.169,0.196-0.293,0.233C74.837,67.435,74.538,67.479,74.252,67.479z       M73.41,63.497c-0.721,0.336-1.072,0.996-0.84,1.597c0.298,0.771,0.909,1.604,2.109,1.353c0.548-1.006,0.724-1.589,0.588-1.929      C75.127,64.166,74.57,63.859,73.41,63.497z"/>\<\/g\>
\<g\><path d="M73.441,52.143c-0.264,0.001-0.523-0.071-0.77-0.214c-0.56-0.326-2.26-1.315-2.321-3.044      c-0.04-1.212,0.815-2.121,2.232-2.373c0.063-0.012,0.129-0.01,0.191,0.003c0.095-0.021,0.197-0.014,0.293,0.027      c0.216,0.089,0.409,0.21,0.603,0.333c0.196,0.126,0.381,0.245,0.591,0.311c0.613,0.192,1.038,0.523,1.265,0.982      c0.36,0.73,0.135,1.579-0.133,2.314c-0.213,0.584-0.698,1.302-1.422,1.564C73.795,52.111,73.618,52.143,73.441,52.143z       M72.756,47.482C72.756,47.482,72.756,47.482,72.756,47.482c-0.438,0.078-1.453,0.367-1.419,1.368      c0.028,0.808,0.609,1.515,1.83,2.225c0.154,0.09,0.302,0.104,0.468,0.045c0.323-0.117,0.665-0.518,0.832-0.975      c0.185-0.507,0.371-1.141,0.175-1.54c-0.104-0.212-0.325-0.368-0.675-0.478c-0.337-0.105-0.599-0.273-0.83-0.421      C73.013,47.626,72.891,47.546,72.756,47.482z"/>\<\/g\>
\<g\><path d="M33.374,54.012c-0.06,0-0.122-0.009-0.183-0.028c-0.918-0.285-1.643-0.896-2.289-1.513      c-1.019-0.975-1.981-1.942-2.937-2.901c-1.504-1.511-2.926-2.939-4.538-4.38c-0.082-0.073-0.183-0.15-0.292-0.235      c-0.4-0.309-0.95-0.733-1.289-1.376c-0.159-0.301-0.044-0.673,0.258-0.833c0.301-0.16,0.674-0.043,0.833,0.258      c0.214,0.406,0.606,0.708,0.952,0.975c0.136,0.105,0.26,0.201,0.361,0.292c1.639,1.466,3.139,2.972,4.589,4.429      c0.949,0.953,1.904,1.913,2.916,2.881c0.734,0.702,1.256,1.058,1.802,1.227c0.325,0.102,0.507,0.446,0.406,0.771      C33.88,53.842,33.637,54.012,33.374,54.012z"/>\<\/g\>
\<g\><path d="M50.755,94.589c-1.166,0.001-2.352-0.07-3.562-0.211c-0.295-0.034-0.594-0.063-0.894-0.093      c-1.868-0.181-3.985-0.385-5.479-2.006c-1.499-1.625-2.716-3.49-3.834-5.261c-3.46-5.481-3.997-11.827-4.229-17.346      c-0.15-3.617-0.11-7.293-0.071-10.85c0.016-1.452,0.032-2.904,0.036-4.357c0.001-0.312,0.075-0.601,0.14-0.854      c0.025-0.101,0.051-0.201,0.071-0.302c0.066-0.334,0.389-0.55,0.724-0.485c0.334,0.066,0.551,0.39,0.485,0.725      c-0.024,0.122-0.055,0.244-0.086,0.367c-0.052,0.202-0.101,0.396-0.101,0.554c-0.003,1.455-0.02,2.911-0.036,4.367      c-0.039,3.54-0.079,7.2,0.07,10.783c0.225,5.36,0.741,11.516,4.039,16.74c1.087,1.723,2.269,3.534,3.698,5.083      c1.175,1.275,2.883,1.439,4.69,1.615c0.308,0.03,0.616,0.06,0.918,0.095c8.222,0.962,15.355-1.487,21.807-7.478      c2.455-2.281,4.995-4.642,6.394-7.782c1.189-2.671,2.031-5.485,2.436-8.143c0.41-2.698,0.434-5.526,0.458-8.261l0.017-1.625      c0.065-4.71,0.117-9.728-0.026-14.736c-0.067-2.391-0.891-4.265-2.446-5.569c-1.057-0.886-2.132-1.75-3.205-2.614      c-1.551-1.248-3.153-2.538-4.679-3.875c-1.419-1.245-2.525-1.497-4.233-0.956c-3.79,1.202-7.692,2.249-11.467,3.262      c-1.448,0.389-2.895,0.777-4.339,1.175c-2.153,0.593-4.308,1.179-6.464,1.766L38.9,39.051c-0.329,0.091-0.667-0.104-0.757-0.433      c-0.089-0.329,0.104-0.667,0.433-0.757l2.688-0.732c2.154-0.586,4.308-1.172,6.46-1.765c1.447-0.398,2.897-0.788,4.348-1.177      c3.76-1.01,7.649-2.054,11.414-3.247c2.109-0.67,3.682-0.321,5.419,1.204c1.504,1.32,3.098,2.601,4.638,3.84      c1.08,0.87,2.162,1.739,3.225,2.63c1.812,1.519,2.811,3.759,2.888,6.479c0.144,5.032,0.091,10.065,0.025,14.789l-0.017,1.618      c-0.023,2.777-0.049,5.65-0.472,8.436c-0.42,2.764-1.294,5.689-2.527,8.458c-1.501,3.372-4.253,5.93-6.681,8.185      C64.197,91.95,57.878,94.589,50.755,94.589z"/>\<\/g\>
\<g\><path d="M56.09,82.453c-0.112,0-0.221-0.037-0.31-0.108c-0.104-0.084-0.17-0.206-0.182-0.34l-0.159-1.789      c-0.118-1.349-0.237-2.694-0.377-4.04c-0.024-0.238-0.044-0.478-0.064-0.717c-0.151-1.853-0.271-3.315-2.627-3.711      c-1.713-0.289-2.853-1.78-3.128-4.092c-0.233-1.948,0.621-3.871,2.342-5.276c1.953-1.596,4.629-2.155,6.812-1.431      c0.837,0.277,2.037,1.141,2.404,1.998c0.092,0.009,0.183,0.043,0.26,0.104c1.354,1.063,2.048,2.545,1.902,4.064      c-0.151,1.584-1.18,2.977-2.819,3.819c-1.217,0.626-1.736,0.971-1.314,2.601c0.466,1.805,0.508,3.731,0.55,5.596      c0.017,0.81,0.035,1.623,0.086,2.437c0.017,0.26-0.172,0.487-0.43,0.52l-2.885,0.362C56.131,82.452,56.109,82.453,56.09,82.453z       M56.392,61.62c-1.452,0-2.973,0.535-4.183,1.523c-1.455,1.188-2.178,2.79-1.986,4.396c0.104,0.874,0.536,2.937,2.312,3.235      c3.113,0.522,3.29,2.69,3.447,4.603c0.02,0.232,0.038,0.465,0.062,0.695c0.141,1.351,0.261,2.703,0.379,4.057l0.113,1.277      l0.389-0.049l-0.165-2.373c-0.153-2.192-0.307-4.384-0.435-6.576c-0.044-0.764-0.033-1.53-0.022-2.343      c0.006-0.39,0.011-0.794,0.011-1.222c0-0.179,0.098-0.345,0.255-0.431l0.456-0.259c0.415-0.235,0.918-0.521,1.433-0.785      c1.497-0.769,1.485-2.282,1.473-3.747l-0.001-0.181c-0.003-0.365-1.009-1.28-1.841-1.557      C57.55,61.707,56.977,61.62,56.392,61.62z M57.298,69.133c-0.002,0.328-0.006,0.643-0.01,0.948      c-0.011,0.793-0.021,1.543,0.021,2.27c0.128,2.19,0.281,4.378,0.435,6.565l0.161,2.319l0.552-0.068      c-0.033-0.673-0.048-1.345-0.062-2.015c-0.042-1.891-0.081-3.677-0.52-5.37c-0.589-2.281,0.429-3.01,1.819-3.725      c1.336-0.687,2.17-1.793,2.289-3.036c0.095-0.997-0.289-1.984-1.066-2.78c-0.021,1.418-0.242,3.1-2.011,4.007      c-0.501,0.257-0.989,0.535-1.394,0.765L57.298,69.133z"/>\<\/g\>
\<g\><path d="M42.7,93.582c-0.043,0-0.086-0.005-0.129-0.014c-1.069-0.229-4.143-1.528-4.956-2.007      c-5.39-3.169-11.103-7.497-12.603-15.559c-0.204-1.095-0.496-2.208-0.779-3.284c-0.416-1.583-0.846-3.222-1.02-4.885      c-0.346-3.312-0.511-6.692-0.671-9.959c-0.072-1.471-0.144-2.94-0.231-4.409l-0.013-0.175      c-0.212-2.922-0.568-8.167-0.568-10.454c0-0.341,0.276-0.617,0.617-0.617s0.616,0.276,0.616,0.617      c0,1.643,0.206,5.42,0.565,10.364l0.014,0.19c0.088,1.474,0.16,2.948,0.232,4.423c0.16,3.251,0.324,6.612,0.666,9.893      c0.164,1.568,0.582,3.16,0.986,4.699c0.289,1.097,0.586,2.232,0.798,3.371c1.41,7.575,6.866,11.693,12.017,14.721      c0.79,0.466,3.712,1.677,4.589,1.864c0.333,0.071,0.545,0.398,0.474,0.731C43.241,93.384,42.985,93.582,42.7,93.582z"/>\<\/g\>
\<g\><path d="M56.854,56.025c-0.277,0-0.559-0.045-0.835-0.137c-0.844-0.279-1.558-0.948-1.959-1.838      c-0.31-0.685-0.324-1.376-0.044-1.997c0.328-0.727,1.042-1.29,2.012-1.588c0.123-0.039,0.246-0.026,0.354,0.024      c0.125-0.06,0.274-0.064,0.412-0.002c1.513,0.688,1.884,2.084,2.21,3.317l0.092,0.343c0.175,0.647-0.706,1.383-1.03,1.564      C57.689,55.921,57.276,56.025,56.854,56.025z M56.381,51.384c-0.021,0.009-0.042,0.018-0.063,0.024      c-0.695,0.214-1.193,0.587-1.402,1.051c-0.163,0.361-0.148,0.761,0.044,1.186c0.288,0.639,0.787,1.115,1.369,1.308      c0.304,0.102,0.771,0.165,1.256-0.102c0.207-0.115,0.462-0.392,0.536-0.53l-0.07-0.263c-0.297-1.12-0.577-2.178-1.666-2.672      C56.383,51.385,56.381,51.384,56.381,51.384z"/>\<\/g\>
\<g\><path d="M60.65,41.37c-0.256,0-0.472-0.196-0.49-0.455l-0.162-2.104c-0.021-0.271,0.182-0.509,0.453-0.529      c0.243-0.022,0.509,0.181,0.529,0.454l0.162,2.104c0.021,0.271-0.183,0.509-0.454,0.53C60.676,41.369,60.663,41.37,60.65,41.37z      "/>\<\/g\>
\<g\><path d="M61.609,40.258c-0.186,0-0.346-0.14-0.368-0.328l-0.162-1.436c-0.021-0.203,0.124-0.386,0.327-0.409      c0.214-0.021,0.386,0.124,0.409,0.326l0.162,1.435c0.021,0.203-0.124,0.386-0.327,0.409      C61.637,40.257,61.623,40.258,61.609,40.258z"/>\<\/g\>
\<g\><path d="M32.691,35.054c-0.245,0-0.457-0.182-0.489-0.431c-0.072-0.562-1.711-13.824,2.105-19.403      c3.766-5.505,5.955-6.233,9.268-7.335L43.8,7.811c0.261-0.086,0.538,0.053,0.624,0.312c0.086,0.259-0.053,0.538-0.312,0.624      l-0.226,0.075c-3.234,1.076-5.187,1.725-8.765,6.957c-3.605,5.27-1.958,18.587-1.94,18.721c0.034,0.271-0.157,0.518-0.427,0.552      C32.733,35.053,32.712,35.054,32.691,35.054z"/>\<\/g\>
\<g\><path d="M33.145,41.331c-0.252,0-0.467-0.192-0.491-0.447l-0.454-4.833c-0.025-0.271,0.174-0.512,0.445-0.537      c0.276-0.027,0.512,0.174,0.538,0.445l0.454,4.833c0.025,0.271-0.174,0.512-0.445,0.538      C33.176,41.331,33.16,41.331,33.145,41.331z"/></g></g></g></switch><g><text x="0" y="115" fill="#000000" font-size="5px" font-weight="bold" font-family="'League Mono', Sans-serif">Created by Adam Zubin</text><text x="0" y="120" fill="#000000" font-size="5px" font-weight="bold" font-family="'League Mono', Sans-serif">from the Noun Project</text></g></svg>