<?xml version="1.0" encoding="UTF-8" standalone="no"?>
<!-- Created with Inkscape (http://www.inkscape.org/) -->

<svg
   xmlns:dc="http://purl.org/dc/elements/1.1/"
   xmlns:cc="http://creativecommons.org/ns#"
   xmlns:rdf="http://www.w3.org/1999/02/22-rdf-syntax-ns#"
   xmlns:svg="http://www.w3.org/2000/svg"
   xmlns="http://www.w3.org/2000/svg"
   xmlns:sodipodi="http://sodipodi.sourceforge.net/DTD/sodipodi-0.dtd"
   xmlns:inkscape="http://www.inkscape.org/namespaces/inkscape"
   width="400"
   height="400"
   viewBox="0 0 400.00001 399.99999"
   version="1.1"
   id="svg1168"
   inkscape:version="0.92.2 5c3e80d, 2017-08-06"
   sodipodi:docname="project-icon.svg"
   inkscape:export-filename="/home/sam/gitlab/Cut, Copy and Paste/Images/project-icon.png"
   inkscape:export-xdpi="96"
   inkscape:export-ydpi="96">
  <defs
     id="defs1162" />
  <sodipodi:namedview
     id="base"
     pagecolor="#ffffff"
     bordercolor="#666666"
     borderopacity="1.0"
     inkscape:pageopacity="0.0"
     inkscape:pageshadow="2"
     inkscape:zoom="1.9631056"
     inkscape:cx="182.85648"
     inkscape:cy="190.88685"
     inkscape:document-units="px"
     inkscape:current-layer="layer1"
     showgrid="false"
     fit-margin-top="0"
     fit-margin-left="0"
     fit-margin-right="0"
     fit-margin-bottom="0"
     units="px"
     inkscape:snap-page="true"
     inkscape:snap-global="false"
     inkscape:window-width="1600"
     inkscape:window-height="874"
     inkscape:window-x="0"
     inkscape:window-y="0"
     inkscape:window-maximized="1" />
  <metadata
     id="metadata1165">
    <rdf:RDF>
      <cc:Work
         rdf:about="">
        <dc:format>image/svg+xml</dc:format>
        <dc:type
           rdf:resource="http://purl.org/dc/dcmitype/StillImage" />
        <dc:title />
      </cc:Work>
    </rdf:RDF>
  </metadata>
  <g
     inkscape:label="Layer 1"
     inkscape:groupmode="layer"
     id="layer1"
     transform="translate(-52.773913,239.3932)">
    <rect
       style="opacity:1;vector-effect:none;fill:#e3030a;fill-opacity:1;stroke:none;stroke-width:1.88976383;stroke-linecap:square;stroke-linejoin:miter;stroke-miterlimit:4;stroke-dasharray:none;stroke-dashoffset:0;stroke-opacity:1"
       id="rect1719"
       width="400"
       height="400"
       x="52.773914"
       y="-239.3932" />
    <path
       style="opacity:1;vector-effect:none;fill:#ffffff;fill-opacity:1;stroke:none;stroke-width:1.88976383;stroke-linecap:square;stroke-linejoin:miter;stroke-miterlimit:4;stroke-dasharray:none;stroke-dashoffset:0;stroke-opacity:1"
       d="m 110.72629,-44.481793 c 0,0 6.46721,-1.5217 9.38379,-2.66297 -3.80424,-5.57955 -2.78977,-12.30038 0.76085,-15.34377 l 24.22033,-5.19913 0.1268,-16.61185 -32.20923,6.84763 c 0,0 -7.35487,10.65188 -5.19913,26.37607 z"
       id="path1797"
       inkscape:connector-curvature="0"
       sodipodi:nodetypes="cccccccc" />
    <path
       style="opacity:1;vector-effect:none;fill:#ffffff;fill-opacity:1;stroke:none;stroke-width:1.88976383;stroke-linecap:square;stroke-linejoin:miter;stroke-miterlimit:4;stroke-dasharray:none;stroke-dashoffset:0;stroke-opacity:1"
       d="m 160.26049,-49.961543 c -11.11868,14.52602 -40.77446,88.26266 -40.77446,88.26266 -7.71134,27.079374 3.04867,52.006751 13.09135,62.408103 l 220.58035,4.304 c 15.7814,-1.07601 30.7436,-17.856713 30.7436,-17.856713 14.526,-20.982031 13.0138,-43.83404 7.8131,-53.697388 l -29.7694,-53.62075 c -8.07,-12.374022 -18.6506,-28.514042 -25.1066,-32.100712 0,0 -129.4132,-3.61721 -176.57794,2.3008 z"
       id="path1795"
       inkscape:connector-curvature="0"
       sodipodi:nodetypes="ccccccccc" />
    <path
       inkscape:connector-curvature="0"
       style="fill:#000000;fill-opacity:1;fill-rule:nonzero;stroke:none;stroke-width:0.35277775"
       d="m 313.06103,106.71344 c -0.2443,-0.25064 -22.8482,-0.65454 -50.90659,-0.91197 -64.67248,-0.59807 -75.36332,-0.82966 -95.10857,-2.06316 -1.6939,-0.10524 -7.23373,-0.37797 -12.31543,-0.60189 -11.71444,-0.51962 -16.4031,-0.79619 -18.5695,-1.09951 -1.67023,-0.23546 -1.7201,-0.2086 -1.7201,0.83729 0,1.26797 -0.0465,1.27849 -1.55866,0.41915 -2.03031,-1.15884 -3.86283,-3.52535 -6.31915,-8.159786 -1.31438,-2.482305 -3.63546,-6.635392 -5.15439,-9.229675 -2.93221,-4.998083 -4.67851,-9.221991 -5.71227,-13.812404 -0.52152,-2.310056 -0.63056,-4.702383 -0.63732,-13.669856 l -0.003,-10.86983 1.4006,-4.100463 c 0.76919,-2.258382 1.53161,-5.30048 1.69728,-6.770316 0.16144,-1.465089 0.88414,-4.600961 1.60768,-6.97129 1.453,-4.765533 11.27238,-27.881282 14.98306,-35.275544 3.61941,-7.210512 10.39416,-19.419107 13.31284,-23.994219 2.84007,-4.44878 5.55758,-9.40091 8.30467,-15.13872 l 1.74631,-3.64879 -2.50282,0.22786 -2.49943,0.22487 -1.63473,-1.67849 c -3.38696,-3.49195 -5.82045,-8.15319 -8.05278,-15.44217 -0.88161,-2.87464 -1.11236,-4.41052 -1.2679,-8.43635 -0.23075,-5.97702 0.0592,-7.45071 3.16635,-15.99519 1.22816,-3.38659 2.3177,-6.76267 2.42336,-7.50238 0.26794,-1.91005 2.14696,-3.427737 4.75458,-3.839227 7.83893,-1.23731 19.3353,-2.28324 26.87332,-2.44784 1.6939,-0.0373 3.28215,-0.15694 3.53318,-0.26219 0.35333,-0.14545 0.45222,-5.37511 0.45222,-24.24493 0.003,-24.07651 0.27724,-33.23821 1.27803,-42.576 0.71339,-6.67941 0.792,-6.19711 -1.08278,-6.51577 -0.88499,-0.1531 -1.90521,-0.52632 -2.26192,-0.83733 -0.56801,-0.49282 -0.58153,-0.61626 -0.10904,-0.98276 1.92127,-1.48422 5.87371,-2.07465 23.18884,-3.47273 42.56302,-3.43922 43.52747,-3.4909 65.03506,-3.49856 19.9693,-0.008 62.8628,1.28996 62.8628,1.89857 0,0.0823 -0.366,0.79616 -0.8157,1.57799 -0.759,1.32726 -0.9475,1.42775 -2.7175,1.43157 l -1.9018,0.004 v 2.98277 c 0,1.66698 -0.3069,4.24592 -0.6932,5.84592 -0.8714,3.59617 -4.2263,22.73106 -4.7148,26.89565 -0.2013,1.71196 -0.6272,7.89472 -0.9442,13.74064 -0.3169,5.84688 -0.885,14.31289 -1.2678,18.81337 -0.5418,6.39233 -0.5943,8.25739 -0.2511,8.50812 0.2443,0.17225 1.5882,0.3177 2.9846,0.32153 3.8468,0.0114 12.8141,0.72535 26.0509,2.07464 6.5609,0.66506 13.0195,1.21435 14.3534,1.21435 1.9052,0 2.6313,0.18372 3.381,0.848797 0.5249,0.46698 0.9543,1.02105 0.9543,1.22966 0,0.20957 0.825,1.53301 1.8325,2.94258 2.1233,2.97128 4.0674,7.25166 4.8966,10.77223 0.8943,3.79808 1.1124,13.30811 0.3795,16.61241 -1.3042,5.88325 -5.4544,13.38179 -10.1693,18.37605 -4.1012,4.34354 -7.1517,4.52631 -6.2304,0.3732 l 0.2147,-0.95979 -4.9727,0.0271 c -4.5567,0.0271 -11.0974,-0.2957 -16.5654,-0.80767 -12.4177,-1.15884 -29.4817,-1.62584 -59.6009,-1.62584 -34.80351,0 -48.42739,0.45265 -86.22908,2.8555 -1.69391,0.10905 -6.01572,0.2957 -9.60214,0.41915 -15.6466,0.52727 -15.23895,0.72534 -15.83993,1.08804 -0.35332,0.21239 -1.39045,2.08516 -2.31179,4.16361 -2.53239,5.71963 -5.74184,11.9129 -8.65714,16.697583 -1.44285,2.370329 -3.43006,5.876549 -4.41732,7.794231 -0.98727,1.917709 -3.272,6.347371 -5.07494,9.845942 -4.98618,9.655602 -15.71675,34.826859 -17.48672,41.002931 -0.8647,3.0201 -1.81562,5.539702 -2.32108,6.152146 -2.12329,2.579877 -3.28553,15.714788 -2.40392,27.182712 0.61788,8.052635 2.03454,12.257394 6.52455,19.389431 1.13603,1.801939 3.39119,5.771306 5.01239,8.818174 1.62121,3.046897 3.07675,1.749276 3.23227,2.006698 0.20455,0.344497 2.70291,0.538746 19.8287,0.717692 12.9536,0.131018 23.95803,0.352152 24.45673,0.482303 0.49871,0.13481 22.59124,0.30334 49.09434,0.37417 54.55218,0.14539 70.65858,0.36649 92.93208,1.26699 7.4653,0.29949 22.882,1.70046 27.1573,2.46315 5.0191,0.89759 4.9955,5.14832 -0.1716,5.83921 -3.4537,0.46412 -36.7485,1.07656 -37.1288,0.68422 z"
       id="path1793"
       sodipodi:nodetypes="cccccsccccccccccccccccccccccccccccccscccscccccccscsccccccccsccccccccccccccccccccc" />
    <path
       inkscape:connector-curvature="0"
       style="fill:#ffffff;fill-opacity:1;fill-rule:nonzero;stroke:none;stroke-width:0.35277775"
       d="m 165.30741,-56.302553 c 1.8621,-0.2124 3.9505,-0.69092 9.5309,-1.06892 5.58041,-0.37415 10.20228,-0.74352 10.27497,-0.81817 0.0693,-0.0784 -0.13186,-0.81148 -0.44883,-6.52342 -0.31698,-5.70717 -0.66691,-13.333 -0.77595,-16.94064 -0.10904,-3.61053 -0.28739,-8.45549 -0.40234,-10.76937 l -0.20539,-4.20477 -3.49599,0.004 c -4.30575,0 -12.78685,0.64305 -20.33163,1.25549 -4.30491,0.34833 -5.71818,0.60575 -6.05544,1.0957 -0.47842,0.69091 -2.14273,6.55597 -3.34131,11.77127 -1.86548,8.13012 0.0296,13.03729 5.75875,23.04397 l 2.31771,4.04879 1.89507,-0.25444 c 1.04389,-0.1378 3.41738,-0.42582 5.27948,-0.63922 z"
       id="path1791"
       sodipodi:nodetypes="cccccccccccccccc" />
    <path
       inkscape:connector-curvature="0"
       style="fill:#ffffff;fill-opacity:1;fill-rule:nonzero;stroke:none;stroke-width:0.35277775"
       d="m 365.04673,-69.572393 c 1.1259,-4.78851 0.3795,-15.14255 -1.4428,-20.08034 -1.3905,-3.76459 -1.4759,-3.82775 -4.7944,-3.73014 -1.5552,0.044 -4.4263,-0.49378 -11.2679,-1.19618 -13.8605,-1.42487 -29.0752,-2.47845 -29.5181,-2.04497 -0.9442,0.92345 -2.9584,33.37985 -2.1427,34.8009 0.1588,0.28039 2.5391,0.56076 6.2371,0.72823 8.7265,0.40382 18.3684,1.15214 25.1795,1.94448 3.5399,0.41435 9.97713,1.591136 10.32703,1.987316 4.31154,-1.329695 6.56133,-9.047272 7.42227,-12.409296 z"
       id="path1789"
       sodipodi:nodetypes="cccccccccc" />
    <path
       inkscape:connector-curvature="0"
       style="fill:#ffffff;fill-opacity:1;fill-rule:nonzero;stroke:none;stroke-width:0.35277775"
       d="m 202.91697,-55.389633 c 4.48326,-0.33302 13.45146,-0.87846 19.92615,-1.21149 6.47806,-0.33684 13.89436,-0.73302 16.48594,-0.88229 2.59154,-0.14927 20.03517,-0.32536 38.76607,-0.39617 l 30.0581,-0.12345 0.2476,-9.73013 c 0.2739,-10.91481 0.5148,-14.41719 2.2915,-33.406637 1.5088,-16.12916 1.8655,-20.85068 2.3541,-30.96932 0.2079,-4.2842 0.6246,-9.9885 0.9247,-12.67175 0.6238,-5.59999 3.4208,-17.99135 4.7182,-23.67268 0.9704,-4.24305 1.1158,-6.94926 0.426,-7.92534 -0.3863,-0.54162 -2.5357,-0.71387 -14.2206,-1.13588 -21.5279,-0.77799 -45.53726,-1.00192 -55.87479,-0.47847 -16.44957,0.82967 -55.44876,4.33971 -55.94746,4.89664 -0.32036,0.35885 -1.24507,4.47463 -1.73363,11.25165 -1.31438,18.13681 -0.45897,87.884047 1.29071,105.363457 l 0.22146,2.2019 2.95504,-0.25064 c 1.62796,-0.1378 2.62683,-0.52344 7.11092,-0.85549 z"
       id="path1787"
       sodipodi:nodetypes="ccsccccccccccccccccc" />
    <path
       inkscape:connector-curvature="0"
       style="fill:#000000;fill-opacity:1;fill-rule:nonzero;stroke:none;stroke-width:0.35277775"
       d="m 383.90133,87.156509 c -0.5054,-0.93109 -3.2503,-4.276537 0.2694,-11.367446 4.3514,-8.773178 5.4942,-13.416236 5.4841,-22.289909 -0.01,-6.111947 -0.5681,-9.704291 -2.42,-15.509066 -1.2781,-4.007639 -9.0308,-19.467905 -14.0229,-27.968382 -1.9221,-3.270796 -4.7681,-8.552125 -6.3259,-11.737773 -1.5553,-3.184671 -4.5669,-8.469825 -6.6868,-11.744472 -2.1225,-3.27462 -5.6523,-8.7732 -7.8415,-12.222944 -2.1926,-3.4469 -5.0944,-7.85071 -6.4451,-9.78277 -2.529,-3.61051 0.8303,-5.11385 1.4938,-5.86504 1.0169,-1.15502 8.6047,7.90238 16.387,19.560727 1.6542,2.482277 3.6085,5.345454 4.3421,6.358845 1.9348,2.684201 4.5797,7.27461 7.5972,13.18371 1.4564,2.852625 3.6287,6.729166 4.8307,8.612425 4.1037,6.459319 12.3949,21.699487 14.3593,26.401871 3.0775,7.360734 4.1071,12.743514 4.0842,21.329139 -0.03,13.269832 -2.6482,20.293751 -11.1439,29.911888 -2.5881,2.933976 -3.6219,3.749293 -3.9617,3.129197 z"
       id="path1757"
       sodipodi:nodetypes="cccccccccccccccccc" />
    <path
       inkscape:connector-curvature="0"
       style="fill:#000000;fill-opacity:1;fill-rule:nonzero;stroke:none;stroke-width:0.35277775"
       d="m 220.41637,71.138373 c -13.02882,-0.52345 -21.25742,-1.278468 -35.97675,-3.315799 -11.86323,-1.64019 -37.3723,-5.924374 -41.66791,-6.997116 -3.61939,-0.90429 -6.57104,-2.257404 -6.80518,-3.121522 -0.24428,-0.900467 -0.0465,-4.878467 30.17491,-0.590429 36.65298,5.199032 40.28167,5.483251 74.09204,5.797126 32.73435,0.299494 42.25615,-0.257422 71.19705,-4.186618 9.7035,-1.31576 27.2655,-3.71864 34.4172,-4.710031 26.963,-3.730144 32.9263,-0.395213 35.1544,0.07561 1.1461,0.243047 1.2848,0.377048 0.8587,0.833492 -1.9119,2.063158 -11.6256,4.302388 -30.2146,6.967466 -6.32,0.905242 -11.4972,1.61911 -32.9719,4.55691 -14.4192,1.970334 -20.6987,2.739697 -30.2509,3.715791 -10.1398,1.031567 -11.9621,1.090894 -35.50768,1.184695 -13.64925,0.05264 -28.27308,-0.04124 -32.49938,-0.209684 z"
       id="path1755"
       sodipodi:nodetypes="cccccccccccccccc" />
    <path
       inkscape:connector-curvature="0"
       style="fill:#000000;fill-opacity:1;fill-rule:nonzero;stroke:none;stroke-width:0.35277775"
       d="m 307.01573,40.943208 c -2.2881,-1.278464 -2.8756,-4.878458 -1.2248,-7.506211 1.2476,-1.984683 1.0363,-2.227756 -1.6973,-1.958858 -1.3473,0.131017 -4.692,0.02957 -7.4391,-0.227857 -5.9895,-0.556918 -6.1315,-0.48612 -6.2566,3.322498 -0.096,2.897599 -0.284,3.34257 -1.4429,3.34257 -1.846,0 -3.0082,-5.472728 -1.7835,-8.392327 1.1462,-2.732051 2.9289,-3.43157 11.0349,-4.321511 2.2915,-0.249829 5.4714,-0.631596 7.0664,-0.84787 6.937,-0.934916 11.1498,-0.396171 11.7871,1.506238 1.2746,3.794242 -1.9745,12.312893 -5.6134,14.728197 -1.7666,1.173189 -2.8164,1.255488 -4.4308,0.355022 z"
       id="path1753" />
    <path
       inkscape:connector-curvature="0"
       style="fill:#000000;fill-opacity:1;fill-rule:nonzero;stroke:none;stroke-width:0.35277775"
       d="m 345.12503,39.574795 c -1.3575,-0.627744 -2.1528,-2.074632 -2.3473,-4.257414 l -0.1885,-2.119606 -2.1757,-0.03744 c -1.1952,-0.01899 -4.4545,-0.108232 -7.2447,-0.205885 l -5.0741,-0.168451 -0.1157,1.136841 c -0.066,0.668893 -0.4954,1.420087 -1.0372,1.823907 -0.8748,0.646895 -0.9999,0.639246 -2.212,-0.112029 -0.7067,-0.441146 -1.7861,-1.506211 -2.4006,-2.374153 -0.901,-1.270815 -1.1157,-1.95886 -1.1157,-3.557895 0,-3.544495 1.5815,-4.635384 7.4256,-5.121531 1.6939,-0.141597 4.8738,-0.553094 7.0655,-0.911941 2.1926,-0.358846 6.2144,-0.668893 8.9353,-0.691869 4.4672,-0.03363 5.0512,0.04502 5.9565,0.807642 2.562,2.160783 3.2255,5.012431 2.0464,8.806699 -1.7691,5.696625 -4.6058,8.332027 -7.5178,6.982765 z"
       id="path1751" />
    <path
       inkscape:connector-curvature="0"
       style="fill:#000000;fill-opacity:1;fill-rule:nonzero;stroke:none;stroke-width:0.35277775"
       d="m 194.42128,36.180522 c -0.33642,-0.545444 -0.56125,-1.778933 -0.56125,-3.076547 0,-1.775109 -0.1158,-2.171281 -0.63394,-2.198081 -0.34995,-0.01899 -1.04307,-0.08897 -1.54176,-0.157058 -0.4987,-0.067 -2.8798,-0.257423 -5.29302,-0.421995 -5.2237,-0.355022 -6.10869,-0.06402 -5.53053,1.816258 0.45222,1.462214 -0.10564,2.8976 -1.11912,2.8976 -0.79285,0 -2.09371,-1.888034 -2.55268,-3.704293 -0.56463,-2.22488 0.15214,-3.507169 2.77414,-4.968405 l 2.34052,-1.304315 7.31656,-0.179844 c 8.1128,-0.198018 8.89889,-0.04123 10.05436,2.044983 0.84526,1.529187 0.74975,4.078465 -0.2578,6.930113 -1.06334,3.001926 -3.78676,4.268915 -4.99548,2.32153 z"
       id="path1749" />
    <path
       inkscape:connector-curvature="0"
       style="fill:#000000;fill-opacity:1;fill-rule:nonzero;stroke:none;stroke-width:0.35277775"
       d="m 272.34063,35.040834 c -0.9213,-0.960767 -1.6711,-1.940684 -1.6711,-2.183731 0,-0.239249 0.4362,-0.953117 0.9704,-1.580862 0.5317,-0.631568 0.8453,-1.289965 0.6939,-1.461236 -0.4327,-0.486148 -64.80427,-0.09765 -65.34271,0.399996 -0.26709,0.24603 -0.45221,1.390412 -0.45221,2.810526 0,2.025832 -0.11917,2.470803 -0.76919,2.86315 -1.02699,0.624869 -2.34136,-0.474647 -3.50021,-2.93015 -1.4623,-3.091848 -0.64662,-6.533942 1.95508,-8.24593 2.37687,-1.566485 6.68938,-1.888006 29.48772,-2.20573 36.50162,-0.50812 41.05512,-0.358847 44.19772,1.457412 1.9652,1.133015 3.0151,3.248797 3.0379,6.104298 0.024,3.723442 -0.2874,4.489962 -2.2053,5.420103 -0.9281,0.452621 -2.3743,0.927267 -3.2094,1.058366 -1.4133,0.216192 -1.6441,0.108232 -3.1926,-1.506212 z"
       id="path1747" />
    <path
       inkscape:connector-curvature="0"
       style="fill:#000000;fill-opacity:1;fill-rule:nonzero;stroke:none;stroke-width:0.35277775"
       d="m 147.58547,34.939384 c -0.40996,-0.50812 -1.10983,-1.745433 -1.55528,-2.74735 -0.66691,-1.502414 -0.77595,-2.280381 -0.62718,-4.410538 0.33979,-4.762658 1.56795,-5.733949 7.99361,-6.32152 2.42674,-0.223788 6.53047,-0.676544 9.12289,-1.005741 2.58818,-0.328222 5.4181,-0.594244 6.28619,-0.594244 3.0311,0.01085 5.11466,1.921533 5.65647,5.203831 0.32035,1.92533 -0.67028,5.584675 -1.95508,7.210484 -0.85456,1.084217 -1.30424,1.311964 -2.56198,1.311964 -2.20866,0 -3.25932,-1.468886 -3.25932,-4.563608 v -2.280381 l -3.08689,0.290897 c -1.69728,0.160856 -3.37089,0.352146 -3.71407,0.426796 -0.34402,0.0746 -2.42082,0.15299 -4.61258,0.175233 -2.1926,0.01899 -4.20009,0.191508 -4.46127,0.377997 -0.28993,0.209682 -0.44884,1.039215 -0.41249,2.14543 0.14877,4.463162 0.11242,4.949282 -0.39981,5.315805 -0.85455,0.612419 -1.61782,0.444971 -2.41321,-0.534946 z"
       id="path1745" />
    <path
       inkscape:connector-curvature="0"
       style="fill:#000000;fill-opacity:1;fill-rule:nonzero;stroke:none;stroke-width:0.35277775"
       d="m 311.70433,18.7576 c -1.027,-0.223787 -1.9052,-1.622011 -1.9052,-3.027749 0,-0.598096 0.492,-1.78661 1.0963,-2.646876 0.6044,-0.859344 0.9704,-1.704311 0.8157,-1.876559 -0.1555,-0.175233 -3.5433,-0.437322 -7.5287,-0.586594 -3.9846,-0.149192 -8.5515,-0.414373 -10.1431,-0.586622 -1.5942,-0.172249 -3.0404,-0.168451 -3.212,0.0081 -0.1716,0.175232 0.1183,1.382789 0.6432,2.683252 1.1825,2.92345 0.7793,3.805742 -0.9044,1.992332 -2.2949,-2.466979 -3.2289,-6.30237 -1.8722,-7.662183 1.0599,-1.066015 6.2472,-2.672728 9.5125,-2.949275 1.6939,-0.146478 5.943,-0.105248 9.4466,0.08518 5.2465,0.284224 6.6133,0.489946 7.7561,1.162691 3.5653,2.093782 3.6617,7.816257 0.1977,11.745422 -1.6508,1.872735 -2.087,2.055508 -3.9026,1.659337 z"
       id="path1743" />
    <path
       inkscape:connector-curvature="0"
       style="fill:#000000;fill-opacity:1;fill-rule:nonzero;stroke:none;stroke-width:0.35277775"
       d="m 191.09011,16.39492 c -1.33128,-1.053591 -1.76321,-2.881324 -1.23492,-5.210503 0.25104,-1.117717 0.36261,-2.141632 0.24428,-2.276556 -0.11918,-0.134815 -2.23909,0.06022 -4.70894,0.433497 -2.47239,0.374145 -5.56942,0.680367 -6.89056,0.680367 -1.51893,0 -2.39377,0.164654 -2.39377,0.456473 0,0.249828 0.36008,1.18469 0.80215,2.070806 0.84526,1.708109 0.64747,2.8708 -0.53504,3.135873 -0.78525,0.172248 -2.96433,-2.100482 -3.70393,-3.861242 -1.32452,-3.162672 0.003,-5.292803 3.9482,-6.347344 1.01431,-0.268816 2.90263,-1.088041 4.19671,-1.812461 4.33872,-2.433478 7.09934,-3.278445 10.71451,-3.28227 2.96517,0 3.43429,0.108232 4.76472,1.106216 2.10301,1.577985 2.92545,4.092814 2.35067,7.199987 -0.91119,4.910981 -3.14014,8.305253 -5.45784,8.305253 -0.73622,0 -1.68038,-0.268816 -2.09624,-0.598096 z"
       id="path1741" />
    <path
       inkscape:connector-curvature="0"
       style="fill:#000000;fill-opacity:1;fill-rule:nonzero;stroke:none;stroke-width:0.35277775"
       d="m 271.23763,15.939425 c -0.7498,-0.848792 -1.0668,-2.381804 -0.8022,-3.876541 0.1819,-1.017242 0.085,-1.241165 -0.5917,-1.405765 -0.934,-0.223787 -15.84181,-0.515769 -15.84181,-0.310047 0,0.0746 0.17826,0.511971 0.39304,0.968443 0.49195,1.04304 0.16484,2.635403 -0.61113,2.971274 -1.57811,0.688044 -4.85348,-3.319622 -4.85348,-5.939699 0,-3.027748 1.50287,-3.603818 10.67816,-4.096638 12.69582,-0.688045 15.07272,-0.665069 16.42002,0.160856 2.7504,1.678459 3.3514,5.532052 1.3837,8.896621 -1.6939,2.89665 -4.7783,4.212439 -6.1746,2.631577 z"
       id="path1739" />
    <path
       inkscape:connector-curvature="0"
       style="fill:#000000;fill-opacity:1;fill-rule:nonzero;stroke:none;stroke-width:0.35277775"
       d="m 230.54933,15.883005 c -1.38366,-0.302398 -2.33122,-2.096657 -2.2154,-4.20479 l 0.10232,-1.862209 -1.8917,0.01628 c -1.04052,0.01085 -3.86031,0.0556 -6.26675,0.104163 l -4.37507,0.08626 0.23752,1.222015 c 0.12933,0.669843 0.13271,1.593312 0.003,2.048808 -0.41587,1.488037 -1.4792,0.915765 -3.22551,-1.733987 -2.89248,-4.392337 -2.10047,-5.846874 3.94905,-7.244962 1.99059,-0.463145 4.76388,-1.117689 6.15772,-1.453587 3.45034,-0.841143 8.58782,-0.826793 10.17606,0.02441 3.04126,1.633485 3.66507,7.057415 1.29071,11.191378 -0.45895,0.796168 -2.63127,2.258354 -3.0311,2.041159 -0.0558,-0.02957 -0.46489,-0.134002 -0.91117,-0.231654 z"
       id="path1737" />
    <path
       inkscape:connector-curvature="0"
       style="fill:#000000;fill-opacity:1;fill-rule:nonzero;stroke:none;stroke-width:0.35277775"
       d="m 176.21862,-1.469121 c -1.12589,-0.511944 -1.93818,-2.092806 -2.02777,-3.947339 l -0.0786,-1.584686 -5.88723,-0.0081 c -6.57442,-0.01085 -6.71305,0.06402 -4.80107,2.531076 1.19858,1.539712 1.37693,2.500479 0.54181,2.86315 -0.6145,0.268816 -1.59162,-0.396171 -3.39118,-2.298554 -1.15547,-1.21914 -1.2121,-1.409563 -1.05658,-3.525344 0.20456,-2.829677 1.55867,-4.851684 4.30576,-6.43732 4.50353,-2.597127 12.61296,-3.928215 15.72604,-2.582778 2.41068,1.043067 3.55601,2.949301 3.73774,6.223922 0.12595,2.217231 0,2.9646 -0.82835,4.882282 -1.50287,3.47272 -3.8865,4.955983 -6.24055,3.883268 z"
       id="path1735" />
    <path
       inkscape:connector-curvature="0"
       style="fill:#000000;fill-opacity:1;fill-rule:nonzero;stroke:none;stroke-width:0.35277775"
       d="m 250.98095,-1.894941 c -0.89766,-0.799992 -1.56457,-2.643052 -1.77335,-4.900484 l -0.0956,-1.02774 -5.54997,-0.336847 c -4.89659,-0.298546 -5.65648,-0.257424 -6.47216,0.347372 -0.81142,0.60192 -0.8909,0.871767 -0.67028,2.183731 0.62464,3.670819 0.29416,3.995216 -1.97707,1.958859 -2.63805,-2.366505 -3.18661,-4.511961 -1.80292,-7.050714 0.7396,-1.353114 3.24918,-3.049748 4.51029,-3.049748 0.36938,0 2.21881,-0.874643 4.10713,-1.94356 3.35482,-1.895683 3.5298,-1.948307 7.30726,-2.093755 8.05955,-0.313872 11.78036,1.980857 11.78036,7.266961 0,2.086132 -0.18185,2.657428 -1.61781,5.155031 -0.88837,1.543536 -2.10978,3.151171 -2.71751,3.569369 -1.48849,1.02774 -3.82649,0.990415 -5.02845,-0.07839 z"
       id="path1733" />
    <path
       inkscape:connector-curvature="0"
       style="fill:#000000;fill-opacity:1;fill-rule:nonzero;stroke:none;stroke-width:0.35277775"
       d="m 330.89093,-1.878661 c -0.7396,-0.509095 -1.459,-1.529187 -1.8917,-2.666027 -0.3829,-1.012441 -0.9044,-1.842109 -1.1622,-1.842109 -2.8494,0 -9.3638,-1.046891 -13.4912,-2.160756 -0.1886,-0.05262 -0.35,0.553121 -0.3601,1.341639 -0.017,1.184663 -0.1682,1.458362 -0.8647,1.570337 -1.0236,0.164653 -2.0007,-0.762695 -3.3777,-3.188523 -1.988,-3.51387 -1.0895,-5.973199 2.6871,-7.341611 3.3777,-1.22584 5.1316,-1.376089 10.4601,-0.893794 9.6021,0.870818 11.695,1.544513 13.5935,4.362689 2.1232,3.147346 1.3642,8.910971 -1.4294,10.83633 -1.4792,1.023915 -2.6642,1.017243 -4.1637,-0.01899 z"
       id="path1731" />
    <path
       inkscape:connector-curvature="0"
       style="fill:#000000;fill-opacity:1;fill-rule:nonzero;stroke:none;stroke-width:0.35277775"
       d="m 209.0282,-4.674733 c -0.9636,-0.972242 -1.15209,-1.468887 -1.18505,-3.076549 -0.0204,-1.05454 -0.19779,-1.939708 -0.39643,-1.966508 -0.20116,-0.02957 -2.84936,-0.0746 -5.88723,-0.104163 -6.15095,-0.05642 -6.14081,-0.06022 -4.6092,2.560779 1.08024,1.849759 0.88837,2.926299 -0.52152,2.926299 -1.60768,0 -5.10452,-4.836358 -5.10452,-7.053563 0,-1.480387 1.8359,-3.816267 3.95243,-5.023932 3.83663,-2.194256 14.49112,-3.449744 18.02093,-2.119606 1.76997,0.666018 3.61517,2.422953 4.43084,4.223913 0.92134,2.033481 0.23752,5.050706 -1.80294,7.969355 -2.14273,3.066023 -4.86615,3.719618 -6.89731,1.66411 z"
       id="path1729" />
    <path
       inkscape:connector-curvature="0"
       style="fill:#000000;fill-opacity:1;fill-rule:nonzero;stroke:none;stroke-width:0.35277775"
       d="m 294.13223,-4.155113 c -1.0734,-0.662193 -2.0869,-2.519629 -2.0869,-3.827741 0,-0.448823 -0.1682,-0.934943 -0.3728,-1.076567 -0.2079,-0.146479 -2.6118,-0.437321 -5.3462,-0.646895 -4.2593,-0.329171 -8.9902,-0.900466 -10.6579,-1.286113 -0.3601,-0.08626 -0.4387,0.545445 -0.3432,2.658378 0.1488,3.24017 -0.4066,3.666967 -1.8688,1.435386 -1.8224,-2.777975 -2.2358,-6.272694 -0.9078,-7.674607 1.1022,-1.162691 5.7418,-3.098574 8.9901,-3.756943 3.4808,-0.702394 12.7026,-0.713868 14.7861,-0.01899 2.2188,0.739719 4.2162,2.926326 4.7876,5.229654 0.399,1.618187 0.3795,2.186607 -0.1387,4.055517 -1.2747,4.578935 -4.0877,6.597117 -6.8416,4.904281 z"
       id="path1727" />
    <path
       inkscape:connector-curvature="0"
       style="fill:#000000;fill-opacity:1;fill-rule:nonzero;stroke:none;stroke-width:0.35277775"
       d="m 246.5763,-27.293837 c -1.19519,-0.15299 -3.07083,-0.620095 -4.16712,-1.031566 -5.03522,-1.89189 -12.43122,-6.50429 -14.56381,-9.07942 -1.34735,-1.63061 -2.58228,-4.94926 -2.58566,-6.95309 0,-2.05933 0.29078,-2.6354 1.33467,-2.6354 0.59084,0 1.21463,0.70622 2.35403,2.66505 1.41584,2.43733 1.80212,2.80765 4.51625,4.28039 4.27278,2.32535 10.79733,4.13014 14.91458,4.12631 6.07488,-0.0109 13.68221,-2.54163 19.93627,-6.63827 2.94152,-1.92918 3.47652,-2.1378 5.48742,-2.15693 1.6905,-0.0163 2.4073,0.16466 2.9812,0.7512 1.6018,1.64113 1.3043,5.27845 -0.5976,7.34161 -2.0168,2.18275 -6.91,5.09855 -11.37461,6.77319 -6.68262,2.504302 -12.45743,3.315769 -18.23562,2.556926 z"
       id="path1725" />
    <path
       inkscape:connector-curvature="0"
       style="fill:#000000;fill-opacity:1;fill-rule:nonzero;stroke:none;stroke-width:0.35277775"
       d="m 108.09653,-40.787553 c -2.37189,-5.795552 -3.556,-9.667456 -3.556,-15.84593 0,-7.49854 0.66353,-10.99327 3.02772,-15.96552 0.86554,-1.82391 3.68122,-5.81626 3.81308,-6.42965 0.36599,-1.68899 1.64402,-2.85549 2.8164,-2.56364 0.53843,0.13398 4.82655,-0.12345 7.08423,-0.57224 2.25853,-0.44498 4.92364,-0.9311 5.91682,-1.07273 0.9974,-0.14257 3.9761,-0.72152 6.62007,-1.28229 5.68944,-1.21148 6.59797,0.8 6.59797,2.0258 0,0.55407 -0.39558,0.96076 -1.26788,1.29761 -3.77324,1.46124 -20.36641,5.49855 -23.28847,5.49472 l -1.55781,-0.008 -1.23831,2.97608 c -1.87225,4.48898 -2.34813,7.1464 -2.34813,13.0526 0,6.43731 0.40995,8.98276 1.9086,11.78659 1.66186,3.171171 2.50179,1.458392 3.81454,0.85549 l 1.99734,-0.86314 -0.87484,-1.86506 c -0.70664,-1.50719 -0.87484,-2.47083 -0.87484,-5.02776 -0.26779,-2.935904 0.98238,-4.332943 1.8097,-6.7885 0.70042,-1.529932 2.13259,-2.10814 7.9074,-3.79043 7.14159,-2.08229 10.13381,-2.64689 13.1049,-2.47464 1.85534,0.10813 2.37433,0.28421 2.46646,0.82967 0.27387,1.62679 -1.04305,5.03349 -16.41324,8.08037 -3.407,1.288718 -5.05085,-0.703782 -5.05623,4.51673 0.007,2.63157 0.99741,5.48803 2.13344,6.17512 0.9543,0.57607 0.98726,3.66029 0.0524,3.66029 -0.38628,0 -0.79539,0.17224 -0.91119,0.38469 -0.11496,0.20968 -3.46906,2.68802 -5.01081,3.06219 -4.04795,0.97512 -6.07753,0.99042 -6.44437,2.07463 -0.38967,1.16554 -1.45638,-0.70336 -2.22895,-1.72727 z"
       id="path1721"
       sodipodi:nodetypes="ccccccccsccccsccccccccccccsccccc" />
  </g>
</svg>
