<?xml version="1.0" encoding="UTF-8" standalone="no"?>
<!-- Created with Inkscape (http://www.inkscape.org/) -->

<svg
   xmlns:dc="http://purl.org/dc/elements/1.1/"
   xmlns:cc="http://creativecommons.org/ns#"
   xmlns:rdf="http://www.w3.org/1999/02/22-rdf-syntax-ns#"
   xmlns:svg="http://www.w3.org/2000/svg"
   xmlns="http://www.w3.org/2000/svg"
   xmlns:sodipodi="http://sodipodi.sourceforge.net/DTD/sodipodi-0.dtd"
   xmlns:inkscape="http://www.inkscape.org/namespaces/inkscape"
   width="297mm"
   height="210mm"
   viewBox="0 0 297 210"
   version="1.1"
   id="svg1574"
   inkscape:version="0.92.2 5c3e80d, 2017-08-06"
   sodipodi:docname="title.svg">
  <defs
     id="defs1568">
    <filter
       style="color-interpolation-filters:sRGB"
       inkscape:label="Noise Fill"
       id="filter2289">
      <feTurbulence
         type="fractalNoise"
         baseFrequency="1.44386 1.20322"
         numOctaves="5"
         seed="61"
         result="turbulence"
         id="feTurbulence2273" />
      <feComposite
         in="SourceGraphic"
         in2="turbulence"
         operator="in"
         result="composite1"
         id="feComposite2275" />
      <feColorMatrix
         values="1 0 0 0 0 0 1 0 0 0 0 0 1 0 0 0 0 0 6.76471 -7.35 "
         result="color"
         id="feColorMatrix2277" />
      <feFlood
         flood-opacity="1"
         flood-color="rgb(255,255,255)"
         result="flood"
         id="feFlood2279" />
      <feMerge
         result="merge"
         id="feMerge2285">
        <feMergeNode
           in="flood"
           id="feMergeNode2281" />
        <feMergeNode
           in="color"
           id="feMergeNode2283" />
      </feMerge>
      <feComposite
         in2="SourceGraphic"
         operator="in"
         result="composite2"
         id="feComposite2287" />
    </filter>
    <filter
       style="color-interpolation-filters:sRGB"
       inkscape:label="Noise Fill"
       id="filter2181">
      <feTurbulence
         type="fractalNoise"
         baseFrequency="1.44386 1.20322"
         numOctaves="5"
         seed="61"
         result="turbulence"
         id="feTurbulence2165" />
      <feComposite
         in="SourceGraphic"
         in2="turbulence"
         operator="in"
         result="composite1"
         id="feComposite2167" />
      <feColorMatrix
         values="1 0 0 0 0 0 1 0 0 0 0 0 1 0 0 0 0 0 7.68182 -5.21 "
         result="color"
         id="feColorMatrix2169" />
      <feFlood
         flood-opacity="1"
         flood-color="rgb(255,255,255)"
         result="flood"
         id="feFlood2171" />
      <feMerge
         result="merge"
         id="feMerge2177">
        <feMergeNode
           in="flood"
           id="feMergeNode2173" />
        <feMergeNode
           in="color"
           id="feMergeNode2175" />
      </feMerge>
      <feComposite
         in2="SourceGraphic"
         operator="in"
         result="composite2"
         id="feComposite2179" />
    </filter>
    <filter
       style="color-interpolation-filters:sRGB"
       inkscape:label="Noise Fill"
       id="filter2127">
      <feTurbulence
         type="fractalNoise"
         baseFrequency="1.44386 1.20322"
         numOctaves="5"
         seed="61"
         result="turbulence"
         id="feTurbulence2111" />
      <feComposite
         in="SourceGraphic"
         in2="turbulence"
         operator="in"
         result="composite1"
         id="feComposite2113" />
      <feColorMatrix
         values="1 0 0 0 0 0 1 0 0 0 0 0 1 0 0 0 0 0 7.81 -4.8 "
         result="color"
         id="feColorMatrix2115" />
      <feFlood
         flood-opacity="1"
         flood-color="rgb(255,255,255)"
         result="flood"
         id="feFlood2117" />
      <feMerge
         result="merge"
         id="feMerge2123">
        <feMergeNode
           in="flood"
           id="feMergeNode2119" />
        <feMergeNode
           in="color"
           id="feMergeNode2121" />
      </feMerge>
      <feComposite
         in2="SourceGraphic"
         operator="in"
         result="composite2"
         id="feComposite2125" />
    </filter>
    <filter
       style="color-interpolation-filters:sRGB"
       inkscape:label="Noise Fill"
       id="filter2073">
      <feTurbulence
         type="fractalNoise"
         baseFrequency="1.44386 1.20322"
         numOctaves="5"
         seed="61"
         result="turbulence"
         id="feTurbulence2057" />
      <feComposite
         in="SourceGraphic"
         in2="turbulence"
         operator="in"
         result="composite1"
         id="feComposite2059" />
      <feColorMatrix
         values="1 0 0 0 0 0 1 0 0 0 0 0 1 0 0 0 0 0 7.81 -4.01069 "
         result="color"
         id="feColorMatrix2061" />
      <feFlood
         flood-opacity="1"
         flood-color="rgb(255,255,255)"
         result="flood"
         id="feFlood2063" />
      <feMerge
         result="merge"
         id="feMerge2069">
        <feMergeNode
           in="flood"
           id="feMergeNode2065" />
        <feMergeNode
           in="color"
           id="feMergeNode2067" />
      </feMerge>
      <feComposite
         in2="SourceGraphic"
         operator="in"
         result="composite2"
         id="feComposite2071" />
    </filter>
    <filter
       style="color-interpolation-filters:sRGB"
       inkscape:label="Noise Fill"
       id="filter2037">
      <feTurbulence
         type="fractalNoise"
         baseFrequency="1.44386 1.20322"
         numOctaves="5"
         seed="61"
         result="turbulence"
         id="feTurbulence2021" />
      <feComposite
         in="SourceGraphic"
         in2="turbulence"
         operator="in"
         result="composite1"
         id="feComposite2023" />
      <feColorMatrix
         values="1 0 0 0 0 0 1 0 0 0 0 0 1 0 0 0 0 0 7.81 -3.34225 "
         result="color"
         id="feColorMatrix2025" />
      <feFlood
         flood-opacity="1"
         flood-color="rgb(255,255,255)"
         result="flood"
         id="feFlood2027" />
      <feMerge
         result="merge"
         id="feMerge2033">
        <feMergeNode
           in="flood"
           id="feMergeNode2029" />
        <feMergeNode
           in="color"
           id="feMergeNode2031" />
      </feMerge>
      <feComposite
         in2="SourceGraphic"
         operator="in"
         result="composite2"
         id="feComposite2035" />
    </filter>
    <filter
       style="color-interpolation-filters:sRGB"
       inkscape:label="Noise Fill"
       id="filter1839">
      <feTurbulence
         type="fractalNoise"
         baseFrequency="1.31017 1.49733"
         numOctaves="5"
         seed="61"
         result="turbulence"
         id="feTurbulence1823" />
      <feComposite
         in="SourceGraphic"
         in2="turbulence"
         operator="in"
         result="composite1"
         id="feComposite1825" />
      <feColorMatrix
         values="1 0 0 0 0 0 1 0 0 0 0 0 1 0 0 0 0 0 7.28877 -2.27 "
         result="color"
         id="feColorMatrix1827" />
      <feFlood
         flood-opacity="1"
         flood-color="rgb(255,255,255)"
         result="flood"
         id="feFlood1829" />
      <feMerge
         result="merge"
         id="feMerge1835">
        <feMergeNode
           in="flood"
           id="feMergeNode1831" />
        <feMergeNode
           in="color"
           id="feMergeNode1833" />
      </feMerge>
      <feComposite
         in2="SourceGraphic"
         operator="in"
         result="fbSourceGraphic"
         id="feComposite1837" />
      <feColorMatrix
         result="fbSourceGraphicAlpha"
         in="fbSourceGraphic"
         values="0 0 0 -1 0 0 0 0 -1 0 0 0 0 -1 0 0 0 0 1 0"
         id="feColorMatrix1841" />
      <feTurbulence
         id="feTurbulence1843"
         type="fractalNoise"
         baseFrequency="1.31017 1.49733"
         numOctaves="5"
         seed="61"
         result="turbulence" />
      <feComposite
         in2="turbulence"
         id="feComposite1845"
         in="fbSourceGraphic"
         operator="in"
         result="composite1" />
      <feColorMatrix
         id="feColorMatrix1847"
         values="1 0 0 0 0 0 1 0 0 0 0 0 1 0 0 0 0 0 7.29 -2.27 "
         result="color" />
      <feFlood
         id="feFlood1849"
         flood-opacity="1"
         flood-color="rgb(255,255,255)"
         result="flood" />
      <feMerge
         id="feMerge1851"
         result="merge">
        <feMergeNode
           id="feMergeNode1853"
           in="flood" />
        <feMergeNode
           id="feMergeNode1855"
           in="color" />
      </feMerge>
      <feComposite
         in2="fbSourceGraphic"
         id="feComposite1857"
         operator="in"
         result="composite2" />
    </filter>
    <filter
       style="color-interpolation-filters:sRGB"
       inkscape:label="Noise Fill"
       id="filter1435">
      <feTurbulence
         type="fractalNoise"
         baseFrequency="1.39345 1.39345"
         numOctaves="5"
         seed="44"
         result="turbulence"
         id="feTurbulence1419" />
      <feComposite
         in="SourceGraphic"
         in2="turbulence"
         operator="in"
         result="composite1"
         id="feComposite1421" />
      <feColorMatrix
         values="1 0 0 0 0 0 1 0 0 0 0 0 1 0 0 0 0 0 7.68 -1 "
         result="color"
         id="feColorMatrix1423" />
      <feFlood
         flood-opacity="1"
         flood-color="rgb(255,255,255)"
         result="flood"
         id="feFlood1425" />
      <feMerge
         result="merge"
         id="feMerge1431">
        <feMergeNode
           in="flood"
           id="feMergeNode1427" />
        <feMergeNode
           in="color"
           id="feMergeNode1429" />
      </feMerge>
      <feComposite
         in2="SourceGraphic"
         operator="in"
         result="fbSourceGraphic"
         id="feComposite1433" />
      <feColorMatrix
         result="fbSourceGraphicAlpha"
         in="fbSourceGraphic"
         values="0 0 0 -1 0 0 0 0 -1 0 0 0 0 -1 0 0 0 0 1 0"
         id="feColorMatrix1437" />
      <feTurbulence
         id="feTurbulence1439"
         type="fractalNoise"
         baseFrequency="1.39345 1.39345"
         numOctaves="5"
         seed="44"
         result="turbulence" />
      <feComposite
         in2="turbulence"
         id="feComposite1441"
         in="fbSourceGraphic"
         operator="in"
         result="composite1" />
      <feColorMatrix
         id="feColorMatrix1443"
         values="1 0 0 0 0 0 1 0 0 0 0 0 1 0 0 0 0 0 7.68 -1 "
         result="color" />
      <feFlood
         id="feFlood1445"
         flood-opacity="1"
         flood-color="rgb(255,255,255)"
         result="flood" />
      <feMerge
         id="feMerge1447"
         result="merge">
        <feMergeNode
           id="feMergeNode1449"
           in="flood" />
        <feMergeNode
           id="feMergeNode1451"
           in="color" />
      </feMerge>
      <feComposite
         in2="fbSourceGraphic"
         id="feComposite1453"
         operator="in"
         result="fbSourceGraphic" />
      <feColorMatrix
         result="fbSourceGraphicAlpha"
         in="fbSourceGraphic"
         values="0 0 0 -1 0 0 0 0 -1 0 0 0 0 -1 0 0 0 0 1 0"
         id="feColorMatrix1455" />
      <feTurbulence
         id="feTurbulence1457"
         type="fractalNoise"
         baseFrequency="1.39345 1.39345"
         numOctaves="5"
         seed="44"
         result="turbulence" />
      <feComposite
         in2="turbulence"
         id="feComposite1459"
         in="fbSourceGraphic"
         operator="in"
         result="composite1" />
      <feColorMatrix
         id="feColorMatrix1461"
         values="1 0 0 0 0 0 1 0 0 0 0 0 1 0 0 0 0 0 7.68 -1 "
         result="color" />
      <feFlood
         id="feFlood1463"
         flood-opacity="1"
         flood-color="rgb(255,255,255)"
         result="flood" />
      <feMerge
         id="feMerge1465"
         result="merge">
        <feMergeNode
           id="feMergeNode1467"
           in="flood" />
        <feMergeNode
           id="feMergeNode1469"
           in="color" />
      </feMerge>
      <feComposite
         in2="fbSourceGraphic"
         id="feComposite1471"
         operator="in"
         result="fbSourceGraphic" />
      <feColorMatrix
         result="fbSourceGraphicAlpha"
         in="fbSourceGraphic"
         values="0 0 0 -1 0 0 0 0 -1 0 0 0 0 -1 0 0 0 0 1 0"
         id="feColorMatrix1473" />
      <feTurbulence
         id="feTurbulence1475"
         type="fractalNoise"
         baseFrequency="1.39345 1.39345"
         numOctaves="5"
         seed="44"
         result="turbulence" />
      <feComposite
         in2="turbulence"
         id="feComposite1477"
         in="fbSourceGraphic"
         operator="in"
         result="composite1" />
      <feColorMatrix
         id="feColorMatrix1479"
         values="1 0 0 0 0 0 1 0 0 0 0 0 1 0 0 0 0 0 7.68 -1 "
         result="color" />
      <feFlood
         id="feFlood1481"
         flood-opacity="1"
         flood-color="rgb(255,255,255)"
         result="flood" />
      <feMerge
         id="feMerge1483"
         result="merge">
        <feMergeNode
           id="feMergeNode1485"
           in="flood" />
        <feMergeNode
           id="feMergeNode1487"
           in="color" />
      </feMerge>
      <feComposite
         in2="fbSourceGraphic"
         id="feComposite1489"
         operator="in"
         result="fbSourceGraphic" />
      <feColorMatrix
         result="fbSourceGraphicAlpha"
         in="fbSourceGraphic"
         values="0 0 0 -1 0 0 0 0 -1 0 0 0 0 -1 0 0 0 0 1 0"
         id="feColorMatrix1491" />
      <feTurbulence
         id="feTurbulence1493"
         type="fractalNoise"
         baseFrequency="1.39345 1.39345"
         numOctaves="5"
         seed="44"
         result="turbulence" />
      <feComposite
         in2="turbulence"
         id="feComposite1495"
         in="fbSourceGraphic"
         operator="in"
         result="composite1" />
      <feColorMatrix
         id="feColorMatrix1497"
         values="1 0 0 0 0 0 1 0 0 0 0 0 1 0 0 0 0 0 7.68 -1 "
         result="color" />
      <feFlood
         id="feFlood1499"
         flood-opacity="1"
         flood-color="rgb(255,255,255)"
         result="flood" />
      <feMerge
         id="feMerge1501"
         result="merge">
        <feMergeNode
           id="feMergeNode1503"
           in="flood" />
        <feMergeNode
           id="feMergeNode1505"
           in="color" />
      </feMerge>
      <feComposite
         in2="fbSourceGraphic"
         id="feComposite1507"
         operator="in"
         result="fbSourceGraphic" />
      <feColorMatrix
         result="fbSourceGraphicAlpha"
         in="fbSourceGraphic"
         values="0 0 0 -1 0 0 0 0 -1 0 0 0 0 -1 0 0 0 0 1 0"
         id="feColorMatrix1509" />
      <feTurbulence
         id="feTurbulence1511"
         type="fractalNoise"
         baseFrequency="1.39345 1.39345"
         numOctaves="5"
         seed="44"
         result="turbulence" />
      <feComposite
         in2="turbulence"
         id="feComposite1513"
         in="fbSourceGraphic"
         operator="in"
         result="composite1" />
      <feColorMatrix
         id="feColorMatrix1515"
         values="1 0 0 0 0 0 1 0 0 0 0 0 1 0 0 0 0 0 7.68 -1 "
         result="color" />
      <feFlood
         id="feFlood1517"
         flood-opacity="1"
         flood-color="rgb(255,255,255)"
         result="flood" />
      <feMerge
         id="feMerge1519"
         result="merge">
        <feMergeNode
           id="feMergeNode1521"
           in="flood" />
        <feMergeNode
           id="feMergeNode1523"
           in="color" />
      </feMerge>
      <feComposite
         in2="fbSourceGraphic"
         id="feComposite1525"
         operator="in"
         result="fbSourceGraphic" />
      <feColorMatrix
         result="fbSourceGraphicAlpha"
         in="fbSourceGraphic"
         values="0 0 0 -1 0 0 0 0 -1 0 0 0 0 -1 0 0 0 0 1 0"
         id="feColorMatrix1527" />
      <feTurbulence
         id="feTurbulence1529"
         type="fractalNoise"
         baseFrequency="1.39345 1.39345"
         numOctaves="5"
         seed="44"
         result="turbulence" />
      <feComposite
         in2="turbulence"
         id="feComposite1531"
         in="fbSourceGraphic"
         operator="in"
         result="composite1" />
      <feColorMatrix
         id="feColorMatrix1533"
         values="1 0 0 0 0 0 1 0 0 0 0 0 1 0 0 0 0 0 7.68 -1 "
         result="color" />
      <feFlood
         id="feFlood1535"
         flood-opacity="1"
         flood-color="rgb(255,255,255)"
         result="flood" />
      <feMerge
         id="feMerge1537"
         result="merge">
        <feMergeNode
           id="feMergeNode1539"
           in="flood" />
        <feMergeNode
           id="feMergeNode1541"
           in="color" />
      </feMerge>
      <feComposite
         in2="fbSourceGraphic"
         id="feComposite1543"
         operator="in"
         result="fbSourceGraphic" />
      <feColorMatrix
         result="fbSourceGraphicAlpha"
         in="fbSourceGraphic"
         values="0 0 0 -1 0 0 0 0 -1 0 0 0 0 -1 0 0 0 0 1 0"
         id="feColorMatrix1545" />
      <feTurbulence
         id="feTurbulence1547"
         type="fractalNoise"
         baseFrequency="1.39345 1.39345"
         numOctaves="5"
         seed="44"
         result="turbulence" />
      <feComposite
         in2="turbulence"
         id="feComposite1549"
         in="fbSourceGraphic"
         operator="in"
         result="composite1" />
      <feColorMatrix
         id="feColorMatrix1551"
         values="1 0 0 0 0 0 1 0 0 0 0 0 1 0 0 0 0 0 7.68 -1 "
         result="color" />
      <feFlood
         id="feFlood1553"
         flood-opacity="1"
         flood-color="rgb(255,255,255)"
         result="flood" />
      <feMerge
         id="feMerge1555"
         result="merge">
        <feMergeNode
           id="feMergeNode1557"
           in="flood" />
        <feMergeNode
           id="feMergeNode1559"
           in="color" />
      </feMerge>
      <feComposite
         in2="fbSourceGraphic"
         id="feComposite1561"
         operator="in"
         result="fbSourceGraphic" />
      <feColorMatrix
         result="fbSourceGraphicAlpha"
         in="fbSourceGraphic"
         values="0 0 0 -1 0 0 0 0 -1 0 0 0 0 -1 0 0 0 0 1 0"
         id="feColorMatrix1563" />
      <feTurbulence
         id="feTurbulence1565"
         type="fractalNoise"
         baseFrequency="1.39345 1.39345"
         numOctaves="5"
         seed="44"
         result="turbulence" />
      <feComposite
         in2="turbulence"
         id="feComposite1567"
         in="fbSourceGraphic"
         operator="in"
         result="composite1" />
      <feColorMatrix
         id="feColorMatrix1569"
         values="1 0 0 0 0 0 1 0 0 0 0 0 1 0 0 0 0 0 7.68 -1 "
         result="color" />
      <feFlood
         id="feFlood1571"
         flood-opacity="1"
         flood-color="rgb(255,255,255)"
         result="flood" />
      <feMerge
         id="feMerge1573"
         result="merge">
        <feMergeNode
           id="feMergeNode1575"
           in="flood" />
        <feMergeNode
           id="feMergeNode1577"
           in="color" />
      </feMerge>
      <feComposite
         in2="fbSourceGraphic"
         id="feComposite1579"
         operator="in"
         result="fbSourceGraphic" />
      <feColorMatrix
         result="fbSourceGraphicAlpha"
         in="fbSourceGraphic"
         values="0 0 0 -1 0 0 0 0 -1 0 0 0 0 -1 0 0 0 0 1 0"
         id="feColorMatrix1581" />
      <feTurbulence
         id="feTurbulence1583"
         type="fractalNoise"
         baseFrequency="1.39345 1.39345"
         numOctaves="5"
         seed="44"
         result="turbulence" />
      <feComposite
         in2="turbulence"
         id="feComposite1585"
         in="fbSourceGraphic"
         operator="in"
         result="composite1" />
      <feColorMatrix
         id="feColorMatrix1587"
         values="1 0 0 0 0 0 1 0 0 0 0 0 1 0 0 0 0 0 7.68 -1 "
         result="color" />
      <feFlood
         id="feFlood1589"
         flood-opacity="1"
         flood-color="rgb(255,255,255)"
         result="flood" />
      <feMerge
         id="feMerge1591"
         result="merge">
        <feMergeNode
           id="feMergeNode1593"
           in="flood" />
        <feMergeNode
           id="feMergeNode1595"
           in="color" />
      </feMerge>
      <feComposite
         in2="fbSourceGraphic"
         id="feComposite1597"
         operator="in"
         result="fbSourceGraphic" />
      <feColorMatrix
         result="fbSourceGraphicAlpha"
         in="fbSourceGraphic"
         values="0 0 0 -1 0 0 0 0 -1 0 0 0 0 -1 0 0 0 0 1 0"
         id="feColorMatrix1599" />
      <feTurbulence
         id="feTurbulence1601"
         type="fractalNoise"
         baseFrequency="1.39345 1.39345"
         numOctaves="5"
         seed="44"
         result="turbulence" />
      <feComposite
         in2="turbulence"
         id="feComposite1603"
         in="fbSourceGraphic"
         operator="in"
         result="composite1" />
      <feColorMatrix
         id="feColorMatrix1605"
         values="1 0 0 0 0 0 1 0 0 0 0 0 1 0 0 0 0 0 7.68 -1 "
         result="color" />
      <feFlood
         id="feFlood1607"
         flood-opacity="1"
         flood-color="rgb(255,255,255)"
         result="flood" />
      <feMerge
         id="feMerge1609"
         result="merge">
        <feMergeNode
           id="feMergeNode1611"
           in="flood" />
        <feMergeNode
           id="feMergeNode1613"
           in="color" />
      </feMerge>
      <feComposite
         in2="fbSourceGraphic"
         id="feComposite1615"
         operator="in"
         result="fbSourceGraphic" />
      <feColorMatrix
         result="fbSourceGraphicAlpha"
         in="fbSourceGraphic"
         values="0 0 0 -1 0 0 0 0 -1 0 0 0 0 -1 0 0 0 0 1 0"
         id="feColorMatrix1617" />
      <feTurbulence
         id="feTurbulence1619"
         type="fractalNoise"
         baseFrequency="1.39345 1.39345"
         numOctaves="5"
         seed="44"
         result="turbulence" />
      <feComposite
         in2="turbulence"
         id="feComposite1621"
         in="fbSourceGraphic"
         operator="in"
         result="composite1" />
      <feColorMatrix
         id="feColorMatrix1623"
         values="1 0 0 0 0 0 1 0 0 0 0 0 1 0 0 0 0 0 7.68 -1 "
         result="color" />
      <feFlood
         id="feFlood1625"
         flood-opacity="1"
         flood-color="rgb(255,255,255)"
         result="flood" />
      <feMerge
         id="feMerge1627"
         result="merge">
        <feMergeNode
           id="feMergeNode1629"
           in="flood" />
        <feMergeNode
           id="feMergeNode1631"
           in="color" />
      </feMerge>
      <feComposite
         in2="fbSourceGraphic"
         id="feComposite1633"
         operator="in"
         result="fbSourceGraphic" />
      <feColorMatrix
         result="fbSourceGraphicAlpha"
         in="fbSourceGraphic"
         values="0 0 0 -1 0 0 0 0 -1 0 0 0 0 -1 0 0 0 0 1 0"
         id="feColorMatrix1635" />
      <feTurbulence
         id="feTurbulence1637"
         type="fractalNoise"
         baseFrequency="1.39345 1.39345"
         numOctaves="5"
         seed="44"
         result="turbulence" />
      <feComposite
         in2="turbulence"
         id="feComposite1639"
         in="fbSourceGraphic"
         operator="in"
         result="composite1" />
      <feColorMatrix
         id="feColorMatrix1641"
         values="1 0 0 0 0 0 1 0 0 0 0 0 1 0 0 0 0 0 7.68 -1 "
         result="color" />
      <feFlood
         id="feFlood1643"
         flood-opacity="1"
         flood-color="rgb(255,255,255)"
         result="flood" />
      <feMerge
         id="feMerge1645"
         result="merge">
        <feMergeNode
           id="feMergeNode1647"
           in="flood" />
        <feMergeNode
           id="feMergeNode1649"
           in="color" />
      </feMerge>
      <feComposite
         in2="fbSourceGraphic"
         id="feComposite1651"
         operator="in"
         result="fbSourceGraphic" />
      <feColorMatrix
         result="fbSourceGraphicAlpha"
         in="fbSourceGraphic"
         values="0 0 0 -1 0 0 0 0 -1 0 0 0 0 -1 0 0 0 0 1 0"
         id="feColorMatrix1715" />
      <feTurbulence
         id="feTurbulence1717"
         type="fractalNoise"
         baseFrequency="1.39345 1.39345"
         numOctaves="5"
         seed="61"
         result="turbulence" />
      <feComposite
         in2="turbulence"
         id="feComposite1719"
         in="fbSourceGraphic"
         operator="in"
         result="composite1" />
      <feColorMatrix
         id="feColorMatrix1721"
         values="1 0 0 0 0 0 1 0 0 0 0 0 1 0 0 0 0 0 7.68 -1.73797 "
         result="color" />
      <feFlood
         id="feFlood1723"
         flood-opacity="1"
         flood-color="rgb(255,255,255)"
         result="flood" />
      <feMerge
         id="feMerge1725"
         result="merge">
        <feMergeNode
           id="feMergeNode1727"
           in="flood" />
        <feMergeNode
           id="feMergeNode1729"
           in="color" />
      </feMerge>
      <feComposite
         in2="fbSourceGraphic"
         id="feComposite1731"
         operator="in"
         result="composite2" />
    </filter>
    <filter
       style="color-interpolation-filters:sRGB"
       inkscape:label="Noise Fill"
       id="filter1399">
      <feTurbulence
         type="fractalNoise"
         baseFrequency="1.39345 1.39345"
         numOctaves="5"
         seed="44"
         result="turbulence"
         id="feTurbulence1383" />
      <feComposite
         in="SourceGraphic"
         in2="turbulence"
         operator="in"
         result="composite1"
         id="feComposite1385" />
      <feColorMatrix
         values="1 0 0 0 0 0 1 0 0 0 0 0 1 0 0 0 0 0 7.68182 -1 "
         result="color"
         id="feColorMatrix1387" />
      <feFlood
         flood-opacity="1"
         flood-color="rgb(255,255,255)"
         result="flood"
         id="feFlood1389" />
      <feMerge
         result="merge"
         id="feMerge1395">
        <feMergeNode
           in="flood"
           id="feMergeNode1391" />
        <feMergeNode
           in="color"
           id="feMergeNode1393" />
      </feMerge>
      <feComposite
         in2="SourceGraphic"
         operator="in"
         result="fbSourceGraphic"
         id="feComposite1397" />
      <feColorMatrix
         result="fbSourceGraphicAlpha"
         in="fbSourceGraphic"
         values="0 0 0 -1 0 0 0 0 -1 0 0 0 0 -1 0 0 0 0 1 0"
         id="feColorMatrix1401" />
      <feTurbulence
         id="feTurbulence1403"
         type="fractalNoise"
         baseFrequency="1.39345 1.39345"
         numOctaves="5"
         seed="44"
         result="turbulence" />
      <feComposite
         in2="turbulence"
         id="feComposite1405"
         in="fbSourceGraphic"
         operator="in"
         result="composite1" />
      <feColorMatrix
         id="feColorMatrix1407"
         values="1 0 0 0 0 0 1 0 0 0 0 0 1 0 0 0 0 0 7.68 -1 "
         result="color" />
      <feFlood
         id="feFlood1409"
         flood-opacity="1"
         flood-color="rgb(255,255,255)"
         result="flood" />
      <feMerge
         id="feMerge1411"
         result="merge">
        <feMergeNode
           id="feMergeNode1413"
           in="flood" />
        <feMergeNode
           id="feMergeNode1415"
           in="color" />
      </feMerge>
      <feComposite
         in2="fbSourceGraphic"
         id="feComposite1417"
         operator="in"
         result="composite2" />
    </filter>
  </defs>
  <sodipodi:namedview
     id="base"
     pagecolor="#ffffff"
     bordercolor="#666666"
     borderopacity="1.0"
     inkscape:pageopacity="0.0"
     inkscape:pageshadow="2"
     inkscape:zoom="0.69702499"
     inkscape:cx="442.31895"
     inkscape:cy="329.51021"
     inkscape:document-units="mm"
     inkscape:current-layer="layer1"
     showgrid="false"
     inkscape:window-width="1600"
     inkscape:window-height="874"
     inkscape:window-x="0"
     inkscape:window-y="0"
     inkscape:window-maximized="1" />
  <metadata
     id="metadata1571">
    <rdf:RDF>
      <cc:Work
         rdf:about="">
        <dc:format>image/svg+xml</dc:format>
        <dc:type
           rdf:resource="http://purl.org/dc/dcmitype/StillImage" />
        <dc:title></dc:title>
      </cc:Work>
    </rdf:RDF>
  </metadata>
  <g
     inkscape:label="Layer 1"
     inkscape:groupmode="layer"
     id="layer1"
     transform="translate(0,-87)">
    <flowRoot
       transform="matrix(0.8613644,0,0,0.86119529,158.16477,-98.606829)"
       style="font-style:normal;font-variant:normal;font-weight:normal;font-stretch:normal;font-size:39.99820328px;line-height:1.25;font-family:FuturaRenner;-inkscape-font-specification:'FuturaRenner, Normal';font-variant-ligatures:normal;font-variant-caps:normal;font-variant-numeric:normal;font-feature-settings:normal;text-align:start;letter-spacing:0px;word-spacing:0px;writing-mode:lr-tb;text-anchor:start;opacity:0.85;fill:#000000;fill-opacity:1;stroke:none;stroke-width:0.30719784;filter:url(#filter2289)"
       id="flowRoot1472"
       xml:space="preserve"><flowRegion
         style="font-style:normal;font-variant:normal;font-weight:normal;font-stretch:normal;font-size:39.99820328px;font-family:FuturaRenner;-inkscape-font-specification:'FuturaRenner, Normal';font-variant-ligatures:normal;font-variant-caps:normal;font-variant-numeric:normal;font-feature-settings:normal;text-align:start;writing-mode:lr-tb;text-anchor:start;fill:#000000;fill-opacity:1;stroke-width:0.30719784"
         id="flowRegion1468"><rect
           style="font-style:normal;font-variant:normal;font-weight:normal;font-stretch:normal;font-size:39.99820328px;font-family:FuturaRenner;-inkscape-font-specification:'FuturaRenner, Normal';font-variant-ligatures:normal;font-variant-caps:normal;font-variant-numeric:normal;font-feature-settings:normal;text-align:start;writing-mode:lr-tb;text-anchor:start;fill:#000000;fill-opacity:1;stroke-width:0.30719784"
           y="241.65453"
           x="-37.219654"
           height="334.97687"
           width="868.45856"
           id="rect1466" /></flowRegion><flowPara
         style="font-style:normal;font-variant:normal;font-weight:normal;font-stretch:normal;font-size:39.99820328px;font-family:FuturaRenner;-inkscape-font-specification:'FuturaRenner, Normal';font-variant-ligatures:normal;font-variant-caps:normal;font-variant-numeric:normal;font-feature-settings:normal;text-align:start;writing-mode:lr-tb;text-anchor:start;fill:#000000;fill-opacity:1;stroke-width:0.30719784"
         id="flowPara1470">COPY</flowPara></flowRoot>    <g
       style="fill:#000000;stroke-width:0.90278858"
       id="g5563"
       transform="matrix(1.1077878,0,0,1.1075703,125.88099,91.321619)">
      <flowRoot
         xml:space="preserve"
         id="flowRoot1293"
         style="font-style:normal;font-variant:normal;font-weight:normal;font-stretch:normal;font-size:39.99820328px;line-height:1.25;font-family:FuturaRenner;-inkscape-font-specification:'FuturaRenner, Normal';font-variant-ligatures:normal;font-variant-caps:normal;font-variant-numeric:normal;font-feature-settings:normal;text-align:start;letter-spacing:0px;word-spacing:0px;writing-mode:lr-tb;text-anchor:start;opacity:1;fill:#000000;fill-opacity:1;stroke:none;stroke-width:0.29849306;filter:url(#filter2181)"
         transform="matrix(0.80022896,0,0,0.80022896,31.107233,-175.0947)"><flowRegion
           id="flowRegion1289"
           style="font-style:normal;font-variant:normal;font-weight:normal;font-stretch:normal;font-size:39.99820328px;font-family:FuturaRenner;-inkscape-font-specification:'FuturaRenner, Normal';font-variant-ligatures:normal;font-variant-caps:normal;font-variant-numeric:normal;font-feature-settings:normal;text-align:start;writing-mode:lr-tb;text-anchor:start;fill:#000000;fill-opacity:1;stroke-width:0.29849306"><rect
             id="rect1287"
             width="868.45856"
             height="334.97687"
             x="-37.219654"
             y="241.65453"
             style="font-style:normal;font-variant:normal;font-weight:normal;font-stretch:normal;font-size:39.99820328px;font-family:FuturaRenner;-inkscape-font-specification:'FuturaRenner, Normal';font-variant-ligatures:normal;font-variant-caps:normal;font-variant-numeric:normal;font-feature-settings:normal;text-align:start;writing-mode:lr-tb;text-anchor:start;fill:#000000;fill-opacity:1;stroke-width:0.29849306" /></flowRegion><flowPara
           id="flowPara1291"
           style="font-style:normal;font-variant:normal;font-weight:normal;font-stretch:normal;font-size:39.99820328px;font-family:FuturaRenner;-inkscape-font-specification:'FuturaRenner, Normal';font-variant-ligatures:normal;font-variant-caps:normal;font-variant-numeric:normal;font-feature-settings:normal;text-align:start;writing-mode:lr-tb;text-anchor:start;fill:#000000;fill-opacity:1;stroke-width:0.29849306">COPY</flowPara></flowRoot>      <flowRoot
         transform="matrix(0.83064142,0,0,0.83064142,33.618383,-179.5484)"
         style="font-style:normal;font-variant:normal;font-weight:normal;font-stretch:normal;font-size:39.99820328px;line-height:1.25;font-family:FuturaRenner;-inkscape-font-specification:'FuturaRenner, Normal';font-variant-ligatures:normal;font-variant-caps:normal;font-variant-numeric:normal;font-feature-settings:normal;text-align:start;letter-spacing:0px;word-spacing:0px;writing-mode:lr-tb;text-anchor:start;opacity:1;fill:#000000;fill-opacity:1;stroke:none;stroke-width:0.28756425;filter:url(#filter2127)"
         id="flowRoot1301"
         xml:space="preserve"><flowRegion
           style="font-style:normal;font-variant:normal;font-weight:normal;font-stretch:normal;font-size:39.99820328px;font-family:FuturaRenner;-inkscape-font-specification:'FuturaRenner, Normal';font-variant-ligatures:normal;font-variant-caps:normal;font-variant-numeric:normal;font-feature-settings:normal;text-align:start;writing-mode:lr-tb;text-anchor:start;fill:#000000;fill-opacity:1;stroke-width:0.28756425"
           id="flowRegion1297"><rect
             style="font-style:normal;font-variant:normal;font-weight:normal;font-stretch:normal;font-size:39.99820328px;font-family:FuturaRenner;-inkscape-font-specification:'FuturaRenner, Normal';font-variant-ligatures:normal;font-variant-caps:normal;font-variant-numeric:normal;font-feature-settings:normal;text-align:start;writing-mode:lr-tb;text-anchor:start;fill:#000000;fill-opacity:1;stroke-width:0.28756425"
             y="241.65453"
             x="-37.219654"
             height="334.97687"
             width="868.45856"
             id="rect1295" /></flowRegion><flowPara
           style="font-style:normal;font-variant:normal;font-weight:normal;font-stretch:normal;font-size:39.99820328px;font-family:FuturaRenner;-inkscape-font-specification:'FuturaRenner, Normal';font-variant-ligatures:normal;font-variant-caps:normal;font-variant-numeric:normal;font-feature-settings:normal;text-align:start;writing-mode:lr-tb;text-anchor:start;fill:#000000;fill-opacity:1;stroke-width:0.28756425"
           id="flowPara1299">COPY</flowPara></flowRoot>      <flowRoot
         xml:space="preserve"
         id="flowRoot1309"
         style="font-style:normal;font-variant:normal;font-weight:normal;font-stretch:normal;font-size:39.99820328px;line-height:1.25;font-family:FuturaRenner;-inkscape-font-specification:'FuturaRenner, Normal';font-variant-ligatures:normal;font-variant-caps:normal;font-variant-numeric:normal;font-feature-settings:normal;text-align:start;letter-spacing:0px;word-spacing:0px;writing-mode:lr-tb;text-anchor:start;opacity:1;fill:#000000;fill-opacity:1;stroke:none;stroke-width:0.27418917;filter:url(#filter2073)"
         transform="matrix(0.87116054,0,0,0.87116054,36.026303,-185.47812)"><flowRegion
           id="flowRegion1305"
           style="font-style:normal;font-variant:normal;font-weight:normal;font-stretch:normal;font-size:39.99820328px;font-family:FuturaRenner;-inkscape-font-specification:'FuturaRenner, Normal';font-variant-ligatures:normal;font-variant-caps:normal;font-variant-numeric:normal;font-feature-settings:normal;text-align:start;writing-mode:lr-tb;text-anchor:start;fill:#000000;stroke-width:0.27418917"><rect
             id="rect1303"
             width="868.45856"
             height="334.97687"
             x="-37.219654"
             y="241.65453"
             style="font-style:normal;font-variant:normal;font-weight:normal;font-stretch:normal;font-size:39.99820328px;font-family:FuturaRenner;-inkscape-font-specification:'FuturaRenner, Normal';font-variant-ligatures:normal;font-variant-caps:normal;font-variant-numeric:normal;font-feature-settings:normal;text-align:start;writing-mode:lr-tb;text-anchor:start;fill:#000000;stroke-width:0.27418917" /></flowRegion><flowPara
           id="flowPara1307"
           style="font-style:normal;font-variant:normal;font-weight:normal;font-stretch:normal;font-size:39.99820328px;font-family:FuturaRenner;-inkscape-font-specification:'FuturaRenner, Normal';font-variant-ligatures:normal;font-variant-caps:normal;font-variant-numeric:normal;font-feature-settings:normal;text-align:start;writing-mode:lr-tb;text-anchor:start;fill:#000000;stroke-width:0.27418917">COPY</flowPara></flowRoot>      <flowRoot
         transform="matrix(0.92543371,0,0,0.92543371,39.978753,-193.87625)"
         style="font-style:normal;font-variant:normal;font-weight:normal;font-stretch:normal;font-size:39.99820328px;line-height:1.25;font-family:FuturaRenner;-inkscape-font-specification:'FuturaRenner, Normal';font-variant-ligatures:normal;font-variant-caps:normal;font-variant-numeric:normal;font-feature-settings:normal;text-align:start;letter-spacing:0px;word-spacing:0px;writing-mode:lr-tb;text-anchor:start;display:inline;opacity:1;fill:#000000;fill-opacity:1;stroke:none;stroke-width:0.258109;filter:url(#filter2037)"
         id="flowRoot1317"
         xml:space="preserve"><flowRegion
           style="font-style:normal;font-variant:normal;font-weight:normal;font-stretch:normal;font-size:39.99820328px;font-family:FuturaRenner;-inkscape-font-specification:'FuturaRenner, Normal';font-variant-ligatures:normal;font-variant-caps:normal;font-variant-numeric:normal;font-feature-settings:normal;text-align:start;writing-mode:lr-tb;text-anchor:start;fill:#000000;stroke-width:0.258109"
           id="flowRegion1313"><rect
             style="font-style:normal;font-variant:normal;font-weight:normal;font-stretch:normal;font-size:39.99820328px;font-family:FuturaRenner;-inkscape-font-specification:'FuturaRenner, Normal';font-variant-ligatures:normal;font-variant-caps:normal;font-variant-numeric:normal;font-feature-settings:normal;text-align:start;writing-mode:lr-tb;text-anchor:start;fill:#000000;stroke-width:0.258109"
             y="241.65453"
             x="-37.219654"
             height="334.97687"
             width="868.45856"
             id="rect1311" /></flowRegion><flowPara
           style="font-style:normal;font-variant:normal;font-weight:normal;font-stretch:normal;font-size:39.99820328px;font-family:FuturaRenner;-inkscape-font-specification:'FuturaRenner, Normal';font-variant-ligatures:normal;font-variant-caps:normal;font-variant-numeric:normal;font-feature-settings:normal;text-align:start;writing-mode:lr-tb;text-anchor:start;fill:#000000;stroke-width:0.258109"
           id="flowPara1315">COPY</flowPara></flowRoot>      <flowRoot
         xml:space="preserve"
         id="flowRoot1325"
         style="font-style:normal;font-variant:normal;font-weight:normal;font-stretch:normal;font-size:39.99820328px;line-height:1.25;font-family:FuturaRenner;-inkscape-font-specification:'FuturaRenner, Normal';font-variant-ligatures:normal;font-variant-caps:normal;font-variant-numeric:normal;font-feature-settings:normal;text-align:start;letter-spacing:0px;word-spacing:0px;writing-mode:lr-tb;text-anchor:start;display:inline;opacity:1;fill:#000000;fill-opacity:1;stroke:none;stroke-width:0.24130177;filter:url(#filter1839)"
         transform="matrix(0.98989248,0,0,0.98989248,44.653063,-203.80774)"><flowRegion
           id="flowRegion1321"
           style="font-style:normal;font-variant:normal;font-weight:normal;font-stretch:normal;font-size:39.99820328px;font-family:FuturaRenner;-inkscape-font-specification:'FuturaRenner, Normal';font-variant-ligatures:normal;font-variant-caps:normal;font-variant-numeric:normal;font-feature-settings:normal;text-align:start;writing-mode:lr-tb;text-anchor:start;fill:#000000;stroke-width:0.24130177"><rect
             id="rect1319"
             width="868.45856"
             height="334.97687"
             x="-37.219654"
             y="241.65453"
             style="font-style:normal;font-variant:normal;font-weight:normal;font-stretch:normal;font-size:39.99820328px;font-family:FuturaRenner;-inkscape-font-specification:'FuturaRenner, Normal';font-variant-ligatures:normal;font-variant-caps:normal;font-variant-numeric:normal;font-feature-settings:normal;text-align:start;writing-mode:lr-tb;text-anchor:start;fill:#000000;stroke-width:0.24130177" /></flowRegion><flowPara
           id="flowPara1323"
           style="font-style:normal;font-variant:normal;font-weight:normal;font-stretch:normal;font-size:39.99820328px;font-family:FuturaRenner;-inkscape-font-specification:'FuturaRenner, Normal';font-variant-ligatures:normal;font-variant-caps:normal;font-variant-numeric:normal;font-feature-settings:normal;text-align:start;writing-mode:lr-tb;text-anchor:start;fill:#000000;stroke-width:0.24130177">COPY</flowPara></flowRoot>      <flowRoot
         transform="matrix(1.060474,0,0,1.060474,50.054873,-214.0942)"
         style="font-style:normal;font-variant:normal;font-weight:normal;font-stretch:normal;font-size:39.99820328px;line-height:1.25;font-family:FuturaRenner;-inkscape-font-specification:'FuturaRenner, Normal';font-variant-ligatures:normal;font-variant-caps:normal;font-variant-numeric:normal;font-feature-settings:normal;text-align:start;letter-spacing:0px;word-spacing:0px;writing-mode:lr-tb;text-anchor:start;opacity:1;fill:#000000;fill-opacity:1;stroke:none;stroke-width:0.22524156;filter:url(#filter1435)"
         id="flowRoot1333"
         xml:space="preserve"><flowRegion
           style="font-style:normal;font-variant:normal;font-weight:normal;font-stretch:normal;font-size:39.99820328px;font-family:FuturaRenner;-inkscape-font-specification:'FuturaRenner, Normal';font-variant-ligatures:normal;font-variant-caps:normal;font-variant-numeric:normal;font-feature-settings:normal;text-align:start;writing-mode:lr-tb;text-anchor:start;fill:#000000;stroke-width:0.22524156"
           id="flowRegion1329"><rect
             style="font-style:normal;font-variant:normal;font-weight:normal;font-stretch:normal;font-size:39.99820328px;font-family:FuturaRenner;-inkscape-font-specification:'FuturaRenner, Normal';font-variant-ligatures:normal;font-variant-caps:normal;font-variant-numeric:normal;font-feature-settings:normal;text-align:start;writing-mode:lr-tb;text-anchor:start;fill:#000000;stroke-width:0.22524156"
             y="241.65453"
             x="-37.219654"
             height="334.97687"
             width="868.45856"
             id="rect1327" /></flowRegion><flowPara
           style="font-style:normal;font-variant:normal;font-weight:normal;font-stretch:normal;font-size:39.99820328px;font-family:FuturaRenner;-inkscape-font-specification:'FuturaRenner, Normal';font-variant-ligatures:normal;font-variant-caps:normal;font-variant-numeric:normal;font-feature-settings:normal;text-align:start;writing-mode:lr-tb;text-anchor:start;fill:#000000;stroke-width:0.22524156"
           id="flowPara1331">COPY</flowPara></flowRoot>      <flowRoot
         xml:space="preserve"
         id="flowRoot1341"
         style="font-style:normal;font-variant:normal;font-weight:normal;font-stretch:normal;font-size:39.99820328px;line-height:1.25;font-family:FuturaRenner;-inkscape-font-specification:'FuturaRenner, Normal';font-variant-ligatures:normal;font-variant-caps:normal;font-variant-numeric:normal;font-feature-settings:normal;text-align:start;letter-spacing:0px;word-spacing:0px;writing-mode:lr-tb;text-anchor:start;opacity:1;fill:#000000;fill-opacity:1;stroke:none;stroke-width:0.20917411;filter:url(#filter1399)"
         transform="matrix(1.141933,0,0,1.141933,55.850353,-226.07018)"><flowRegion
           id="flowRegion1337"
           style="font-style:normal;font-variant:normal;font-weight:normal;font-stretch:normal;font-size:39.99820328px;font-family:FuturaRenner;-inkscape-font-specification:'FuturaRenner, Normal';font-variant-ligatures:normal;font-variant-caps:normal;font-variant-numeric:normal;font-feature-settings:normal;text-align:start;writing-mode:lr-tb;text-anchor:start;fill:#000000;stroke-width:0.20917411"><rect
             id="rect1335"
             width="868.45856"
             height="334.97687"
             x="-37.219654"
             y="241.65453"
             style="font-style:normal;font-variant:normal;font-weight:normal;font-stretch:normal;font-size:39.99820328px;font-family:FuturaRenner;-inkscape-font-specification:'FuturaRenner, Normal';font-variant-ligatures:normal;font-variant-caps:normal;font-variant-numeric:normal;font-feature-settings:normal;text-align:start;writing-mode:lr-tb;text-anchor:start;fill:#000000;stroke-width:0.20917411" /></flowRegion><flowPara
           id="flowPara1339"
           style="font-style:normal;font-variant:normal;font-weight:normal;font-stretch:normal;font-size:39.99820328px;font-family:FuturaRenner;-inkscape-font-specification:'FuturaRenner, Normal';font-variant-ligatures:normal;font-variant-caps:normal;font-variant-numeric:normal;font-feature-settings:normal;text-align:start;writing-mode:lr-tb;text-anchor:start;fill:#000000;stroke-width:0.20917411">COPY</flowPara></flowRoot>      <g
         style="opacity:1;fill:#000000;stroke-width:0.911066"
         transform="matrix(0.99091447,0,0,0.99091447,270.34989,-87.346074)"
         id="g1416">
        <path
           inkscape:connector-curvature="0"
           id="path1395"
           style="font-style:normal;font-variant:normal;font-weight:normal;font-stretch:normal;font-size:39.99820328px;line-height:1.25;font-family:FuturaRenner;-inkscape-font-specification:'FuturaRenner, Normal';font-variant-ligatures:normal;font-variant-caps:normal;font-variant-numeric:normal;font-feature-settings:normal;text-align:start;letter-spacing:0px;word-spacing:0px;writing-mode:lr-tb;text-anchor:start;fill:#000000;fill-opacity:1;stroke:none;stroke-width:0.24105291"
           d="m -229.36981,158.55613 c -0.80124,-0.15023 -1.40218,-0.4507 -2.05319,-0.75117 -0.85131,0.10016 -1.65256,-0.35054 -2.55396,-0.4507 -1.45225,-0.15023 -2.95458,0.10016 -4.40684,0 -0.85132,0.35055 -1.80279,0.40063 -2.70419,0.60094 l -0.85132,0.35054 c -0.15024,0.05 -0.30047,0 -0.4507,0.05 -0.4507,0.15022 -1.05163,0.40061 -1.3521,0.55085 l -1.45225,0.65101 c -0.50079,0.4507 -1.10172,0.60092 -1.45226,1.20186 l -0.80124,0.45071 c -0.25039,0.35053 -0.55085,0.651 -0.9014,0.85131 -0.25038,0.35054 -0.60093,0.65101 -0.85132,0.95148 -0.65101,0.55085 -1.10171,1.30203 -1.65257,1.90295 -0.20031,0.65101 -0.50077,1.25195 -0.95147,1.65256 -0.10016,0.2504 -0.40062,0.70109 -0.40062,1.20186 -0.25039,0.25039 -0.25039,0.75117 -0.55086,1.00157 -0.10016,0.90139 -0.35054,1.70263 -0.55085,2.55395 0,0.60094 -0.05,1.20187 -0.05,1.8028 -0.05,0.65102 -0.15023,1.25194 -0.10015,1.8028 0,0.30046 0.10015,0.60093 0.15023,0.90139 l 0.10016,0.95149 c 0.10016,0.90139 0.25039,1.90295 0.4507,2.50388 0.0501,0.0501 0.0501,0.20031 0.10015,0.30047 0.35055,1.10171 0.9014,2.05317 1.25195,3.00465 0.4507,0.55086 0.9014,1.10172 1.25194,1.60249 0.15023,0.20031 0.40062,0.35054 0.40062,0.60093 0.55086,0.75117 1.30203,1.30202 1.8028,2.05319 0.4507,0.25039 0.9014,0.50078 1.20186,0.9014 0.55086,0.15023 0.75117,0.651 1.25195,0.85131 0.95147,0.50079 2.0031,0.90141 2.85442,1.50234 1.15179,0.25039 2.20342,0.55086 3.25505,0.85132 1.40218,0.10016 2.90451,0.25038 4.40684,0.20031 0.9014,-0.10016 1.85288,-0.30047 2.65412,-0.50077 0.95148,-0.20031 1.75272,-0.50078 2.45381,-0.80124 0.40061,-0.05 0.65101,-0.15024 0.95147,-0.30048 0.70109,-0.20031 1.30202,-0.45069 1.65256,-0.95148 0.15024,-0.35053 0.0501,-0.85131 0.15024,-1.20185 -0.10016,-0.15025 -0.05,-0.45071 -0.15024,-0.60093 0,-0.60094 0,-1.20188 0.10017,-1.65257 0.05,-0.35055 -0.10017,-0.50077 -0.10017,-0.80124 -0.15023,-0.15024 -0.05,-0.55085 -0.40061,-0.55085 -0.95148,0.05 -1.10172,0.90139 -1.80281,1.20185 -0.50077,0.10016 -0.80123,0.40063 -1.25193,0.60093 -0.65101,0 -0.95148,0.40064 -1.40218,0.55086 -0.35054,0 -0.60094,0.20031 -0.95148,0.25039 -0.45069,0.10016 -1.00155,0 -1.45225,0.10016 -0.35054,0.05 -0.60093,0.20031 -0.95147,0.20031 -0.35055,0.05 -0.75117,0.05 -1.15179,0 -1.50233,-0.05 -2.80435,-0.4507 -4.0563,-0.60094 -0.35054,-0.25039 -0.80124,-0.40062 -1.25194,-0.55085 -0.25039,-0.35054 -0.80124,-0.4507 -1.25194,-0.55086 -0.35054,-0.35053 -0.75117,-0.70108 -1.20187,-0.95147 -0.4507,-0.25038 -0.70108,-0.70109 -1.15179,-0.95148 -0.25038,-0.45069 -0.60093,-0.70108 -0.80123,-1.10171 -0.65101,-0.50077 -1.10171,-1.15179 -1.45226,-2.00311 -0.15023,-0.30046 -0.40062,-0.60093 -0.4507,-1.00154 -0.4507,-0.55086 -0.651,-1.3521 -0.95147,-2.0532 -0.05,-1.10171 -0.10016,-2.20341 -0.10016,-3.40528 0.15024,-0.60092 0.20031,-1.30201 0.25038,-1.95303 0.20032,-0.55086 0.40063,-1.05163 0.50079,-1.65256 0.25038,-0.35054 0.4507,-0.80125 0.70108,-1.05163 0.15023,-0.15024 0.15023,-0.20031 0.25039,-0.40062 0.05,-0.20031 0.05,-0.45071 0.20031,-0.60093 0.30046,-0.40063 0.65101,-0.7011 0.80124,-1.20187 0.9014,-0.70108 1.55241,-1.65256 2.55396,-2.30358 0.85133,-0.75116 1.8028,-1.40218 2.95459,-1.80278 1.95303,-0.15025 3.30513,-0.90141 5.40839,-0.95149 1.00156,0.20032 2.00311,0.30047 2.90451,0.4507 0.95147,0.25039 1.8028,0.55086 2.70419,0.90139 0.85133,0.40063 1.30202,1.55242 2.50389,1.35212 0.60093,-0.35055 0.35054,-1.30203 0.30046,-2.0532 0,-0.9014 0.10016,-1.90294 -0.2003,-2.4538 -0.2504,-0.40062 -0.65102,-0.45071 -0.95149,-0.65102 z" />
        <path
           inkscape:connector-curvature="0"
           id="path1397"
           style="font-style:normal;font-variant:normal;font-weight:normal;font-stretch:normal;font-size:39.99820328px;line-height:1.25;font-family:FuturaRenner;-inkscape-font-specification:'FuturaRenner, Normal';font-variant-ligatures:normal;font-variant-caps:normal;font-variant-numeric:normal;font-feature-settings:normal;text-align:start;letter-spacing:0px;word-spacing:0px;writing-mode:lr-tb;text-anchor:start;fill:#000000;fill-opacity:1;stroke:none;stroke-width:0.24105291"
           d="m -222.08763,165.46684 c -0.05,0.10017 0,0.25039 -0.05,0.35055 -0.05,0.05 -0.20032,0.10016 -0.25039,0.20031 l -0.15024,0.2504 c -0.60093,0.75117 -0.90139,1.70263 -1.25194,2.70419 -0.15024,0.65101 -0.25039,1.30202 -0.50078,1.85287 -0.15023,1.25195 -0.2003,2.55397 -0.2003,3.90607 -0.0501,0.4507 -0.10016,0.90139 -0.10016,1.30201 0.05,0.80126 0.55085,1.45225 0.40061,2.25349 0.30047,0.65102 0.55086,1.35212 0.70109,2.20342 1.05163,1.90296 2.20342,3.75583 3.70575,5.20809 0.4507,0.55086 1.15179,0.85132 1.50233,1.50233 0.65102,0.30046 1.20187,0.75117 1.8028,1.1017 0.70108,0.40064 1.45225,0.90141 2.2535,1.15179 0.10016,0.05 0.2003,0.15024 0.35054,0.20033 0.30046,0.05 0.60093,0.10016 0.9014,0.2003 l 0.05,0.15023 c 0.10015,0.0501 0.20031,0 0.25038,0 0.40063,0.20031 0.80125,0.30046 1.20188,0.50078 0.70108,-0.10016 1.20186,0.10017 1.70263,0.25039 0.80125,-0.0501 1.45226,0 2.05319,0.15023 1.55241,-0.15023 3.30512,-0.05 4.60714,-0.50078 0.70109,-0.20031 1.50233,-0.35054 2.10327,-0.70109 0.70109,-0.20031 1.40218,-0.4507 1.90295,-0.85132 0.75117,-0.20031 1.15179,-0.75117 1.90295,-0.95147 l 1.60249,-1.20187 c 0.35055,-0.55085 1.10171,-0.80124 1.40218,-1.40218 0.95147,-0.90139 1.65256,-2.10326 2.4538,-3.15488 0.20032,-0.9014 0.9014,-1.60249 1.15179,-2.55397 0.15023,-0.35055 0.10016,-0.75117 0.20032,-1.15178 0,-0.10016 0.10015,-0.20031 0.15023,-0.35055 0.10016,-0.50078 0.15023,-1.00155 0.30046,-1.55241 -0.05,-1.30202 0.05,-2.50388 0.10016,-3.85597 0,-0.05 -0.05,-0.10017 -0.10016,-0.10017 -0.05,-1.00155 -0.45069,-1.75272 -0.40062,-2.90451 -0.30047,-0.50077 -0.40062,-1.15179 -0.70109,-1.60247 -0.10016,-0.65102 -0.60093,-0.95149 -0.65101,-1.65258 -0.55085,-0.651 -0.95148,-1.50232 -1.55241,-2.10325 -0.50077,-0.75117 -1.15179,-1.40218 -1.65256,-2.15335 -0.55086,-0.25038 -1.05163,-0.55085 -1.45226,-0.95146 -0.50077,-0.25039 -0.95147,-0.60094 -1.30202,-1.00157 -1.35209,-0.35053 -1.95302,-1.45225 -3.65566,-1.45225 -0.35055,-0.25039 -0.70109,-0.4507 -1.20187,-0.60093 -0.30047,-0.10015 -0.75117,-0.20031 -1.15178,-0.25039 -0.40063,-0.10016 -0.80125,-0.20031 -1.20188,-0.2504 -0.2003,0 -0.45069,0.0501 -0.70108,0 -0.20031,0 -0.35055,-0.15022 -0.55085,-0.15022 -1.10172,-0.10016 -1.90296,0 -2.85443,0.10016 -0.55086,0 -1.10171,0.05 -1.55241,0.15023 -0.20031,0.05 -0.40063,0.20031 -0.55086,0.20031 -0.30046,0.10016 -0.55085,0.05 -0.80124,0.10016 -0.25039,0.05 -0.40062,0.2003 -0.65101,0.25038 -0.25039,0.05 -0.4507,0.05 -0.70108,0.15024 -0.65102,0.40062 -1.50234,0.55086 -2.05319,1.00155 -0.75116,0.30046 -1.15179,0.9014 -2.05319,1.05163 -0.75116,0.65101 -1.45225,1.30203 -2.35365,1.8028 -0.30046,0.35053 -0.50078,0.75117 -0.80125,1.10171 -0.30046,0.35054 -0.70108,0.60094 -0.95147,0.95147 -0.15023,0.25039 -0.25039,0.65101 -0.40062,0.9014 z m 28.19373,7.36143 c 0.10016,0 0.10016,0 0.10016,0.05 -0.10016,0.35054 0,0.70108 0,1.05162 -0.05,0.55086 -0.2003,1.15179 -0.15023,1.80281 -0.25038,0.75116 -0.40062,1.50232 -0.40062,2.45381 -0.30046,0.30046 -0.40062,0.85131 -0.70109,1.1017 -0.25039,0.35055 -0.40062,0.80124 -0.55085,1.20185 -0.50078,0.45071 -0.95147,0.95149 -1.20187,1.65259 -0.40062,0.25038 -0.70109,0.60092 -0.95147,0.95146 -0.45071,0.30046 -0.95148,0.55086 -1.25194,1.00156 -0.55086,0.25039 -1.00156,0.55086 -1.45226,0.90139 -0.80124,0.10016 -1.40217,0.45071 -1.85287,0.95148 -0.80125,-0.10016 -1.30202,0.10016 -1.75272,0.35055 -1.05163,0 -2.10327,0.45069 -3.1549,0.20031 -0.9014,0.30047 -2.15333,0.05 -2.9045,-0.25039 h -0.90141 c -1.05163,-0.40063 -1.85287,-0.95148 -3.00465,-1.25195 -0.40063,-0.30046 -0.75117,-0.651 -1.25195,-0.80124 -0.25039,-0.4507 -0.65101,-0.70108 -1.00156,-1.05163 -0.55084,-0.4507 -1.20186,-1.05163 -1.75272,-1.5524 -0.10015,-0.40063 -0.35054,-0.55086 -0.55084,-0.80126 -0.15024,-0.75115 -0.60094,-1.25193 -0.80125,-1.95303 -0.25038,-0.65099 -0.50078,-1.35209 -0.80124,-2.00309 l -0.15023,-1.65257 c 0,-0.4507 -0.10016,-1.00156 -0.05,-1.40217 0,-0.45071 0.15023,-0.9014 0.20031,-1.35211 0.10015,-0.4507 0.2003,-0.90139 0.25039,-1.35209 0.30046,-0.35054 0.35054,-0.95148 0.55084,-1.40218 0.35055,-0.45069 0.30047,-0.95148 0.55086,-1.45225 0.30047,-0.55087 0.9014,-0.9014 1.05163,-1.55241 0.60093,-0.50077 1.10172,-1.10171 1.55242,-1.75272 0.25038,0 0.40061,-0.25039 0.55084,-0.40062 0.20032,-0.15024 0.70109,-0.30046 0.95148,-0.55085 0.55086,-0.20032 1.00156,-0.75118 1.60249,-1.00157 0.50077,-0.25038 1.25194,-0.35053 1.95303,-0.55085 l 0.95147,-0.35054 c 0.30048,-0.05 0.65102,-0.20031 0.95148,-0.20031 0.50078,-0.10016 1.10171,-0.05 1.65256,-0.10016 0.60094,-0.05 1.15179,-0.10016 1.75272,-0.05 0.50078,0 1.00156,0.20031 1.55242,0.20031 0.4507,0.15024 0.9014,0.30046 1.45224,0.40063 0.85133,0.30047 1.50234,0.80124 2.40374,1.05162 0.30046,0.35055 0.80124,0.50079 1.1017,0.85133 1.30203,0.70108 2.05319,1.85287 3.10482,2.75427 0.25039,0.55086 0.55086,1.05163 0.95148,1.45226 0.15023,0.55085 0.50077,1.00154 0.80124,1.50232 -0.05,0.05 0,0.10015 0.05,0.15024 0.05,1.00154 0.4507,1.65256 0.55084,2.60404 z" />
        <path
           inkscape:connector-curvature="0"
           id="path1399"
           style="font-style:normal;font-variant:normal;font-weight:normal;font-stretch:normal;font-size:39.99820328px;line-height:1.25;font-family:FuturaRenner;-inkscape-font-specification:'FuturaRenner, Normal';font-variant-ligatures:normal;font-variant-caps:normal;font-variant-numeric:normal;font-feature-settings:normal;text-align:start;letter-spacing:0px;word-spacing:0px;writing-mode:lr-tb;text-anchor:start;fill:#000000;fill-opacity:1;stroke:none;stroke-width:0.24105291"
           d="m -176.31114,176.78441 c 0.2003,0 0.40061,-0.10016 0.60093,-0.10016 h 0.70108 c 0.55086,-0.2003 1.20187,-0.2003 1.70264,-0.30046 0.65101,-0.15023 1.40218,-0.40062 1.85288,-0.65101 0.20031,-0.15024 0.50078,-0.2504 0.75117,-0.30046 0.4507,-0.40063 0.80124,-0.85133 1.35209,-1.10171 0.4507,-0.40063 0.75117,-0.9014 1.25194,-1.20187 0.15023,-0.50077 0.55086,-0.70109 0.75117,-1.10171 0.20031,-0.40063 0.45069,-0.80124 0.70109,-1.20187 0.20031,-1.40217 0.60093,-2.60403 0.45069,-4.40684 -0.15023,-0.50077 -0.15023,-1.05162 -0.2003,-1.55239 -0.10016,-0.55086 -0.35054,-1.05165 -0.40063,-1.50234 -0.70109,-1.00154 -1.35209,-2.00311 -2.15333,-2.85443 -0.30047,-0.20031 -0.60094,-0.40062 -1.00156,-0.50078 -0.25039,-0.40062 -0.65101,-0.65101 -1.05163,-0.90139 -0.55086,-0.20031 -1.05164,-0.4507 -1.65257,-0.55086 -0.30047,-0.10016 -0.60093,-0.10016 -0.95147,-0.20031 -0.30047,-0.05 -0.65102,-0.20031 -0.95148,-0.20031 -0.25039,-0.05 -0.50078,0 -0.80124,0 l -0.35054,0.05 c -0.20032,0 -0.30047,-0.05 -0.40063,-0.05 -0.60093,0 -1.20186,-0.05 -1.75272,0.05 -1.30202,-0.55085 -3.45535,-0.05 -5.30823,-0.25038 -0.55086,0.05 -0.75117,-0.10016 -1.15179,0.10016 -0.80124,1.15179 -0.05,3.35521 -0.40062,4.95768 -0.0501,0.45071 0.20031,0.55086 0.15024,0.95149 -0.20032,0.80124 0.05,1.75271 0.10016,2.40372 0,0.15024 -0.10016,0.30047 -0.10016,0.45071 0,0.70108 0.10016,1.3521 0.10016,2.05318 -0.05,1.30202 0.05,2.55397 0.05,3.85598 0,0.30046 -0.05,0.60093 -0.05,0.9014 -0.05,0.70109 0.05,1.40217 0.05,2.10327 0,0.95147 -0.15023,2.15334 -0.15023,2.90449 0,0.20031 0.10016,0.40064 0.10016,0.60095 -0.05,0.35054 -0.20031,0.70108 -0.20031,1.1017 0,1.30202 0.20031,2.60404 0.20031,3.90607 -0.05,0.60093 -0.05,1.15178 0,1.75272 0,0.65099 -0.05,1.30201 0.0501,1.90295 -0.20031,0.55085 -0.25039,1.60248 -0.15023,2.20341 0.2003,0.20031 0.40062,0.30047 0.55085,0.55086 1.15178,-0.20031 2.55396,-0.15023 3.70575,-0.30047 0.30047,-1.05163 0.15023,-2.20342 0.10016,-3.25505 -0.05,-0.70109 -0.05,-1.50233 0,-1.95303 0,-0.20031 -0.10016,-0.25038 -0.10016,-0.40062 0,-0.30047 0.10016,-0.55086 0.10016,-0.80124 -0.05,-0.90141 -0.15023,-1.8028 -0.15023,-2.65412 -0.05,-1.45225 0.10015,-2.95459 0,-4.20653 0.25039,-0.30046 0.75116,-0.4507 1.40217,-0.40062 0.65101,0 1.20187,-0.10016 1.75272,-0.10016 z m 6.40994,-10.21585 c -0.10016,0.40062 -0.2504,0.75117 -0.05,1.20186 -0.25039,0.20031 -0.20032,0.65102 -0.35055,0.95148 -0.15023,0.25039 -0.20031,0.60094 -0.20031,1.00156 -0.15023,0.25038 -0.4507,0.35054 -0.40062,0.75115 -0.65101,0.55086 -1.20187,1.15179 -2.00311,1.55242 l -2.60404,0.85133 c -1.00155,0.15022 -1.95303,0 -2.90451,0 -0.60093,0 -1.20186,0.25038 -1.75272,-0.05 -0.05,-0.9014 -0.25039,-1.90295 -0.2003,-2.85443 0,-0.10016 -0.05,-0.25039 0,-0.40062 0,0 0.15023,-0.20032 0.15023,-0.25038 0,-0.10016 -0.10016,-0.30047 -0.10016,-0.55086 -0.05,-0.70109 0,-1.05164 -0.4507,-1.40218 0.10016,-0.35054 0.4507,-0.50078 0.55085,-0.95148 -0.10016,-0.70109 -0.30047,-1.65256 0,-2.30358 -0.25038,-0.60093 -0.20031,-1.80278 0.20032,-2.25349 0.15023,0 0.30046,-0.05 0.35054,-0.15022 1.30202,0.25038 3.15489,0.05 4.55707,0.2003 1.35209,0.35054 2.45381,1.00156 3.45535,1.65257 0.50079,0.55084 0.80125,1.30203 1.30203,1.85287 0,0.40062 0.20031,0.60093 0.30046,0.95148 z" />
        <path
           inkscape:connector-curvature="0"
           id="path1401"
           style="font-style:normal;font-variant:normal;font-weight:normal;font-stretch:normal;font-size:39.99820328px;line-height:1.25;font-family:FuturaRenner;-inkscape-font-specification:'FuturaRenner, Normal';font-variant-ligatures:normal;font-variant-caps:normal;font-variant-numeric:normal;font-feature-settings:normal;text-align:start;letter-spacing:0px;word-spacing:0px;writing-mode:lr-tb;text-anchor:start;fill:#000000;fill-opacity:1;stroke:none;stroke-width:0.24105291"
           d="m -144.80367,170.37447 c 0.75117,-0.9014 1.45225,-1.95303 1.85287,-3.10482 0.50079,-0.35054 0.75117,-1.00155 1.10172,-1.55242 0.4507,-0.45069 0.75116,-1.05163 1.00154,-1.65256 0.70109,-0.70108 1.15179,-1.60249 1.60249,-2.55395 0.25039,-0.40063 0.4507,-0.9014 0.80125,-1.25194 0.20031,-0.85133 0.95147,-1.20188 0.85132,-2.35366 -0.0501,-0.2504 -0.30047,-0.35054 -0.40062,-0.55086 -0.70109,-0.05 -1.30202,0 -1.90295,0.05 -0.85133,-0.2003 -1.90296,-0.10015 -2.65412,0.10016 -0.30047,0.55086 -0.80125,0.9014 -0.80125,1.75272 -0.40062,0.40062 -0.70108,0.90139 -0.95147,1.50233 -0.4507,0.35054 -0.70109,0.95148 -0.85133,1.65256 -0.40062,0.45071 -0.95147,1.65257 -0.95147,1.65257 0,0 -1.60248,2.05318 -1.75272,2.9045 -0.50077,0.4507 -0.60093,1.3521 -1.20186,1.75272 l -0.15023,0.70109 c -0.50079,0.30047 -0.60094,1.05163 -1.40218,1.05163 -0.40063,-0.10016 -0.40063,-0.50078 -0.55085,-0.80124 -0.50078,-0.15023 -0.70109,-0.60094 -0.95148,-1.05163 -0.30047,0 -0.25039,-0.40062 -0.40063,-0.55085 -0.10016,-0.20031 -0.35054,-0.30048 -0.50077,-0.55086 0.05,-0.30046 -0.05,-0.50077 -0.15023,-0.70108 -0.30047,-0.40063 -0.70109,-0.7011 -0.95148,-1.20187 -0.10016,-0.45071 -0.40062,-0.70109 -0.4507,-1.25195 -0.30047,-0.10016 -0.30047,-0.45069 -0.55085,-0.55086 -0.35055,-0.80123 -0.85132,-1.45223 -1.25195,-2.10325 -0.15023,-0.15024 -0.05,-0.55085 -0.15023,-0.65101 -0.4507,-0.4507 -0.80124,-1.00155 -1.15179,-1.60249 -0.10016,-0.30047 -0.30047,-0.55085 -0.4507,-0.85132 -0.35054,-0.15023 -0.30046,-0.65101 -0.651,-0.80124 -0.75117,-0.30047 -2.05319,-0.10016 -2.90451,-0.40063 -0.60093,0.25039 -1.60249,0.10016 -1.95303,0.55086 -0.15023,0.40063 0,0.65101 0,1.15179 0.20031,0.50077 0.70109,0.80124 0.95147,1.30202 0.30047,1.05163 1.10172,1.65256 1.70265,2.40373 0.4507,0.70108 0.80124,1.50234 1.1017,2.35364 0.30047,0.30047 0.60094,0.60094 0.80125,0.95148 0.55086,1.3521 1.50233,2.30358 2.05319,3.6056 l 0.80123,0.9014 c 0,0.25039 0.10016,0.4507 0.15024,0.70108 0.65101,0.65101 1.05163,1.55242 1.65256,2.30358 l 0.30047,0.75116 c 0.30047,0.35055 0.55085,0.70109 0.75117,1.10171 0.20031,0.40063 0.55085,0.70109 0.70108,1.15178 0,1.70265 -0.05,3.50545 -0.35054,5.2081 0.05,0.75115 0.40062,1.55239 0.40062,2.35364 0,0.30047 -0.10015,0.60093 -0.15023,0.95148 -0.10017,0.70108 0,1.3521 0,1.95303 0,1.00155 -0.40062,1.95303 -0.15023,2.9045 0.15023,0.0501 0.15023,0.25038 0.25038,0.35055 0.25039,0.25038 0.75116,0.25038 1.15179,0.30047 1.25195,0.2003 2.50388,0.15022 3.35521,-0.40064 0.2003,-0.30044 0.2003,-0.65099 0.2003,-1.1017 0,-0.40062 -0.15023,-0.90139 -0.15023,-1.25194 0.4507,-1.15179 0.0501,-2.55396 -0.25038,-3.65567 0.15022,-0.55085 0.25038,-1.45226 0.10016,-2.10325 0.15023,-0.40064 -0.10016,-3.856 0,-5.45848 0.25038,-0.60093 0.60093,-1.15179 0.80124,-1.8028 0.10015,-0.30046 0.70109,-1.00155 0.80124,-1.1017 0.05,-0.15024 0.40062,-0.7011 0.4507,-0.9014 0.05,-0.15024 0.15024,-0.30047 0.25039,-0.45071 0.15023,-0.35054 0.20031,-0.70108 0.40062,-1.05163 0.10016,-0.20031 0.30047,-0.35055 0.4507,-0.55085 z" />
      </g>
    </g>
    <g
       id="g1180"
       transform="matrix(1.1077878,0,0,1.1075703,-154.67652,117.36246)"
       style="display:inline;stroke-width:0.18055768;stroke-miterlimit:4;stroke-dasharray:none">
      <path
         sodipodi:nodetypes="cscscsccscssscc"
         d="m 178.85785,18.668211 v 0.709146 c 0,0.888834 0.29972,1.64331 0.89917,2.263428 0.62012,0.599447 1.3746,0.899171 2.26343,0.899171 0.88883,0 1.64331,-0.299724 2.26343,-0.899171 0.62011,-0.620118 0.93017,-1.374594 0.93017,-2.263428 v -3.193603 h 6.3252 v 3.193603 c 0,2.625162 -0.93018,4.867919 -2.79053,6.728272 -1.86035,1.860351 -4.1031,2.790526 -6.72827,2.790526 -2.62516,0 -4.86792,-0.930174 -6.72827,-2.790526 -0.93018,-0.930176 -1.62781,-1.955954 -2.0929,-3.077333 -0.23255,-0.560689 -0.2861,-0.51282 -0.40237,-1.12131 z"
         style="font-style:normal;font-variant:normal;font-weight:500;font-stretch:condensed;font-size:240px;line-height:1.25;font-family:OSP-DIN;-inkscape-font-specification:'OSP-DIN, Medium Condensed';font-variant-ligatures:normal;font-variant-caps:normal;font-variant-numeric:normal;font-feature-settings:normal;text-align:start;letter-spacing:0px;word-spacing:0px;writing-mode:lr-tb;text-anchor:start;fill:#000000;fill-opacity:1;stroke:none;stroke-width:0.18055768;stroke-miterlimit:4;stroke-dasharray:none"
         id="path1136"
         inkscape:connector-curvature="0" />
      <path
         sodipodi:nodetypes="cscsccccccscscc"
         d="M 202.79438,5.8772935 V 19.377357 c 0,0.888834 0.29972,1.64331 0.89917,2.263428 0.62011,0.599447 1.37459,0.899171 2.26342,0.899171 0.90951,0 1.66398,-0.299724 2.26343,-0.899171 0.62012,-0.620118 0.93018,-1.374594 0.93018,-2.263428 V 2.4807435 l 6.3562,-3.39655105 V 19.377357 c 0,2.625162 -0.94051,4.867919 -2.82153,6.728272 -1.86035,1.860351 -4.10311,2.790526 -6.72828,2.790526 -2.60449,0 -4.84725,-0.930175 -6.72827,-2.790526 -1.86035,-1.860353 -2.79052,-4.10311 -2.79052,-6.728272 V 9.2738445 Z"
         style="font-style:normal;font-variant:normal;font-weight:500;font-stretch:condensed;font-size:240px;line-height:1.25;font-family:OSP-DIN;-inkscape-font-specification:'OSP-DIN, Medium Condensed';font-variant-ligatures:normal;font-variant-caps:normal;font-variant-numeric:normal;font-feature-settings:normal;text-align:start;letter-spacing:0px;word-spacing:0px;writing-mode:lr-tb;text-anchor:start;fill:#000000;fill-opacity:1;stroke:none;stroke-width:0.18055768;stroke-miterlimit:4;stroke-dasharray:none"
         id="path1138"
         inkscape:connector-curvature="0" />
      <path
         sodipodi:nodetypes="ccccccc"
         d="m 237.42792,-12.629766 v 3.4197215 h -6.3562 V 28.896155 h -6.3252 V -5.8532295 Z"
         style="font-style:normal;font-variant:normal;font-weight:500;font-stretch:condensed;font-size:240px;line-height:1.25;font-family:OSP-DIN;-inkscape-font-specification:'OSP-DIN, Medium Condensed';font-variant-ligatures:normal;font-variant-caps:normal;font-variant-numeric:normal;font-feature-settings:normal;text-align:start;letter-spacing:0px;word-spacing:0px;writing-mode:lr-tb;text-anchor:start;fill:#000000;fill-opacity:1;stroke:none;stroke-width:0.18055768;stroke-miterlimit:4;stroke-dasharray:none"
         id="path1140"
         inkscape:connector-curvature="0" />
      <path
         sodipodi:nodetypes="cc"
         inkscape:connector-curvature="0"
         id="path1132"
         d="m 158.25974,27.547612 90.99169,-46.546905"
         style="opacity:1;vector-effect:none;fill:#fcfcfc;fill-opacity:1;stroke:#3c3c3c;stroke-width:0.18055768;stroke-linecap:round;stroke-linejoin:bevel;stroke-miterlimit:4;stroke-dasharray:none;stroke-dashoffset:0;stroke-opacity:1" />
      <g
         transform="rotate(-8.3308327,57.610558,17.040138)"
         inkscape:transform-center-y="23.510654"
         inkscape:transform-center-x="45.960497"
         id="g1166"
         style="stroke-width:0.18055768;stroke-miterlimit:4;stroke-dasharray:none">
        <g
           id="g1158"
           style="stroke-width:0.18055768;stroke-miterlimit:4;stroke-dasharray:none">
          <path
             inkscape:connector-curvature="0"
             id="path1146"
             style="font-style:normal;font-variant:normal;font-weight:500;font-stretch:condensed;font-size:240px;line-height:1.25;font-family:OSP-DIN;-inkscape-font-specification:'OSP-DIN, Medium Condensed';font-variant-ligatures:normal;font-variant-caps:normal;font-variant-numeric:normal;font-feature-settings:normal;text-align:start;letter-spacing:0px;word-spacing:0px;writing-mode:lr-tb;text-anchor:start;fill:#000000;fill-opacity:1;stroke:none;stroke-width:0.18055768;stroke-miterlimit:4;stroke-dasharray:none"
             d="m 217.60725,14.190527 h 19.0376 v 0.215136 l -18.00621,6.141065 h -1.03139 z"
             sodipodi:nodetypes="cccccc" />
          <path
             inkscape:connector-curvature="0"
             id="path1148"
             style="font-style:normal;font-variant:normal;font-weight:500;font-stretch:condensed;font-size:240px;line-height:1.25;font-family:OSP-DIN;-inkscape-font-specification:'OSP-DIN, Medium Condensed';font-variant-ligatures:normal;font-variant-caps:normal;font-variant-numeric:normal;font-feature-settings:normal;text-align:start;letter-spacing:0px;word-spacing:0px;writing-mode:lr-tb;text-anchor:start;fill:#000000;fill-opacity:1;stroke:none;stroke-width:0.18055768;stroke-miterlimit:4;stroke-dasharray:none"
             d="m 195.65511,14.190527 h 6.3562 v 12.026997 l -6.3562,2.167798 z"
             sodipodi:nodetypes="ccccc" />
          <path
             sodipodi:nodetypes="ccccc"
             d="m 208.36751,24.049725 v -9.859198 h 6.3562 v 7.691399 z"
             style="font-style:normal;font-variant:normal;font-weight:500;font-stretch:condensed;font-size:240px;line-height:1.25;font-family:OSP-DIN;-inkscape-font-specification:'OSP-DIN, Medium Condensed';font-variant-ligatures:normal;font-variant-caps:normal;font-variant-numeric:normal;font-feature-settings:normal;text-align:start;letter-spacing:0px;word-spacing:0px;writing-mode:lr-tb;text-anchor:start;fill:#000000;fill-opacity:1;stroke:none;stroke-width:0.18055768;stroke-miterlimit:4;stroke-dasharray:none"
             id="path1150"
             inkscape:connector-curvature="0" />
          <path
             inkscape:connector-curvature="0"
             id="path1152"
             style="font-style:normal;font-variant:normal;font-weight:500;font-stretch:condensed;font-size:240px;line-height:1.25;font-family:OSP-DIN;-inkscape-font-specification:'OSP-DIN, Medium Condensed';font-variant-ligatures:normal;font-variant-caps:normal;font-variant-numeric:normal;font-feature-settings:normal;text-align:start;letter-spacing:0px;word-spacing:0px;writing-mode:lr-tb;text-anchor:start;fill:#000000;fill-opacity:1;stroke:none;stroke-width:0.18055768;stroke-miterlimit:4;stroke-dasharray:none"
             d="m 174.50911,17.01206 c 1.86035,-1.881022 4.10311,-2.821533 6.72827,-2.821533 2.62517,0 4.86792,0.940511 6.72827,2.821533 1.86035,1.860352 2.79053,4.103109 2.79053,6.728272 v 3.162597 h -6.3252 v -3.162597 c 0,-0.888835 -0.31006,-1.643311 -0.93017,-2.263428 -0.62012,-0.620117 -1.3746,-0.930176 -2.26343,-0.930176 -0.88883,0 -1.64331,0.310059 -2.26343,0.930176 -0.59945,0.620117 -0.89917,1.374593 -0.89917,2.263428 v 6.348449 4.292359 l -6.3562,2.167799 V 23.740332 c 0,-2.625163 0.93018,-4.86792 2.79053,-6.728272 z"
             sodipodi:nodetypes="cscsccscscscccsc" />
        </g>
      </g>
    </g>
    <path
       inkscape:connector-curvature="0"
       d="m 76.137211,193.44735 c -0.867579,-0.86379 -5.448094,-5.88485 -4.918545,-11.31707 0.520986,-5.34427 5.995315,-8.56871 11.056343,-8.82767 4.666945,-0.23864 10.048654,1.07847 12.214006,5.5881 2.31847,4.82856 -0.295155,10.53692 -4.132447,13.43253 -1.335021,1.00746 -1.646589,1.05353 -3.617085,1.91471 -2.839193,1.24083 -5.69788,2.45235 -8.612574,3.5018 -6.022488,2.16835 -10.614697,7.08022 -10.449653,13.76899 0.150773,6.09575 5.583775,10.86619 11.444379,11.78891 6.236513,0.9819 11.272947,-0.0366 15.562147,-4.81666 1.843026,-2.05433 5.602478,-5.42507 7.476568,-7.45189 3.31815,-3.58845 5.03509,-6.48719 6.25398,-11.32807 0.82572,-3.27948 -4.70101,-2.52389 -3.73019,-5.28272 5.83023,-0.67191 11.69134,-0.867 17.54126,-1.29753 0.91729,2.71358 -2.14619,1.91623 -6.12392,5.27928 -4.49191,3.79768 -6.58228,7.0382 -10.44847,11.41901 l -2.72605,3.08885 c -1.83482,2.07907 -4.847353,5.3839 -6.719925,7.42884 -4.000966,4.3693 -7.691323,7.0186 -13.634176,8.15832 -6.353434,1.21846 -13.889471,0.52801 -18.363556,-4.68295 -4.754001,-5.5368 -5.546344,-14.67062 -0.38039,-20.22226 3.369885,-3.62152 5.170705,-5.3807 9.682662,-7.23262 3.533552,-1.45034 9.011248,-2.90065 11.815742,-4.10798 6.276545,-2.70206 6.440858,-9.31888 3.48516,-14.15182 -2.535424,-4.14576 -9.989189,-3.8088 -11.364685,1.05834 -1.194949,4.22813 0.500527,7.09694 3.085516,10.0649 l 22.044532,25.31009 c 2.71161,3.25463 6.79409,8.58012 11.41116,9.40996 3.05347,0.54885 6.99616,-0.81804 9.13743,-2.75548 1.13988,2.06378 -0.51443,3.7472 -1.79595,5.04279 -4.19149,4.23781 -11.42227,3.37643 -16.06744,-0.001 -2.81823,-2.05018 -4.66325,-3.50461 -7.183288,-6.25969 z"
       id="path3318"
       style="display:inline;stroke-width:0.26458332" />
    <g
       id="g1208"
       transform="matrix(1.3709941,0.16140097,-0.1558989,1.4355659,103.77363,-95.032032)"
       style="display:inline;stroke-width:0.70829153">
      <flowRoot
         xml:space="preserve"
         id="flowRoot1189"
         style="font-style:normal;font-weight:normal;font-size:40px;line-height:1.25;font-family:sans-serif;letter-spacing:0px;word-spacing:0px;fill:#000000;fill-opacity:1;stroke:none;stroke-width:0.50583702"
         transform="matrix(0.37047929,0,0,0.37047929,426.41635,-116.84992)"><flowRegion
           id="flowRegion1185"
           style="stroke-width:0.50583702"><rect
             id="rect1183"
             width="741.29791"
             height="820.25275"
             x="-912.3667"
             y="868.10974"
             style="stroke-width:0.50583702" /></flowRegion><flowPara
           id="flowPara1187"
           style="font-style:normal;font-variant:normal;font-weight:normal;font-stretch:normal;font-size:119.99876404px;font-family:eufm10;-inkscape-font-specification:'eufm10, Normal';font-variant-ligatures:normal;font-variant-caps:normal;font-variant-numeric:normal;font-feature-settings:normal;text-align:start;writing-mode:lr-tb;text-anchor:start;stroke-width:0.50583702">s</flowPara></flowRoot>      <path
         id="path973"
         style="font-style:normal;font-variant:normal;font-weight:normal;font-stretch:normal;font-size:240px;line-height:1.25;font-family:'Libre Bodoni';-inkscape-font-specification:'Libre Bodoni, Normal';font-variant-ligatures:normal;font-variant-caps:normal;font-variant-numeric:normal;font-feature-settings:normal;text-align:start;letter-spacing:0px;word-spacing:0px;writing-mode:lr-tb;text-anchor:start;fill:#000000;fill-opacity:1;stroke:none;stroke-width:0.18740213"
         d="m 110.42571,244.12912 h 3.36152 v -18.20391 h -1.96519 q -0.90503,0.0516 -1.62905,0.543 -0.69815,0.46546 -1.21531,1.24118 -0.4913,0.77574 -0.74988,1.7842 -0.25858,1.00845 -0.28444,2.12034 h -0.90502 v -6.33517 h 16.75588 v 6.33517 h -0.90504 q -0.0258,-1.13775 -0.31027,-2.17206 -0.25858,-1.03431 -0.8016,-1.81005 -0.51715,-0.77574 -1.26702,-1.24117 -0.74989,-0.46544 -1.70664,-0.46544 h -1.55146 v 18.20391 h 3.36151 v 0.64644 h -10.18799 z"
         inkscape:connector-curvature="0" />
      <flowRoot
         transform="matrix(0.42225963,0,0,0.42225963,426.8772,-163.66422)"
         style="font-style:normal;font-weight:normal;font-size:40px;line-height:1.25;font-family:sans-serif;letter-spacing:0px;word-spacing:0px;fill:#000000;fill-opacity:1;stroke:none;stroke-width:0.44380787"
         id="flowRoot1199"
         xml:space="preserve"><flowRegion
           style="stroke-width:0.44380787"
           id="flowRegion1201"><rect
             style="stroke-width:0.44380787"
             y="868.10974"
             x="-912.3667"
             height="820.25275"
             width="741.29791"
             id="rect1203" /></flowRegion><flowPara
           style="font-style:normal;font-variant:normal;font-weight:normal;font-stretch:normal;font-size:119.99957275px;font-family:'Fanwood Text';-inkscape-font-specification:'Fanwood Text, Normal';font-variant-ligatures:normal;font-variant-caps:normal;font-variant-numeric:normal;font-feature-settings:normal;text-align:start;writing-mode:lr-tb;text-anchor:start;stroke-width:0.44380787"
           id="flowPara1205">p</flowPara></flowRoot>      <flowRoot
         transform="matrix(0.26209889,0,0,0.26209889,69.722124,-26.490081)"
         style="font-style:normal;font-weight:normal;font-size:40px;line-height:1.25;font-family:sans-serif;letter-spacing:0px;word-spacing:0px;fill:#000000;fill-opacity:1;stroke:none;stroke-width:0.71500546"
         id="flowRoot1207"
         xml:space="preserve"><flowRegion
           style="stroke-width:0.71500546"
           id="flowRegion1209"><rect
             style="stroke-width:0.71500546"
             y="948.82794"
             x="212.46219"
             height="164.8858"
             width="229.2746"
             id="rect1211" /></flowRegion><flowPara
           style="font-style:normal;font-variant:normal;font-weight:500;font-stretch:normal;font-size:93.33239746px;font-family:'Serreria Sobria';-inkscape-font-specification:'Serreria Sobria, Medium';font-variant-ligatures:normal;font-variant-caps:normal;font-variant-numeric:normal;font-feature-settings:normal;text-align:start;writing-mode:lr-tb;text-anchor:start;stroke-width:0.46014681"
           id="flowPara1213">e</flowPara></flowRoot>      <flowRoot
         xml:space="preserve"
         id="flowRoot2724"
         style="font-style:normal;font-weight:normal;font-size:40px;line-height:1.25;font-family:sans-serif;letter-spacing:0px;word-spacing:0px;fill:#000000;fill-opacity:1;stroke:none;stroke-width:0.59277755"
         transform="matrix(0.31614243,0,0,0.31614243,354.15887,-64.318719)"><flowRegion
           style="stroke-width:0.59277755"
           id="flowRegion2720"><rect
             style="stroke-width:0.59277755"
             id="rect2718"
             width="741.29791"
             height="820.25275"
             x="-912.3667"
             y="868.10974" /></flowRegion><flowPara
           id="flowPara2722"
           style="font-style:normal;font-variant:normal;font-weight:normal;font-stretch:normal;font-size:119.99888611px;font-family:Hanken;-inkscape-font-specification:'Hanken, Normal';font-variant-ligatures:normal;font-variant-caps:normal;font-variant-numeric:normal;font-feature-settings:normal;text-align:start;writing-mode:lr-tb;text-anchor:start;stroke-width:0.83263701">a</flowPara></flowRoot>    </g>
  </g>
</svg>
